<?xml version="1.0" encoding="UTF-8"?>
<svg width="375px" height="68px" viewBox="0 0 375 68" version="1.1" xmlns="http://www.w3.org/2000/svg" xmlns:xlink="http://www.w3.org/1999/xlink">
    <!-- Generator: Sketch 62 (91390) - https://sketch.com -->
    <title>section 3_top_features_mobile</title>
    <desc>Created with Sketch.</desc>
    <g id="Page-1" stroke="none" stroke-width="1" fill="none" fill-rule="evenodd">
        <path d="M375,0 L1.27329258e-11,0 L1.27329258e-11,66.4097162 C22.2947862,70.8037987 46.2317573,66.0919777 71.8109131,52.2742535 C110.179647,31.5476671 140.126546,32.1967082 177.872721,36.043141 C197.714848,38.065105 242.536536,51.5887498 306.896388,18.1737012 C329.557292,6.40836634 337.897484,8.98484396 353.664013,8.98484396 C364.175032,8.98484396 371.287028,5.98989597 375,0 Z" id="section-3_top_features_mobile" fill="#E0DCCC"></path>
    </g>
</svg>