<?xml version="1.0" encoding="UTF-8"?>
<svg width="375px" height="57px" viewBox="0 0 375 57" version="1.1" xmlns="http://www.w3.org/2000/svg" xmlns:xlink="http://www.w3.org/1999/xlink">
    <!-- Generator: Sketch 62 (91390) - https://sketch.com -->
    <title>section 5_top_reg vs heavy_mobile</title>
    <desc>Created with Sketch.</desc>
    <g id="Page-1" stroke="none" stroke-width="1" fill="none" fill-rule="evenodd">
        <path d="M0,0 L375,0 L375,32.9492188 C313.372396,62.9082896 252.039062,64.9252166 191,39 C129.960937,13.0747834 66.2942708,15.2075959 0,45.3984375 L0,0 Z" id="section-5_top_reg-vs-heavy_mobile" fill="#FFFFFF"></path>
    </g>
</svg>