<?xml version="1.0" encoding="UTF-8"?>
<svg width="250px" height="383px" viewBox="0 0 250 383" version="1.1" xmlns="http://www.w3.org/2000/svg" xmlns:xlink="http://www.w3.org/1999/xlink">
    <!-- Generator: Sketch 62 (91390) - https://sketch.com -->
    <title>balloon</title>
    <desc>Created with Sketch.</desc>
    <g id="Page-1" stroke="none" stroke-width="1" fill="none" fill-rule="evenodd">
        <g id="RIO_Homepage_Mobile_Option-1" transform="translate(-62.000000, -6255.000000)" fill="#AF1E23">
            <g id="instagram" transform="translate(-17.000000, 6217.000000)">
                <g id="balloon" transform="translate(79.000000, 38.000000)">
                    <path d="M144,191.649573 C144,208.145299 136.30303,216.393162 128.606061,218.042735 C138.227273,343.410256 43.9393939,282.376068 20.8484848,383 L17,383 C36.2424242,275.777778 128.606061,341.760684 124.757576,219.692308 C117.060606,218.042735 107.439394,209.794872 107.439394,190 C118.984848,193.299145 132.454545,193.299145 144,191.649573 Z" id="Path"></path>
                    <path d="M125,290 C192.79661,290 250,223.775322 250,142.596685 C250,-47.5322284 0,-47.5322284 0,142.596685 C0,223.775322 55.0847458,290 125,290 Z" id="Path"></path>
                </g>
            </g>
        </g>
    </g>
</svg>