<?xml version="1.0" encoding="UTF-8"?>
<svg width="34px" height="31px" viewBox="0 0 34 31" version="1.1" xmlns="http://www.w3.org/2000/svg" xmlns:xlink="http://www.w3.org/1999/xlink">
    <!-- Generator: Sketch 62 (91390) - https://sketch.com -->
    <title>Rectangle</title>
    <desc>Created with Sketch.</desc>
    <g id="Product-Page" stroke="none" stroke-width="1" fill="none" fill-rule="evenodd">
        <g id="Rio_Product-page_Desktop_Option-1" transform="translate(-147.000000, -4129.000000)" fill="#002561" stroke="#002561">
            <g id="how-to-use" transform="translate(120.000000, 3758.000000)">
                <g id="1" transform="translate(0.000000, 164.000000)">
                    <g id="Group-4" transform="translate(0.000000, -0.000000)">
                        <g id="text" transform="translate(0.000000, 207.000000)">
                            <g id="1" transform="translate(27.000000, 0.000000)">
                                <path d="M33.4731315,16.7915966 C33.236317,20.8096107 31.3932998,24.3512517 28.6049826,26.8291856 C25.818068,29.305873 22.0868043,30.7199231 18.0710975,30.4848878 L12.4963503,30.0190623 C8.89182623,29.7147261 5.75189876,27.9781793 3.58918635,25.4165856 C1.42647395,22.8549918 0.240976606,19.4683511 0.545312796,15.8638271 C0.595855964,15.2651994 0.68751955,14.6707577 0.81965443,14.0847116 C1.77614994,9.84245177 4.2243638,6.27830622 7.5167526,3.86660555 C10.8091414,1.45490489 14.9457051,0.195649117 19.2789004,0.563168876 C23.4980038,0.92101194 27.1640286,2.89147346 29.7169307,5.81115496 C32.2782644,8.74047949 33.7187086,12.6249087 33.4731315,16.7915966 Z" id="Rectangle"></path>
                            </g>
                        </g>
                    </g>
                </g>
            </g>
        </g>
    </g>
</svg>