<?xml version="1.0" encoding="UTF-8"?>
<svg width="1440px" height="903px" viewBox="0 0 1440 903" version="1.1" xmlns="http://www.w3.org/2000/svg" xmlns:xlink="http://www.w3.org/1999/xlink">
    <!-- Generator: Sketch 63.1 (92452) - https://sketch.com -->
    <title>bg</title>
    <desc>Created with Sketch.</desc>
    <defs>
        <path d="M1452.28559,6.40625 C1453.27856,4.84075 1241.14764,-29.6469134 1047.03931,82.3007812 C864.618755,187.507812 649.684511,101.113453 417.346222,162.164062 C173.753896,226.17185 172.387219,272.527344 0.2890625,253.40625 C0.2890625,253.40625 0.2890625,471.9375 0.2890625,909 C143.579883,817.886228 266.115035,769.683103 367.89452,764.390625 C707.892063,746.710937 864.874152,655.40625 1100.28111,655.40625 C1230.64406,655.40625 1347.30989,669.270833 1450.27859,697 C1451.61659,236.604167 1452.28559,6.40625 1452.28559,6.40625 Z" id="path-1"></path>
    </defs>
    <g id="Our-Story" stroke="none" stroke-width="1" fill="none" fill-rule="evenodd">
        <g id="RIO-Our-Story_Desktop" transform="translate(0.000000, -2346.000000)">
            <g id="section-4" transform="translate(-196.000000, 2346.000000)">
                <mask id="mask-2" fill="white">
                    <use xlink:href="#path-1"></use>
                </mask>
                <use id="bg" fill="#AF1E23" fill-rule="nonzero" transform="translate(823.642795, 454.595758) scale(-1, 1) translate(-823.642795, -454.595758) " xlink:href="#path-1"></use>
            </g>
        </g>
    </g>
</svg>