<?xml version="1.0" encoding="UTF-8"?>
<svg width="200px" height="200px" viewBox="0 0 200 200" version="1.1" xmlns="http://www.w3.org/2000/svg" xmlns:xlink="http://www.w3.org/1999/xlink">
    <!-- Generator: Sketch 62 (91390) - https://sketch.com -->
    <title>How to use</title>
    <desc>Created with Sketch.</desc>
    <g id="How-to-use" stroke="none" stroke-width="1" fill="none" fill-rule="evenodd">
        <g id="step-3" transform="translate(100.000000, 100.500000) rotate(-270.000000) translate(-100.000000, -100.500000) translate(15.000000, 6.000000)" fill="#AF1E23">
            <path d="M88.0334283,185.83071 C116.49485,197.608569 154.360881,162.536832 164.68025,124.50568 C174.99962,86.4745284 168.857213,67.0619815 149.015899,46.1149233 C129.174585,25.1678652 88.0334283,23.5910745 64.1278017,24.3673407 C40.2221752,25.1436069 0.379464286,49.133834 0.379464286,91.3627522 C0.379464286,133.59167 47.8416193,169.1986 88.0334283,185.83071 Z" id="Oval" opacity="0.0961216518"></path>
            <path d="M131.419844,55.4296023 L130.048858,49.8997914 C128.487584,43.6022362 122.07612,39.6730944 115.965407,41.2876316 L94.3231215,47.0016124 L93.5399311,43.8424337 C92.2635512,38.694276 87.0120905,35.4765734 82.0175721,36.7965498 L59.8119481,42.6589205 C54.8230738,43.9761232 51.7059009,49.3952658 52.9838934,54.5498029 L53.7670838,57.7089816 L43.2539491,60.4845656 C41.8157708,60.8639999 40.948456,62.3748029 41.3163996,63.858979 C41.6843431,65.3431551 43.1483232,66.2384868 44.5865015,65.8584978 L93.0515794,53.0631306 C93.0526545,53.0628532 117.29796,46.6615638 117.29796,46.6615638 C120.570481,45.7986837 124.006413,47.9058198 124.841475,51.2746859 L125.546185,54.1173921 L29.6913711,79.424383 C29.6913711,79.424383 28.8850666,76.113486 28.8506643,75.8547051 C28.6488194,74.3366906 27.2926154,73.2763271 25.8224536,73.4837956 C24.3517544,73.6920961 23.3234474,75.0913988 23.5252923,76.6088585 C23.5868402,77.0728889 25.1499957,83.4863823 25.1499957,83.4863823 C25.4606917,84.7400687 26.553503,85.5729935 27.7519401,85.5729935 C27.9725988,85.5729935 35.4782179,83.6222908 35.4782179,83.6222908 L42.5175244,157.677434 C43.0023821,162.830307 47.1274356,166.722837 52.1327047,166.773595 L52.1327047,175.726358 C52.1327047,177.257963 53.3359797,178.5 54.8203861,178.5 L109.451812,178.5 C110.936218,178.5 112.139493,177.257963 112.139493,175.726358 L112.139493,166.773595 C117.144762,166.72256 121.269816,162.830307 121.754405,157.680208 L125.379818,119.548726 C125.524953,118.024333 124.444774,116.666912 122.967355,116.517413 C121.49128,116.370687 120.174854,117.482363 120.029988,119.007034 L116.404306,157.141012 C116.184991,159.471149 114.308989,161.228529 112.040318,161.228529 L52.2313426,161.228529 C49.9629395,161.228529 48.0866691,159.471149 47.8670855,157.138238 L40.7468799,82.2310317 L42.0764759,81.880166 L123.55972,81.880166 L122.339244,94.7171379 C122.194109,96.2415317 123.274288,97.5989523 124.751707,97.7484517 C126.226169,97.8949 127.543939,96.7835015 127.689074,95.2588302 L129.199013,79.377231 C129.350599,77.7843282 128.079594,76.3326037 126.524233,76.3326037 L123.159256,76.3326037 L122.530607,74.9848909 C120.089117,69.7479766 114.801373,66.3164262 109.167724,66.3164262 C107.1568,66.3164262 105.117388,66.4534441 103.187901,65.7456106 L129.482026,58.8034609 C130.88849,58.432625 131.780263,56.8841004 131.419844,55.4296023 L131.419844,55.4296023 Z M58.0728906,50.2710783 C58.629628,49.3201994 59.518798,48.6455399 60.5767333,48.3714934 L82.744274,42.6306406 C83.0823411,42.5431847 83.424701,42.5 83.7646463,42.5 C84.4888074,42.5 85.2022362,42.6963683 85.8416123,43.0798704 C86.7809558,43.6434447 87.4474309,44.5435339 87.7181528,45.6144609 L88.5,48.7077368 L58.4109576,56.5 L57.6291104,53.4064525 C57.3586568,52.3352539 57.5161531,51.2219571 58.0728906,50.2710783 L58.0728906,50.2710783 Z M106.5,172.5 L57.5,172.5 L57.5,166.5 L106.5,166.5 L106.5,172.5 Z M109.5548,70.9317323 C112.731697,70.9317323 115.779046,72.6828685 117.5,75.5 L63.5,75.5 L91.9942438,67.8179711 C94.1033059,67.2411596 96.3534739,67.4538482 98.3316435,68.4174694 L98.3316435,68.4177529 L100.532357,69.4899871 C103.43215,70.9028066 106.442677,70.9317323 109.5548,70.9317323 L109.5548,70.9317323 Z" id="Shape" fill-rule="nonzero" transform="translate(77.500000, 107.500000) rotate(-90.000000) translate(-77.500000, -107.500000) "></path>
            <path d="M95.0394236,84.8966719 C91.1733819,84.8966719 88.0394236,88.0865938 88.0394236,92.0216719 L88.0394236,134.771672 C88.0394236,138.70675 91.1733819,141.896672 95.0394236,141.896672 C98.9054652,141.896672 102.039424,138.70675 102.039424,134.771672 L102.039424,92.0216719 C102.039424,88.0865938 98.9054652,84.8966719 95.0394236,84.8966719 Z M97.0394236,134.496672 C97.0394236,135.822072 95.9200486,136.896672 94.5394236,136.896672 C93.1587986,136.896672 92.0394236,135.822072 92.0394236,134.496672 L92.0394236,91.2966719 C92.0394236,89.9712719 93.1587986,88.8966719 94.5394236,88.8966719 C95.9200486,88.8966719 97.0394236,89.9712719 97.0394236,91.2966719 L97.0394236,134.496672 Z" id="Shape" fill-rule="nonzero" transform="translate(94.571376, 113.468048) rotate(-90.000000) translate(-94.571376, -113.468048) "></path>
            <path d="M95.0394236,66.8966719 C91.1733819,66.8966719 88.0394236,70.0865938 88.0394236,74.0216719 L88.0394236,116.771672 C88.0394236,120.70675 91.1733819,123.896672 95.0394236,123.896672 C98.9054652,123.896672 102.039424,120.70675 102.039424,116.771672 L102.039424,74.0216719 C102.039424,70.0865938 98.9054652,66.8966719 95.0394236,66.8966719 Z M97.0394236,116.496672 C97.0394236,117.822072 95.9200486,118.896672 94.5394236,118.896672 C93.1587986,118.896672 92.0394236,117.822072 92.0394236,116.496672 L92.0394236,73.2966719 C92.0394236,71.9712719 93.1587986,70.8966719 94.5394236,70.8966719 C95.9200486,70.8966719 97.0394236,71.9712719 97.0394236,73.2966719 L97.0394236,116.496672 Z" id="Shape" fill-rule="nonzero" transform="translate(94.571376, 95.468048) rotate(-90.000000) translate(-94.571376, -95.468048) "></path>
            <path d="M63.6995658,21.9988212 C63.222341,21.9988212 62.7649162,22.1952154 62.4274164,22.5444381 L59.1766178,25.9122597 C49.181897,16.2898792 35.7278028,11.4843967 22.1290336,12.6797683 C21.202259,12.7713257 20.4957593,13.5795004 20.500015,14.5435323 L20.500015,31.3174082 C20.500015,31.9513209 20.8112092,32.5419012 21.326234,32.8848337 C21.8408088,33.2275333 22.4883585,33.2757582 23.0452333,33.0134335 L27.6046313,30.8682411 C35.190053,27.3294192 44.1184992,29.3474097 49.5898219,35.8370359 L46.2274233,39.318547 C45.5245236,40.0465798 45.5247486,41.2265754 46.2278733,41.9543753 C46.5653732,42.303598 47.023023,42.4999922 47.500015,42.4999922 L63.7000158,42.4999922 C64.6940654,42.4999922 65.500015,41.6654918 65.500015,40.6362282 L65.500015,23.8623523 C65.500015,22.8328556 64.6938404,21.9985883 63.6995658,21.9988212 Z M62.6963793,38.8772044 L52.5883793,38.8772044 L54.0233317,37.3688528 C54.6568912,36.7050259 54.733796,35.6541252 54.204284,34.8961452 C47.8761531,25.8928744 36.4306888,22.7489694 26.7212364,27.3467789 L24.6963793,28.314939 L24.6963793,15.9304784 C37.3793317,15.2980358 49.7275221,20.319772 58.7027602,29.7605219 C59.4093793,30.5030474 60.5548079,30.5030474 61.2614269,29.7605219 L62.6963793,28.2521703 L62.6963793,38.8772044 Z" id="Shape" fill-rule="nonzero" transform="translate(43.000005, 27.499992) scale(1, -1) rotate(-125.000000) translate(-43.000005, -27.499992) "></path>
            <path d="M81.8471675,60.3180576 C81.2173657,58.807886 79.4358834,58.0630202 77.9210522,58.6918576 C76.4080247,59.3197933 75.6678948,61.1038038 76.2946904,62.6178831 C76.9208848,64.1301589 78.7077783,64.8726199 80.2208058,64.2440831 C81.7311277,63.616448 82.4769694,61.8312352 81.8471675,60.3180576 Z" id="Path" fill-rule="nonzero" transform="translate(79.071376, 61.468048) rotate(-90.000000) translate(-79.071376, -61.468048) "></path>
            <path d="M38.8845356,155.009723 C38.3597007,153.751246 36.8751321,153.130525 35.6127728,153.654556 C34.3519165,154.177836 33.7351417,155.664511 34.2574713,156.926244 C34.7793,158.186474 36.2683779,158.805191 37.5292341,158.281411 C38.7878357,157.758381 39.4093704,156.270704 38.8845356,155.009723 L38.8845356,155.009723 Z" id="Path" fill-rule="nonzero" transform="translate(36.571376, 155.968048) rotate(-90.000000) translate(-36.571376, -155.968048) "></path>
        </g>
    </g>
</svg>