<?xml version="1.0" encoding="UTF-8"?>
<svg width="200px" height="200px" viewBox="0 0 200 200" version="1.1" xmlns="http://www.w3.org/2000/svg" xmlns:xlink="http://www.w3.org/1999/xlink">
    <!-- Generator: Sketch 62 (91390) - https://sketch.com -->
    <title>How to use</title>
    <desc>Created with Sketch.</desc>
    <g id="How-to-use" stroke="none" stroke-width="1" fill="none" fill-rule="evenodd">
        <g id="step-1" transform="translate(100.000000, 100.500000) rotate(-270.000000) translate(-100.000000, -100.500000) translate(15.000000, 20.000000)" fill="#AF1E23">
            <path d="M87.65625,158.616071 C116.118414,170.130877 153.985433,135.842454 164.305071,98.6607143 C174.62471,61.4789747 168.482143,42.5 148.640311,22.0207868 C128.798479,1.54157366 87.65625,5.17474952e-13 63.75,0.758928571 C39.84375,1.51785714 0,24.9722712 0,66.2580218 C0,107.543772 47.4633929,142.355434 87.65625,158.616071 Z" id="Oval" opacity="0.0961216518"></path>
            <path d="M127.849107,42.1508929 L127.849107,148.340179 L69.9276786,148.340179 C63.2643009,148.340179 57.8607143,142.935385 57.8607143,136.273214 L57.8607143,109.725893 L33.7267857,109.725893 C27.063408,109.725893 21.6598214,104.3211 21.6598214,97.6589286 L21.6598214,42.1508929 L127.849107,42.1508929 L127.849107,42.1508929 Z M127.849107,34.9107143 L21.6598214,34.9107143 C17.6620362,34.9107143 14.4196429,38.1531076 14.4196429,42.1508929 L14.4196429,97.6589286 C14.4196429,108.304404 23.0813098,116.966071 33.7267857,116.966071 L50.6205357,116.966071 L50.6205357,136.273214 C50.6205357,146.91869 59.2822027,155.580357 69.9276786,155.580357 L127.849107,155.580357 C131.846892,155.580357 135.089286,152.337964 135.089286,148.340179 L135.089286,42.1508929 C135.089286,38.1531076 131.846892,34.9107143 127.849107,34.9107143 L127.849107,34.9107143 Z" id="Shape" fill-rule="nonzero"></path>
            <polygon id="Path" fill-rule="nonzero" points="42.5 145.714286 35.4166667 145.714286 35.4166667 131.547619 21.25 131.547619 21.25 124.464286 42.5 124.464286"></polygon>
            <polygon id="Rectangle" fill-rule="nonzero" transform="translate(30.565567, 136.687251) rotate(45.000000) translate(-30.565567, -136.687251) " points="26.9430438 124.746464 34.1781292 124.749482 34.1880906 148.628038 26.9530051 148.625019"></polygon>
        </g>
    </g>
</svg>