<?xml version="1.0" encoding="UTF-8"?>
<svg width="200px" height="200px" viewBox="0 0 200 200" version="1.1" xmlns="http://www.w3.org/2000/svg" xmlns:xlink="http://www.w3.org/1999/xlink">
    <!-- Generator: Sketch 62 (91390) - https://sketch.com -->
    <title>How to use</title>
    <desc>Created with Sketch.</desc>
    <defs>
        <path d="M91.6565093,174.700461 C137.519049,174.700461 169.997523,99.9178396 169.997523,54.0552995 C169.997523,8.19275949 132.818588,0 86.9560484,0 C41.0935084,0 -0.00247692407,15.1310954 -0.00247692407,60.9936355 C-0.00247692407,106.856176 45.7939692,174.700461 91.6565093,174.700461 Z" id="path-1"></path>
    </defs>
    <g id="How-to-use" stroke="none" stroke-width="1" fill="none" fill-rule="evenodd">
        <g id="step-2" transform="translate(15.000000, 13.000000)">
            <mask id="mask-2" fill="white">
                <use xlink:href="#path-1"></use>
            </mask>
            <use id="Mask" fill="#AF1E23" opacity="0.100000001" xlink:href="#path-1"></use>
            <g id="Group-26" mask="url(#mask-2)" fill-rule="nonzero">
                <g transform="translate(-98.002477, -8.000000)">
                    <path d="M224.420946,78.414353 C229.779595,86.6613383 234.760875,96.5680941 232.396025,106.085841 C230.156965,115.136778 222.181886,121.153446 215.993023,128 C210.691012,113.531762 208.360846,98.0863272 209.150053,82.6415813 C209.205364,80.4202058 209.666249,78.2294679 210.508584,76.1840363 C211.368315,74.1141973 213.134934,72.5917912 215.263442,72.0864776 C219.112613,71.3862619 222.25736,75.0688779 224.420946,78.414353 Z" id="Path" fill="#FCCAB4"></path>
                    <path d="M225.162861,130.845626 L253.166082,117.865905 C261.4538,114.023908 269.921686,110.078073 276.330511,103.510334 C285.427921,93.9771159 289.033877,80.3998427 285.879404,67.5565083 C282.455199,54.7965705 272.711245,44.7428428 260.141149,41 C248.259599,56.0952947 238.146113,72.5239463 230.001653,89.959506 C225.420244,99.8240936 221.482291,110.000195 217.544338,120.150336 C216.579936,122.188199 216.053661,124.408704 216,126.666156 C215.991205,128.94458 217.356385,130.999672 219.448969,131.858044 C221.41232,132.228282 223.442182,131.86862 225.162861,130.845626 Z" id="Path" fill="#FCCAB4"></path>
                    <path d="M254,49.3402839 L254,49 C244.565512,61.8197247 236.383038,75.492133 229.562189,89.8340728 C226.908789,95.514197 224.38806,101.272848 222,107.083851 C222,107.397959 222,107.712067 222,108 L245.721393,69.7311446 C249.674959,63.4228039 253.708126,56.7480035 254,49.3402839 Z" id="Path" fill="#FEE0CF"></path>
                    <path d="M153.89941,75.4320954 C148.316291,83.6761298 143.073926,93.5015669 145.695108,103.119607 C148.001749,112.14138 156.33711,118.155896 162.759008,125 C168.268134,110.524928 170.678073,95.0760905 169.836201,79.6318865 C169.759316,77.4109903 169.27066,75.2229471 168.394551,73.1766521 C167.498807,71.1075537 165.658185,69.5856923 163.440515,69.0805595 C159.430106,68.406519 156.179839,72.0878173 153.89941,75.4320954 Z" id="Path" fill="#FCCAB4"></path>
                    <path d="M153.72154,127.848262 L125.3649,114.868161 C116.998649,111.052011 108.423892,107.0801 101.90812,100.512169 C92.5333367,91.0818853 88.854327,77.4219424 92.2317013,64.5842041 C95.6090756,51.7464659 105.540842,41.6390547 118.353929,38 C130.375656,53.0924564 140.599851,69.5224916 148.82168,86.9609427 C153.591225,96.8258198 157.448562,107.002219 161.410152,117.152659 C162.383408,119.192979 162.924588,121.41101 163,123.66867 C162.994743,125.942865 161.617148,127.99086 159.507546,128.86071 C157.519393,129.226209 155.465583,128.866828 153.72154,127.848262 Z" id="Path" fill="#FCCAB4"></path>
                    <path d="M125,46.3402839 L125,46 C134.13966,58.8197247 142.066432,72.492133 148.674129,86.8340728 C151.24461,92.514197 153.686567,98.2728483 156,104.083851 C156,104.397959 156,104.712067 156,105 L132.891376,66.7311446 C129.087065,60.4228039 125.179934,53.7480035 125,46.3402839 Z" id="Path" fill="#FEE0CF"></path>
                    <path d="M308.044821,124.903244 C296.528288,121.894605 284.699575,120.199461 272.790949,119.851101 C260.844414,119.489641 249.061629,117.008925 238.00713,112.52781 C226.865883,107.882393 218.617315,98.3043623 215.773689,86.7108922 C214.757888,82.2233532 215.443438,77.5243712 217.7009,73.5011587 C220.260912,70.1063771 223.572626,67.3322436 227.383963,65.3899189 C252.813756,49.6309386 278.572584,33.7329085 307.292738,25.1581692 C315.215122,30.8538985 321.289715,38.695538 324.778658,47.730591 C326.235818,50.928737 327.645973,54.126883 328.962117,57.3713789 C327.614636,39.9438007 326.267155,22.5007725 324.919673,5.04229432 C285.051353,28.1156096 239.528159,39.963002 193.305221,39.2949015 C146.932648,38.4325594 101.693684,25.0115671 62.536862,0.5 L56.3321807,20.7549247 C57.1768087,20.6854937 58.0258315,20.6854937 58.8704594,20.7549247 C64.7072938,21.971493 70.1585529,24.5637101 74.758204,28.3099652 C85.1525496,34.1668335 96.1921676,38.8321478 107.661817,42.2149479 C119.080352,45.6291456 129.780786,51.0460962 139.249286,58.2056779 C148.799922,65.5583627 154.242703,76.9458505 153.914896,88.8893395 C153.702462,93.4761751 151.79663,97.8281602 148.556308,101.125724 C145.206913,103.751082 141.304115,105.604013 137.134053,106.548667 C108.460905,115.216107 79.3177047,123.976246 49.3284116,125.088644 C43.179244,117.542628 39.3901083,108.395091 38.4232142,98.7618772 C37.9531626,96.2589803 37.5771213,93.7097335 37.2480851,91.1141367 C35.5558993,98.4374276 33.9577238,105.807068 32.547569,113.176709 C30.2913212,124.671495 29.2572077,138.622827 38.4702193,146.085168 C44.4493123,150.013843 51.6289829,151.767353 58.7764491,151.044612 C97.3676867,150.488413 133.984708,134.775782 172.481935,130.465238 C228.371072,124.254345 283.790157,142.469873 337,160.5 C336.059897,148.170915 335.072788,135.841831 334.132685,123.420046 C331.823258,125.883525 328.776825,127.556005 325.43673,128.19409 C319.45641,128.478035 313.493773,127.349803 308.044821,124.903244 Z" id="Path" fill="#AF1E23"></path>
                    <path d="M186.445077,82.4800294 C186.538924,78.288014 188.234652,74.2910994 191.183889,71.3104141 C194.127276,68.3781613 197.424738,65.8242595 201,63.7077855 C198.978191,62.5391645 196.463868,62.6405445 194.542718,63.9681495 C192.688527,65.309955 190.677446,66.4203772 188.554109,67.2747722 C185.223051,67.7646843 181.824529,67.1033763 178.92026,65.4001515 L169,61 C174.792652,64.6882963 178.675861,70.7317772 179.623271,77.5331135 C180.473537,84.277822 179.806355,91.1272804 177.670464,97.5811409 C180.788844,96.498262 183.193275,93.9775869 184.127746,90.8116771 C184.413917,92.9833512 185.198081,95.0595231 186.41904,96.8781582 C187.701353,98.7209431 190.063858,99.4692181 192.173312,98.7007061 C190.715216,93.1028803 186.731489,88.2340736 186.445077,82.4800294 Z" id="Path" fill="#E23F45"></path>
                    <path d="M221,108.644327 C207.298704,106.269246 193.415933,105.051877 179.503618,105.005544 C162.893117,104.851541 146.41351,107.907501 131,114 C145.587554,111.74498 160.253256,109.976839 174.997106,108.695577 C190.281262,106.987196 205.711949,106.970005 221,108.644327 L221,108.644327 Z" id="Path" fill="#E23F45"></path>
                    <path d="M206,98 C201.193296,96.3653153 197.553013,92.2574787 196.389692,87.1553556 C195.226371,82.0532326 196.707485,76.6913335 200.299818,73 C198.725932,77.3666624 198.24444,82.0751817 198.90022,86.6867089 C199.578216,91.3437812 202.167159,95.4691858 206,98 L206,98 Z" id="Path" fill="#E23F45"></path>
                    <path d="M172.987901,83.1890681 C173.205009,76.7609305 170.142339,70.6628146 164.857228,67 C167.763193,71.4910388 169.545208,76.6161211 170.052546,81.9417563 C170.479433,87.3401382 168.214358,92.6012255 164,96 C166.949593,95.7294086 169.57956,94.0304979 171.039656,91.452509 C172.426885,88.9260119 173.100381,86.0693936 172.987901,83.1890681 L172.987901,83.1890681 Z" id="Path" fill="#E23F45"></path>
                    <path d="M232.848372,50.8951613 L239.542326,49.6895161 C230.061395,56.3467742 217.012093,56.6875 208,64 L233.447442,55.7177419 C235.624206,54.9416535 237.852287,54.3198382 240.115349,53.8568548 C244.072365,52.0852015 248.134731,50.5621186 252.27907,49.296371 C256.669023,52.5171566 260.035078,56.9513982 261.968372,62.0604839 L262.228837,62.6895161 L264,63.9475806 L262.020465,38 C252.820061,43.4099169 243.031674,47.7367515 232.848372,50.8951613 Z" id="Path" fill="#E23F45"></path>
                    <path d="M205,52.7194986 C199.71515,53.226047 194.405126,53.4392905 189.095536,53.3582008 C163.336066,52.8672254 138.208878,45.4793898 116.452943,32 L113,43.1645141 C113.470041,43.1262437 113.942527,43.1262437 114.412568,43.1645141 C117.660801,43.8350865 120.69446,45.2639165 123.254194,47.3288522 C126.756922,49.4084249 130.474606,51.1211178 134.345465,52.4384697 C130.613488,50.3381737 127.153219,47.8078355 124.038954,44.901784 C132.014762,45.4299321 139.850397,47.2158596 147.241683,50.190238 C145.200227,48.3918948 142.793661,47.0338898 140.178846,46.2047364 L173.007961,53.4348451 C178.77071,54.9178042 184.683535,55.7746014 190.638897,55.9896538 C195.633946,56.121279 200.579613,54.9951051 205,52.7194986 L205,52.7194986 Z" id="Path" fill="#E23F45"></path>
                    <path d="M130.680513,117.479567 L125.295663,117.923885 C124.192425,117.923885 122.668907,117.923885 122.353696,116.904566 C122.160112,116.155879 122.357486,115.360507 122.879047,114.787517 C125.444197,111.921117 128.958263,110.0662 132.781918,109.560237 C136.552065,109.020714 140.093279,107.435577 143,104.986367 L124.822847,107.28637 C125.512613,105.576713 126.667877,104.092326 128.158827,103 C121.873606,104.265326 115.496305,105.025732 109.088577,105.273867 C108.649978,104.816396 108.2461,104.327174 107.880269,103.810228 C104.48156,106.02814 101.756647,109.128068 100,112.775014 C100.648986,114.458148 101.715234,115.950634 103.099572,117.113657 C106.440827,119.329009 110.452991,120.317801 114.447159,119.910252 C121.132665,119.738463 127.788457,118.959853 134.331704,117.584112 C133.12927,117.344681 131.894796,117.309333 130.680513,117.479567 Z" id="Path" fill="#E23F45"></path>
                    <path d="M255.619257,53.2378961 C250.078869,61.0244619 250.674331,71.4065497 251.606359,81.0359362 C256.784292,133.46548 265.146653,185.53165 275.217732,237.234447 C276.900561,245.85158 278.842285,254.961862 284.874577,261.320891 C291.683559,268.536442 302.194762,270.690725 312.058724,271.495337 C324.197707,272.838799 336.482875,271.491984 348.045356,267.550143 C359.410919,263.215622 369.637336,254.806131 374.193917,243.489655 C378.284484,233.263298 377.481904,221.609405 374.478703,210.99372 C371.475502,200.378035 366.427018,190.489097 362.025775,180.366561 C344.886817,140.888672 337.042249,96.1159187 309.340309,63.282566 C302.531328,55.236448 294.246635,47.8911209 284.149666,45.1139124 C274.052698,42.3367039 261.703328,44.6467184 255.619257,53.2378961 Z" id="Path" fill="#FEE0CF"></path>
                    <path d="M280.284548,232.996039 C284.914812,225.554915 284.731694,216.039611 282.377323,207.613252 C280.022951,199.186892 275.758923,191.434642 272.488963,183.319409 C261.057182,154.980915 262.182048,122.934822 253,94 C258.231936,141.991358 266.079841,189.671588 275.497326,237.066619 C275.497326,237.377746 275.497326,237.688873 275.680444,238 C277.528778,236.644531 279.092667,234.944821 280.284548,232.996039 Z" id="Path" fill="#FBBEA4"></path>
                    <path d="M265.081821,52.7575462 C264.560751,56.4930397 266.567644,60.1207229 269.984255,61.6192409 C273.336452,63.0339677 277.036509,63.371421 280.584112,62.5859713 C284.079704,61.7833086 287.619207,61.1914894 291.183969,60.8136323 C293.535944,60.7154944 295.888376,60.9964812 298.153375,61.6460945 C298.909668,61.9561344 299.739941,62.0309222 300.538342,61.8609235 C301.614223,61.3138268 302.191059,60.1006272 301.942823,58.9070253 C301.641755,57.7552962 301.026397,56.7128975 300.167347,55.8994198 C293.783465,48.9556472 284.619967,45.346111 275.284183,46.0978484 C273.10517,46.2087463 270.97392,46.7852814 269.030268,47.7896265 C267.09566,48.8245476 265.667392,50.6215894 265.081821,52.7575462 L265.081821,52.7575462 Z" id="Path" fill="#FFEFE2"></path>
                    <path d="M122.368673,49.4354713 C127.92743,57.2505473 127.327189,67.6706486 126.38768,77.3352926 C121.16819,129.956804 112.738712,182.213613 102.612901,234.105717 C100.916566,242.754401 98.9331596,251.89804 92.8524531,258.306403 C86.0149203,265.522323 75.4193544,267.710544 65.4762247,268.492052 C53.2398159,269.842998 40.8554902,268.49119 29.2007649,264.532413 C17.7178855,260.208071 7.435489,251.767789 2.84233725,240.409878 C-1.3071578,230.120028 -0.498136754,218.423465 2.60746017,207.768911 C5.71305709,197.114357 10.7498655,187.189211 15.1864326,177.029612 C32.3585567,137.407177 40.2921825,92.6007411 68.2947497,59.5429696 C75.1583798,51.467391 83.4834674,44.0691191 93.6875716,41.1514907 C103.891676,38.2338623 116.209674,40.8128374 122.368673,49.4354713 Z" id="Path" fill="#FEE0CF"></path>
                    <path d="M97.715452,230.021966 C93.0851884,222.580843 93.2683061,213.039611 95.6226775,204.613252 C97.9770488,196.186892 102.267237,188.434642 105.537197,180.319409 C116.968978,151.980915 115.844111,119.960749 125,91 C119.768064,138.991358 111.920159,186.671588 102.528833,234.066619 C102.528833,234.377746 102.528833,234.688873 102.345716,235 C100.489618,233.655695 98.9166791,231.964616 97.715452,230.021966 L97.715452,230.021966 Z" id="Path" fill="#FBBEA4"></path>
                    <path d="M111.91304,49.7321826 C112.440316,53.4540809 110.531097,57.0883179 107.236191,58.6346614 C103.964867,60.0426009 100.357137,60.3711879 96.9006142,59.5760111 C93.4912953,58.7830367 90.0401542,58.1992902 86.5650369,57.8277902 C84.2729554,57.7170733 81.9786406,57.9894856 79.7693948,58.6346614 C79.0315902,58.9435981 78.2224772,59.0184607 77.4438899,58.849827 C76.3956128,58.3132679 75.8235679,57.1113603 76.048587,55.9181951 C76.3408557,54.750131 76.9509825,53.6947777 77.8056351,52.8789802 C83.9879021,45.9780005 92.8483994,42.3759336 101.88753,43.0889432 C104.018759,43.1902991 106.10547,43.7585158 108.01136,44.7564769 C109.917384,45.7815711 111.33002,47.583067 111.91304,49.7321826 L111.91304,49.7321826 Z" id="Path" fill="#FFEFE2"></path>
                    <rect id="Rectangle" fill="#E1F4FD" x="181" y="72" width="8" height="26"></rect>
                    <rect id="Rectangle" fill="#FFFFFF" x="167.5" y="50" width="32" height="68" rx="0.7"></rect>
                    <rect id="Rectangle" fill="#E1F4FD" x="174.5" y="61" width="16" height="48"></rect>
                </g>
            </g>
        </g>
    </g>
</svg>