<?xml version="1.0" encoding="UTF-8"?>
<svg width="446px" height="118px" viewBox="0 0 446 118" version="1.1" xmlns="http://www.w3.org/2000/svg" xmlns:xlink="http://www.w3.org/1999/xlink">
    <!-- Generator: Sketch 62 (91390) - https://sketch.com -->
    <title>300 v 500</title>
    <desc>Created with Sketch.</desc>
    <g id="Page-1" stroke="none" stroke-width="1" fill="none" fill-rule="evenodd">
        <g id="300-v-500">
            <g id="Group" fill="#002561">
                <path d="M43.8099174,81.1891304 C43.8099174,81.9586957 43.6818182,82.7282609 43.2975207,83.3695652 C43.0413223,84.0108696 42.5289256,84.523913 42.0165289,85.0369565 C41.5041322,85.55 40.9917355,85.6782609 40.2231405,85.9347826 C39.4545455,86.1913043 38.6859504,86.3195652 37.7892562,86.3195652 C36.5082645,86.3195652 35.2272727,86.0630435 34.0743802,85.6782609 C32.9214876,85.2934783 31.768595,84.523913 30.7438017,83.626087 L32.9214876,81.0608696 C33.6900826,81.7021739 34.4586777,82.2152174 35.2272727,82.4717391 C35.9958678,82.7282609 36.892562,82.9847826 37.7892562,82.9847826 C38.5578512,82.9847826 39.1983471,82.8565217 39.5826446,82.6 C39.9669421,82.3434783 40.2231405,81.9586957 40.2231405,81.4456522 L40.2231405,81.4456522 C40.2231405,81.1891304 40.2231405,81.0608696 40.0950413,80.8043478 C39.9669421,80.5478261 39.838843,80.4195652 39.5826446,80.2913043 C39.3264463,80.1630435 38.9421488,80.0347826 38.5578512,79.7782609 C38.1735537,79.65 37.5330579,79.3934783 36.892562,79.2652174 C35.9958678,79.0086957 35.3553719,78.8804348 34.5867769,78.623913 C33.946281,78.3673913 33.3057851,78.1108696 32.7933884,77.726087 C32.2809917,77.3413043 31.8966942,76.9565217 31.6404959,76.3152174 C31.3842975,75.8021739 31.2561983,75.0326087 31.2561983,74.2630435 L31.2561983,74.2630435 C31.2561983,73.4934783 31.3842975,72.8521739 31.6404959,72.2108696 C31.8966942,71.5695652 32.2809917,71.0565217 32.7933884,70.6717391 C33.3057851,70.2869565 33.946281,69.9021739 34.5867769,69.6456522 C35.3553719,69.3891304 36.1239669,69.2608696 36.892562,69.2608696 C38.1735537,69.2608696 39.1983471,69.3891304 40.2231405,69.773913 C41.2479339,70.1586957 42.1446281,70.6717391 43.0413223,71.3130435 L41.1198347,74.0065217 C40.3512397,73.4934783 39.7107438,73.1086957 38.9421488,72.8521739 C38.1735537,72.5956522 37.5330579,72.4673913 36.7644628,72.4673913 C35.9958678,72.4673913 35.4834711,72.5956522 35.2272727,72.8521739 C34.8429752,73.1086957 34.714876,73.4934783 34.714876,73.8782609 L34.714876,73.8782609 C34.714876,74.1347826 34.714876,74.3913043 34.8429752,74.5195652 C34.9710744,74.776087 35.0991736,74.9043478 35.3553719,75.0326087 C35.6115702,75.1608696 35.9958678,75.2891304 36.5082645,75.5456522 C37.0206612,75.8021739 37.5330579,75.8021739 38.3016529,76.0586957 C39.1983471,76.3152174 39.838843,76.5717391 40.4793388,76.8282609 C41.1198347,77.0847826 41.6322314,77.4695652 42.1446281,77.8543478 C42.6570248,78.2391304 42.9132231,78.7521739 43.1694215,79.2652174 C43.6818182,79.7782609 43.8099174,80.4195652 43.8099174,81.1891304 L43.8099174,81.1891304 Z M57.5165289,86.0630435 L54.0578512,86.0630435 L54.0578512,84.6521739 C53.6735537,85.1652174 53.0330579,85.55 52.5206612,85.8065217 C51.8801653,86.0630435 51.1115702,86.1913043 50.214876,86.1913043 C49.5743802,86.1913043 49.0619835,86.0630435 48.5495868,85.9347826 C48.0371901,85.8065217 47.5247934,85.55 47.1404959,85.1652174 C46.7561983,84.7804348 46.3719008,84.3956522 46.2438017,83.8826087 C45.9876033,83.3695652 45.8595041,82.8565217 45.8595041,82.2152174 L45.8595041,82.2152174 C45.8595041,81.573913 45.9876033,80.9326087 46.2438017,80.4195652 C46.5,79.9065217 46.8842975,79.5217391 47.268595,79.1369565 C47.7809917,78.7521739 48.2933884,78.4956522 48.9338843,78.3673913 C49.5743802,78.2391304 50.214876,78.1108696 50.9834711,78.1108696 C51.6239669,78.1108696 52.1363636,78.1108696 52.6487603,78.2391304 C53.161157,78.3673913 53.5454545,78.4956522 54.0578512,78.623913 L54.0578512,78.3673913 C54.0578512,77.5978261 53.8016529,77.0847826 53.4173554,76.7 C52.9049587,76.3152174 52.2644628,76.0586957 51.3677686,76.0586957 C50.7272727,76.0586957 50.0867769,76.0586957 49.5743802,76.1869565 C49.0619835,76.3152174 48.5495868,76.4434783 47.9090909,76.7 L47.0123967,74.0065217 C47.6528926,73.75 48.4214876,73.4934783 49.1900826,73.2369565 C49.9586777,73.1086957 50.8553719,72.9804348 51.8801653,72.9804348 C53.8016529,72.9804348 55.338843,73.4934783 56.2355372,74.3913043 C57.1322314,75.4173913 57.6446281,76.7 57.6446281,78.3673913 L57.6446281,86.0630435 L57.5165289,86.0630435 Z M54.1859504,81.573913 L54.1859504,80.9326087 C53.9297521,80.8043478 53.5454545,80.676087 53.161157,80.5478261 C52.7768595,80.4195652 52.392562,80.4195652 51.8801653,80.4195652 C51.1115702,80.4195652 50.4710744,80.5478261 50.0867769,80.9326087 C49.7024793,81.1891304 49.446281,81.7021739 49.446281,82.2152174 L49.446281,82.2152174 C49.446281,82.7282609 49.5743802,83.1130435 49.9586777,83.3695652 C50.3429752,83.626087 50.8553719,83.7543478 51.3677686,83.7543478 C52.2644628,83.7543478 52.9049587,83.4978261 53.4173554,83.1130435 C53.9297521,82.7282609 54.1859504,82.2152174 54.1859504,81.573913 Z M72.2479339,86.0630435 L68.661157,86.0630435 L68.661157,79.0086957 C68.661157,78.1108696 68.5330579,77.4695652 68.1487603,77.0847826 C67.7644628,76.7 67.2520661,76.4434783 66.4834711,76.4434783 C65.714876,76.4434783 65.2024793,76.7 64.8181818,77.0847826 C64.4338843,77.4695652 64.177686,78.1108696 64.177686,79.0086957 L64.177686,86.0630435 L60.5909091,86.0630435 L60.5909091,73.3652174 L64.177686,73.3652174 L64.177686,75.1608696 C64.4338843,74.9043478 64.5619835,74.6478261 64.8181818,74.3913043 C65.0743802,74.1347826 65.3305785,73.8782609 65.5867769,73.75 C65.8429752,73.6217391 66.2272727,73.3652174 66.6115702,73.2369565 C66.9958678,73.1086957 67.3801653,73.1086957 67.892562,73.1086957 C69.3016529,73.1086957 70.3264463,73.4934783 71.0950413,74.3913043 C71.8636364,75.2891304 72.2479339,76.4434783 72.2479339,77.8543478 L72.2479339,86.0630435 L72.2479339,86.0630435 Z M79.2933884,71.9543478 L75.4504132,71.9543478 L75.4504132,68.7478261 L79.2933884,68.7478261 L79.2933884,71.9543478 Z M79.1652893,86.0630435 L75.5785124,86.0630435 L75.5785124,73.3652174 L79.1652893,73.3652174 L79.1652893,86.0630435 Z M89.6694215,85.55 C89.285124,85.8065217 88.9008264,85.9347826 88.3884298,86.0630435 C87.8760331,86.1913043 87.3636364,86.3195652 86.8512397,86.3195652 C86.338843,86.3195652 85.8264463,86.3195652 85.3140496,86.1913043 C84.8016529,86.0630435 84.4173554,85.8065217 84.161157,85.55 C83.7768595,85.2934783 83.5206612,84.9086957 83.392562,84.3956522 C83.2644628,83.8826087 83.1363636,83.2413043 83.1363636,82.6 L83.1363636,76.5717391 L81.5991736,76.5717391 L81.5991736,73.4934783 L83.1363636,73.4934783 L83.1363636,70.2869565 L86.7231405,70.2869565 L86.7231405,73.4934783 L89.6694215,73.4934783 L89.6694215,76.5717391 L86.7231405,76.5717391 L86.7231405,81.9586957 C86.7231405,82.7282609 87.107438,83.2413043 87.8760331,83.2413043 C88.5165289,83.2413043 89.1570248,83.1130435 89.6694215,82.7282609 L89.6694215,85.55 Z M103.376033,86.0630435 L99.9173554,86.0630435 L99.9173554,84.6521739 C99.5330579,85.1652174 98.892562,85.55 98.3801653,85.8065217 C97.8677686,86.0630435 96.9710744,86.1913043 96.0743802,86.1913043 C95.4338843,86.1913043 94.9214876,86.0630435 94.4090909,85.9347826 C93.8966942,85.8065217 93.3842975,85.55 93,85.1652174 C92.6157025,84.7804348 92.231405,84.3956522 92.1033058,83.8826087 C91.8471074,83.3695652 91.7190083,82.8565217 91.7190083,82.2152174 L91.7190083,82.2152174 C91.7190083,81.573913 91.8471074,80.9326087 92.1033058,80.4195652 C92.3595041,79.9065217 92.7438017,79.5217391 93.1280992,79.1369565 C93.6404959,78.7521739 94.1528926,78.4956522 94.7933884,78.3673913 C95.4338843,78.2391304 96.0743802,78.1108696 96.8429752,78.1108696 C97.4834711,78.1108696 97.9958678,78.1108696 98.5082645,78.2391304 C99.0206612,78.3673913 99.4049587,78.4956522 99.9173554,78.623913 L99.9173554,78.3673913 C99.9173554,77.5978261 99.661157,77.0847826 99.2768595,76.7 C98.7644628,76.3152174 98.1239669,76.0586957 97.2272727,76.0586957 C96.5867769,76.0586957 95.946281,76.0586957 95.4338843,76.1869565 C94.9214876,76.3152174 94.4090909,76.4434783 93.768595,76.7 L92.8719008,74.0065217 C93.5123967,73.75 94.2809917,73.4934783 95.0495868,73.2369565 C95.8181818,73.1086957 96.714876,72.9804348 97.7396694,72.9804348 C99.661157,72.9804348 101.198347,73.4934783 102.095041,74.3913043 C102.991736,75.4173913 103.504132,76.7 103.504132,78.3673913 L103.504132,86.0630435 L103.376033,86.0630435 Z M99.9173554,81.573913 L99.9173554,80.9326087 C99.661157,80.8043478 99.2768595,80.676087 98.892562,80.5478261 C98.5082645,80.4195652 98.1239669,80.4195652 97.6115702,80.4195652 C96.8429752,80.4195652 96.2024793,80.5478261 95.8181818,80.9326087 C95.4338843,81.1891304 95.177686,81.7021739 95.177686,82.2152174 L95.177686,82.2152174 C95.177686,82.7282609 95.3057851,83.1130435 95.6900826,83.3695652 C96.0743802,83.626087 96.5867769,83.7543478 97.0991736,83.7543478 C97.9958678,83.7543478 98.6363636,83.4978261 99.1487603,83.1130435 C99.661157,82.7282609 99.9173554,82.2152174 99.9173554,81.573913 Z M114.136364,76.8282609 L114.008264,76.8282609 C112.855372,76.8282609 111.830579,77.2130435 111.190083,77.8543478 C110.549587,78.623913 110.165289,79.65 110.165289,81.1891304 L110.165289,85.9347826 L106.578512,85.9347826 L106.578512,73.2369565 L110.165289,73.2369565 L110.165289,75.8021739 C110.549587,74.9043478 111.061983,74.2630435 111.702479,73.75 C112.342975,73.2369565 113.239669,72.9804348 114.264463,72.9804348 L114.264463,76.8282609 L114.136364,76.8282609 Z M128.483471,73.3652174 L123.615702,86.3195652 C123.359504,86.9608696 123.103306,87.473913 122.847107,87.9869565 C122.590909,88.5 122.334711,88.7565217 121.950413,89.1413043 C121.566116,89.3978261 121.309917,89.6543478 120.797521,89.7826087 C120.413223,89.9108696 119.900826,89.9108696 119.38843,89.9108696 C118.747934,89.9108696 118.107438,89.7826087 117.595041,89.6543478 C117.082645,89.526087 116.570248,89.2695652 116.18595,89.0130435 L117.338843,86.4478261 C117.595041,86.576087 117.85124,86.7043478 118.107438,86.8326087 C118.363636,86.9608696 118.619835,86.9608696 118.876033,86.9608696 C119.132231,86.9608696 119.38843,86.9608696 119.644628,86.8326087 C119.772727,86.7043478 120.028926,86.4478261 120.157025,86.1913043 L115.289256,73.3652174 L119.132231,73.3652174 L122.078512,81.9586957 L124.896694,73.3652174 L128.483471,73.3652174 Z M47.7809917,113.254348 L44.7066116,113.254348 L36.6363636,102.736957 L36.6363636,113.254348 L33.0495868,113.254348 L33.0495868,96.7086957 L36.3801653,96.7086957 L44.1942149,106.969565 L44.1942149,96.7086957 L47.7809917,96.7086957 L47.7809917,113.254348 Z M62.3842975,113.254348 L58.9256198,113.254348 L58.9256198,111.843478 C58.5413223,112.356522 57.9008264,112.741304 57.3884298,112.997826 C56.7479339,113.254348 55.9793388,113.382609 55.0826446,113.382609 C54.4421488,113.382609 53.9297521,113.254348 53.4173554,113.126087 C52.9049587,112.997826 52.392562,112.741304 52.0082645,112.356522 C51.6239669,111.971739 51.2396694,111.586957 51.1115702,111.073913 C50.9834711,110.56087 50.7272727,110.047826 50.7272727,109.406522 L50.7272727,109.406522 C50.7272727,108.765217 50.8553719,108.123913 51.1115702,107.61087 C51.3677686,107.097826 51.7520661,106.713043 52.1363636,106.328261 C52.6487603,105.943478 53.161157,105.686957 53.8016529,105.558696 C54.4421488,105.430435 55.0826446,105.302174 55.8512397,105.302174 C56.4917355,105.302174 57.0041322,105.302174 57.5165289,105.430435 C58.0289256,105.558696 58.4132231,105.686957 58.9256198,105.815217 L58.9256198,105.558696 C58.9256198,104.78913 58.6694215,104.276087 58.285124,103.891304 C57.7727273,103.506522 57.1322314,103.25 56.2355372,103.25 C55.5950413,103.25 54.9545455,103.25 54.4421488,103.378261 C53.9297521,103.506522 53.4173554,103.634783 52.7768595,103.891304 L51.8801653,101.197826 C52.5206612,100.941304 53.2892562,100.684783 54.0578512,100.428261 C54.8264463,100.171739 55.7231405,100.171739 56.7479339,100.171739 C58.6694215,100.171739 60.2066116,100.684783 61.1033058,101.582609 C62,102.608696 62.5123967,103.891304 62.5123967,105.558696 L62.5123967,113.254348 L62.3842975,113.254348 Z M58.9256198,108.765217 L58.9256198,108.123913 C58.6694215,107.995652 58.285124,107.867391 57.9008264,107.73913 C57.5165289,107.61087 57.1322314,107.61087 56.6198347,107.61087 C55.8512397,107.61087 55.2107438,107.73913 54.8264463,108.123913 C54.4421488,108.380435 54.1859504,108.893478 54.1859504,109.406522 L54.1859504,109.406522 C54.1859504,109.919565 54.3140496,110.304348 54.6983471,110.56087 C55.0826446,110.817391 55.5950413,110.945652 56.107438,110.945652 C57.0041322,110.945652 57.6446281,110.68913 58.1570248,110.304348 C58.6694215,110.047826 58.9256198,109.406522 58.9256198,108.765217 Z M78.7809917,106.969565 C78.7809917,107.995652 78.6528926,109.021739 78.268595,109.791304 C77.8842975,110.56087 77.5,111.330435 76.9876033,111.843478 C76.4752066,112.356522 75.8347107,112.869565 75.1942149,113.126087 C74.553719,113.382609 73.785124,113.51087 73.0165289,113.51087 C71.9917355,113.51087 71.2231405,113.382609 70.5826446,112.997826 C69.9421488,112.613043 69.4297521,112.228261 69.0454545,111.715217 L69.0454545,117.102174 L65.4586777,117.102174 L65.4586777,100.556522 L69.0454545,100.556522 L69.0454545,102.352174 C69.4297521,101.71087 70.0702479,101.197826 70.5826446,100.813043 C71.2231405,100.428261 71.9917355,100.171739 72.8884298,100.171739 C73.6570248,100.171739 74.2975207,100.3 75.0661157,100.556522 C75.8347107,100.813043 76.3471074,101.326087 76.8595041,101.83913 C77.3719008,102.352174 77.8842975,103.121739 78.1404959,103.891304 C78.3966942,104.66087 78.7809917,105.815217 78.7809917,106.969565 L78.7809917,106.969565 Z M75.1942149,106.969565 L75.1942149,106.969565 C75.1942149,106.456522 75.0661157,105.943478 74.9380165,105.430435 C74.8099174,104.917391 74.553719,104.66087 74.2975207,104.276087 C74.0413223,103.891304 73.6570248,103.763043 73.2727273,103.506522 C72.8884298,103.378261 72.5041322,103.25 72.1198347,103.25 C71.7355372,103.25 71.3512397,103.378261 70.9669421,103.506522 C70.5826446,103.634783 70.3264463,103.891304 69.9421488,104.276087 C69.6859504,104.532609 69.4297521,104.917391 69.3016529,105.430435 C69.1735537,105.943478 69.0454545,106.328261 69.0454545,106.841304 L69.0454545,106.841304 C69.0454545,107.354348 69.1735537,107.867391 69.3016529,108.252174 C69.4297521,108.636957 69.6859504,109.021739 69.9421488,109.406522 C70.1983471,109.663043 70.5826446,109.919565 70.9669421,110.176087 C71.3512397,110.304348 71.7355372,110.432609 72.1198347,110.432609 C72.5041322,110.432609 72.8884298,110.304348 73.2727273,110.176087 C73.6570248,110.047826 73.9132231,109.791304 74.2975207,109.406522 C74.553719,109.15 74.8099174,108.765217 74.9380165,108.252174 C75.1942149,107.995652 75.1942149,107.482609 75.1942149,106.969565 Z M93.768595,113.254348 L89.6694215,113.254348 L86.338843,108.123913 L85.0578512,109.406522 L85.0578512,113.254348 L81.4710744,113.254348 L81.4710744,95.9391304 L85.0578512,95.9391304 L85.0578512,105.173913 L89.285124,100.556522 L93.6404959,100.556522 L88.7727273,105.558696 L93.768595,113.254348 Z M99.4049587,99.1456522 L95.5619835,99.1456522 L95.5619835,95.9391304 L99.4049587,95.9391304 L99.4049587,99.1456522 Z M99.2768595,113.254348 L95.6900826,113.254348 L95.6900826,100.556522 L99.2768595,100.556522 L99.2768595,113.254348 Z M114.264463,113.254348 L110.677686,113.254348 L110.677686,106.2 C110.677686,105.302174 110.549587,104.66087 110.165289,104.276087 C109.780992,103.891304 109.268595,103.634783 108.5,103.634783 C107.731405,103.634783 107.219008,103.891304 106.834711,104.276087 C106.450413,104.66087 106.194215,105.302174 106.194215,106.2 L106.194215,113.254348 L102.607438,113.254348 L102.607438,100.556522 L106.322314,100.556522 L106.322314,102.352174 C106.578512,102.095652 106.706612,101.83913 106.96281,101.582609 C107.219008,101.326087 107.475207,101.069565 107.731405,100.941304 C107.987603,100.813043 108.371901,100.556522 108.756198,100.428261 C109.140496,100.3 109.524793,100.3 110.03719,100.3 C111.446281,100.3 112.471074,100.684783 113.239669,101.582609 C114.008264,102.480435 114.392562,103.634783 114.392562,105.045652 L114.392562,113.254348 L114.264463,113.254348 Z M126.818182,109.406522 C126.818182,110.176087 126.690083,110.68913 126.433884,111.202174 C126.177686,111.715217 125.793388,112.1 125.409091,112.484783 C125.024793,112.869565 124.512397,113.126087 123.871901,113.254348 C123.231405,113.382609 122.590909,113.51087 121.950413,113.51087 C121.053719,113.51087 120.157025,113.382609 119.132231,112.997826 C118.235537,112.741304 117.338843,112.228261 116.442149,111.586957 L117.979339,109.278261 C118.619835,109.791304 119.38843,110.176087 120.028926,110.432609 C120.669421,110.68913 121.309917,110.817391 121.950413,110.817391 C122.46281,110.817391 122.847107,110.68913 123.103306,110.56087 C123.359504,110.432609 123.487603,110.176087 123.487603,109.919565 L123.487603,109.919565 C123.487603,109.791304 123.359504,109.534783 123.231405,109.406522 C123.103306,109.278261 122.975207,109.021739 122.719008,108.893478 C122.46281,108.765217 122.206612,108.636957 121.822314,108.636957 C121.566116,108.508696 121.181818,108.380435 120.797521,108.380435 C120.413223,108.252174 119.900826,108.123913 119.516529,107.867391 C119.004132,107.73913 118.619835,107.482609 118.235537,107.097826 C117.85124,106.841304 117.595041,106.456522 117.338843,106.071739 C117.082645,105.686957 116.954545,105.173913 116.954545,104.532609 L116.954545,104.532609 C116.954545,103.891304 117.082645,103.25 117.338843,102.865217 C117.595041,102.352174 117.979339,101.967391 118.363636,101.582609 C118.747934,101.197826 119.260331,100.941304 119.772727,100.813043 C120.285124,100.684783 120.92562,100.556522 121.566116,100.556522 C122.334711,100.556522 123.231405,100.684783 124,100.941304 C124.768595,101.197826 125.53719,101.582609 126.305785,101.967391 L124.896694,104.404348 C124.256198,104.019565 123.615702,103.763043 123.103306,103.506522 C122.590909,103.25 121.950413,103.25 121.566116,103.25 C121.181818,103.25 120.797521,103.378261 120.541322,103.506522 C120.285124,103.634783 120.157025,103.891304 120.157025,104.147826 L120.157025,104.147826 C120.157025,104.276087 120.285124,104.532609 120.413223,104.66087 C120.541322,104.78913 120.797521,104.917391 120.92562,105.045652 C121.181818,105.173913 121.438017,105.302174 121.694215,105.430435 C121.950413,105.558696 122.334711,105.686957 122.719008,105.815217 C123.103306,105.943478 123.615702,106.071739 124.128099,106.328261 C124.640496,106.584783 125.024793,106.713043 125.409091,107.097826 C125.793388,107.354348 126.049587,107.73913 126.305785,108.123913 C126.561983,108.508696 126.818182,108.765217 126.818182,109.406522 L126.818182,109.406522 Z" id="SanitaryNapkins" fill-rule="nonzero"></path>
                <g>
                    <path d="M43.9380165,46.6869565 C39.5826446,46.6869565 35.8677686,45.9173913 32.7933884,44.5065217 C29.7190083,43.0956522 27.0289256,41.1717391 24.8512397,38.7347826 L32.6652893,30.9108696 C34.3305785,32.5782609 35.9958678,33.7326087 37.661157,34.6304348 C39.3264463,35.5282609 41.2479339,35.9130435 43.2975207,35.9130435 C45.0909091,35.9130435 46.5,35.5282609 47.5247934,34.6304348 C48.5495868,33.8608696 49.0619835,32.7065217 49.0619835,31.2956522 L49.0619835,31.1673913 C49.0619835,29.7565217 48.4214876,28.6021739 47.1404959,27.8326087 C45.8595041,27.0630435 44.0661157,26.6782609 41.7603306,26.6782609 L36.5082645,26.6782609 L34.714876,20.2652174 L44.9628099,11.0304348 L27.9256198,11.0304348 L27.9256198,1.02608696 L60.3347107,1.02608696 L60.3347107,9.87608696 L49.7024793,18.9826087 C51.2396694,19.3673913 52.7768595,19.7521739 54.1859504,20.3934783 C55.5950413,21.0347826 56.8760331,21.8043478 57.9008264,22.8304348 C58.9256198,23.8565217 59.822314,25.0108696 60.3347107,26.4217391 C60.9752066,27.8326087 61.231405,29.5 61.231405,31.423913 L61.231405,31.5521739 C61.231405,33.8608696 60.8471074,35.9130435 59.9504132,37.7086957 C59.053719,39.5043478 57.9008264,41.0434783 56.3636364,42.4543478 C54.8264463,43.8652174 53.0330579,44.7630435 50.8553719,45.4043478 C48.677686,46.3021739 46.3719008,46.6869565 43.9380165,46.6869565 Z M86.8512397,35.6565217 C88.1322314,35.6565217 89.1570248,35.4 90.1818182,34.7586957 C91.2066116,34.1173913 92.1033058,33.3478261 92.7438017,32.1934783 C93.3842975,31.1673913 94.0247934,29.8847826 94.4090909,28.3456522 C94.7933884,26.9347826 94.9214876,25.2673913 94.9214876,23.4717391 L94.9214876,23.3434783 C94.9214876,21.5478261 94.6652893,19.8804348 94.2809917,18.4695652 C93.8966942,16.9304348 93.2561983,15.6478261 92.6157025,14.6217391 C91.8471074,13.5956522 91.0785124,12.6978261 90.053719,12.0565217 C89.0289256,11.4152174 87.8760331,11.1586957 86.7231405,11.1586957 C85.4421488,11.1586957 84.4173554,11.4152174 83.392562,12.0565217 C82.3677686,12.6978261 81.4710744,13.4673913 80.8305785,14.4934783 C80.0619835,15.5195652 79.5495868,16.8021739 79.1652893,18.3413043 C78.7809917,19.8804348 78.6528926,21.4195652 78.6528926,23.2152174 L78.6528926,23.3434783 C78.6528926,25.1391304 78.9090909,26.8065217 79.2933884,28.3456522 C79.677686,29.8847826 80.3181818,31.1673913 80.9586777,32.1934783 C81.7272727,33.2195652 82.4958678,34.1173913 83.5206612,34.7586957 C84.5454545,35.4 85.6983471,35.6565217 86.8512397,35.6565217 Z M86.7231405,46.6869565 C83.5206612,46.6869565 80.7024793,46.0456522 78.1404959,44.8913043 C75.5785124,43.7369565 73.4008264,42.0695652 71.607438,39.8891304 C69.8140496,37.7086957 68.5330579,35.2717391 67.5082645,32.45 C66.6115702,29.6282609 66.0991736,26.6782609 66.0991736,23.4717391 L66.0991736,23.3434783 C66.0991736,20.1369565 66.6115702,17.1869565 67.5082645,14.3652174 C68.4049587,11.5434783 69.8140496,9.10652174 71.607438,6.92608696 C73.4008264,4.74565217 75.5785124,3.20652174 78.1404959,1.92391304 C80.7024793,0.641304348 83.5206612,0.12826087 86.7231405,0.12826087 C89.9256198,0.12826087 92.7438017,0.769565217 95.3057851,1.92391304 C97.8677686,3.07826087 100.045455,4.74565217 101.838843,6.92608696 C103.632231,9.10652174 105.041322,11.5434783 105.938017,14.3652174 C106.834711,17.1869565 107.347107,20.1369565 107.347107,23.3434783 L107.347107,23.4717391 C107.347107,26.6782609 106.834711,29.6282609 105.938017,32.45 C105.041322,35.2717391 103.760331,37.7086957 101.966942,39.7608696 C100.173554,41.8130435 97.9958678,43.6086957 95.4338843,44.8913043 C92.8719008,46.0456522 89.9256198,46.6869565 86.7231405,46.6869565 Z M133.607438,35.6565217 C134.88843,35.6565217 135.913223,35.4 136.938017,34.7586957 C137.96281,34.1173913 138.859504,33.3478261 139.5,32.1934783 C140.140496,31.1673913 140.780992,29.8847826 141.165289,28.3456522 C141.549587,26.9347826 141.677686,25.2673913 141.677686,23.4717391 L141.677686,23.3434783 C141.677686,21.5478261 141.421488,19.8804348 141.03719,18.4695652 C140.652893,16.9304348 140.012397,15.6478261 139.371901,14.6217391 C138.603306,13.5956522 137.834711,12.6978261 136.809917,12.0565217 C135.785124,11.4152174 134.632231,11.1586957 133.479339,11.1586957 C132.198347,11.1586957 131.173554,11.4152174 130.14876,12.0565217 C129.123967,12.6978261 128.227273,13.4673913 127.586777,14.4934783 C126.818182,15.5195652 126.305785,16.8021739 125.921488,18.3413043 C125.53719,19.8804348 125.409091,21.4195652 125.409091,23.2152174 L125.409091,23.3434783 C125.409091,25.1391304 125.665289,26.8065217 126.049587,28.3456522 C126.433884,29.8847826 127.07438,31.1673913 127.714876,32.1934783 C128.483471,33.2195652 129.252066,34.1173913 130.27686,34.7586957 C131.301653,35.4 132.326446,35.6565217 133.607438,35.6565217 Z M133.479339,46.6869565 C130.27686,46.6869565 127.458678,46.0456522 124.896694,44.8913043 C122.334711,43.7369565 120.157025,42.0695652 118.363636,39.8891304 C116.570248,37.7086957 115.289256,35.2717391 114.264463,32.45 C113.239669,29.6282609 112.855372,26.6782609 112.855372,23.4717391 L112.855372,23.3434783 C112.855372,20.1369565 113.367769,17.1869565 114.264463,14.3652174 C115.161157,11.5434783 116.570248,9.10652174 118.363636,6.92608696 C120.157025,4.74565217 122.334711,3.20652174 124.896694,1.92391304 C127.458678,0.641304348 130.27686,0.12826087 133.479339,0.12826087 C136.681818,0.12826087 139.5,0.769565217 142.061983,1.92391304 C144.623967,3.07826087 146.801653,4.74565217 148.595041,6.92608696 C150.38843,9.10652174 151.797521,11.5434783 152.694215,14.3652174 C153.590909,17.1869565 154.103306,20.1369565 154.103306,23.3434783 L154.103306,23.4717391 C154.103306,26.6782609 153.590909,29.6282609 152.694215,32.45 C151.797521,35.2717391 150.38843,37.7086957 148.595041,39.8891304 C146.801653,42.0695652 144.623967,43.6086957 142.061983,44.8913043 C139.5,46.0456522 136.681818,46.6869565 133.479339,46.6869565 Z" id="Shape" fill-rule="nonzero"></path>
                    <path d="M16.6528926,5.00217391 L16.6528926,3.84782609 C16.6528926,3.59130435 16.5247934,3.46304348 16.3966942,3.33478261 C16.268595,3.20652174 16.1404959,3.07826087 15.8842975,3.07826087 L0.768595041,3.07826087 C0.512396694,3.07826087 0.384297521,3.20652174 0.256198347,3.33478261 C0.256198347,3.33478261 0.256198347,3.33478261 0.256198347,3.46304348 C0.256198347,3.46304348 0.128099174,3.59130435 0.128099174,3.59130435 C0,3.71956522 0,3.71956522 0,3.84782609 L0,5.00217391 C0,5.13043478 0.128099174,5.38695652 0.256198347,5.51521739 C0.384297521,5.64347826 0.512396694,5.64347826 0.768595041,5.64347826 L5.12396694,5.64347826 C7.68595041,5.64347826 9.2231405,6.54130435 9.73553719,8.33695652 L0.768595041,8.33695652 C0.512396694,8.33695652 0.384297521,8.46521739 0.256198347,8.59347826 C0.128099174,8.59347826 0,8.72173913 0,8.97826087 L0,10.1326087 C0,10.2608696 0.128099174,10.3891304 0.256198347,10.5173913 C0.384297521,10.6456522 0.512396694,10.6456522 0.768595041,10.6456522 L9.73553719,10.6456522 C9.73553719,10.773913 9.60743802,10.9021739 9.60743802,11.0304348 C9.60743802,11.1586957 9.47933884,11.2869565 9.47933884,11.2869565 C9.47933884,11.2869565 9.47933884,11.2869565 9.47933884,11.4152174 C9.47933884,11.5434783 9.35123967,11.5434783 9.35123967,11.6717391 C9.35123967,11.6717391 9.35123967,11.8 9.2231405,11.8 C9.2231405,11.8 9.2231405,11.8 9.09504132,11.9282609 C8.96694215,12.1847826 8.7107438,12.3130435 8.58264463,12.5695652 C7.81404959,13.0826087 6.7892562,13.3391304 5.38016529,13.4673913 L0.768595041,13.4673913 C0.512396694,13.4673913 0.384297521,13.5956522 0.256198347,13.723913 C0.128099174,13.723913 0,13.8521739 0,14.1086957 L0,15.3913043 C0,15.5195652 0,15.5195652 0,15.6478261 C0,15.6478261 0,15.6478261 0,15.6478261 C0,15.6478261 0,15.6478261 0,15.6478261 C0,15.776087 0,15.776087 0.128099174,15.776087 L0.128099174,15.776087 C0.128099174,15.776087 0.384297521,16.0326087 0.768595041,16.2891304 C1.28099174,16.8021739 1.79338843,17.3152174 2.4338843,17.7 L8.96694215,23.8565217 C9.09504132,23.9847826 9.35123967,24.1130435 9.47933884,24.2413043 C9.60743802,24.3695652 9.86363636,24.3695652 10.1198347,24.3695652 L11.785124,24.3695652 C11.9132231,24.3695652 12.0413223,24.3695652 12.1694215,24.2413043 C12.2975207,24.1130435 12.2975207,23.9847826 12.2975207,23.8565217 C12.2975207,23.7282609 12.2975207,23.6 12.1694215,23.4717391 L5.89256198,17.4434783 L4.22727273,15.776087 L5.38016529,15.776087 C6.40495868,15.776087 7.42975207,15.6478261 8.32644628,15.3913043 C9.2231405,15.1347826 10.1198347,14.75 10.7603306,14.2369565 C11.4008264,13.723913 11.9132231,12.9543478 12.2975207,12.1847826 C12.2975207,12.0565217 12.4256198,11.9282609 12.4256198,11.8 C12.4256198,11.8 12.4256198,11.6717391 12.553719,11.6717391 C12.6818182,11.2869565 12.8099174,11.0304348 12.8099174,10.773913 L15.8842975,10.773913 C16.1404959,10.773913 16.268595,10.773913 16.3966942,10.6456522 C16.5247934,10.5173913 16.6528926,10.3891304 16.6528926,10.1326087 L16.6528926,8.97826087 C16.6528926,8.72173913 16.5247934,8.59347826 16.3966942,8.46521739 C16.268595,8.33695652 16.1404959,8.20869565 15.8842975,8.20869565 L12.8099174,8.20869565 C12.6818182,7.1826087 12.2975207,6.41304348 11.6570248,5.64347826 L15.7561983,5.64347826 C16.0123967,5.64347826 16.1404959,5.64347826 16.268595,5.51521739 C16.5247934,5.38695652 16.6528926,5.13043478 16.6528926,5.00217391 L16.6528926,5.00217391 Z" id="Path"></path>
                </g>
            </g>
            <g id="Group" transform="translate(282.000000, 0.000000)">
                <g>
                    <g transform="translate(27.646388, 0.526392)" fill-rule="nonzero">
                        <path d="M9.865625,12.1388889 L2.30625,13.9277778 L0,4.34444444 L13.06875,0.638888889 L22.0375,0.638888889 L22.0375,45.7444444 L9.865625,45.7444444 L9.865625,12.1388889 Z M45.740625,46.6388889 C41.76875,46.6388889 38.309375,46 35.490625,44.7222222 C32.671875,43.4444444 29.98125,41.6555556 27.675,39.4833333 L34.721875,31.1777778 C36.515625,32.7111111 38.309375,33.8611111 40.103125,34.7555556 C41.896875,35.65 43.690625,36.0333333 45.6125,36.0333333 C47.6625,36.0333333 49.2,35.5222222 50.48125,34.6277778 C51.634375,33.7333333 52.275,32.4555556 52.275,30.7944444 L52.275,30.6666667 C52.275,29.0055556 51.634375,27.7277778 50.48125,26.8333333 C49.328125,25.9388889 47.6625,25.4277778 45.740625,25.4277778 C44.33125,25.4277778 43.178125,25.6833333 41.896875,26.0666667 C40.74375,26.45 39.590625,27.0888889 38.565625,27.7277778 L31.2625,23.6388889 L32.54375,0.894444444 L62.396875,0.894444444 L62.396875,11.1166667 L42.025,11.1166667 L41.640625,17.8888889 C42.665625,17.3777778 43.690625,16.9944444 44.84375,16.7388889 C45.996875,16.4833333 47.278125,16.2277778 48.815625,16.2277778 C50.865625,16.2277778 52.7875,16.4833333 54.58125,17.1222222 C56.375,17.7611111 58.040625,18.5277778 59.45,19.6777778 C60.859375,20.8277778 62.0125,22.3611111 62.78125,24.15 C63.678125,25.9388889 64.0625,28.1111111 64.0625,30.5388889 L64.0625,30.6666667 C64.0625,33.2222222 63.55,35.3944444 62.653125,37.4388889 C61.75625,39.4833333 60.475,41.0166667 58.809375,42.4222222 C57.14375,43.8277778 55.221875,44.85 53.04375,45.6166667 C50.865625,46.3833333 48.43125,46.6388889 45.740625,46.6388889 Z M89.815625,35.65 C91.096875,35.65 92.121875,35.3944444 93.146875,34.7555556 C94.171875,34.1166667 95.06875,33.35 95.709375,32.2 C96.35,31.05 96.990625,29.7722222 97.375,28.3666667 C97.759375,26.8333333 97.8875,25.3 97.8875,23.5111111 L97.8875,23.3833333 C97.8875,21.5944444 97.63125,19.9333333 97.246875,18.4 C96.8625,16.8666667 96.221875,15.5888889 95.58125,14.5666667 C94.8125,13.4166667 94.04375,12.65 93.01875,12.0111111 C91.99375,11.3722222 90.96875,10.9888889 89.6875,10.9888889 C88.40625,10.9888889 87.38125,11.2444444 86.35625,11.8833333 C85.33125,12.5222222 84.434375,13.2888889 83.79375,14.4388889 C83.025,15.4611111 82.5125,16.7388889 82.128125,18.2722222 C81.74375,19.8055556 81.615625,21.4666667 81.615625,23.2555556 L81.615625,23.3833333 C81.615625,25.1722222 81.871875,26.8333333 82.25625,28.3666667 C82.640625,29.9 83.28125,31.1777778 83.921875,32.3277778 C84.690625,33.4777778 85.459375,34.2444444 86.484375,34.8833333 C87.509375,35.2666667 88.6625,35.65 89.815625,35.65 Z M89.6875,46.6388889 C86.484375,46.6388889 83.665625,46 81.103125,44.85 C78.540625,43.5722222 76.3625,41.9111111 74.696875,39.8666667 C72.903125,37.6944444 71.621875,35.2666667 70.596875,32.4555556 C69.571875,29.6444444 69.1875,26.7055556 69.1875,23.5111111 L69.1875,23.3833333 C69.1875,20.1888889 69.7,17.25 70.596875,14.4388889 C71.621875,11.5 72.903125,8.94444444 74.696875,6.9 C76.490625,4.85555556 78.66875,3.06666667 81.23125,1.91666667 C83.79375,0.638888889 86.6125,5.67447324e-16 89.815625,5.67447324e-16 C93.01875,5.67447324e-16 95.8375,0.638888889 98.4,1.78888889 C100.9625,3.06666667 103.140625,4.72777778 104.80625,6.77222222 C106.471875,8.81666667 108.009375,11.3722222 108.90625,14.1833333 C109.803125,16.9944444 110.315625,19.9333333 110.315625,23.1277778 L110.315625,23.2555556 C110.315625,26.45 109.803125,29.3888889 108.90625,32.2 C108.009375,35.0111111 106.6,37.5666667 104.80625,39.6111111 C103.0125,41.7833333 100.834375,43.4444444 98.271875,44.5944444 C95.709375,46 92.890625,46.6388889 89.6875,46.6388889 Z" id="Shape" fill="#AF1E23"></path>
                        <polygon id="Path" fill="#002561" points="125.434375 19.6777778 125.946875 11.6277778 119.15625 16.2277778 117.746875 13.8 125.30625 10.2222222 117.746875 6.64444444 119.15625 4.34444444 125.946875 8.94444444 125.434375 0.766666667 128.125 0.766666667 127.484375 8.94444444 134.275 4.34444444 135.684375 6.64444444 128.125 10.2222222 135.684375 13.8 134.275 16.2277778 127.484375 11.6277778 128.125 19.6777778"></polygon>
                    </g>
                    <path d="M16.528125,5.36666667 L16.528125,4.21666667 C16.528125,3.96111111 16.4,3.83333333 16.271875,3.70555556 C16.14375,3.57777778 16.015625,3.45 15.759375,3.45 L0.76875,3.45 C0.5125,3.45 0.384375,3.57777778 0.25625,3.70555556 C0.25625,3.70555556 0.25625,3.70555556 0.25625,3.83333333 C0.25625,3.83333333 0.128125,3.96111111 0.128125,3.96111111 C0.128125,4.08888889 0.128125,4.08888889 0.128125,4.21666667 L0.128125,5.36666667 C0.128125,5.62222222 0.25625,5.75 0.384375,5.87777778 C0.5125,6.00555556 0.640625,6.00555556 0.896875,6.00555556 L5.125,6.00555556 C7.6875,6.00555556 9.225,6.9 9.7375,8.68888889 L0.76875,8.68888889 C0.5125,8.68888889 0.384375,8.81666667 0.25625,8.94444444 C0.128125,8.94444444 0,9.2 0,9.32777778 L0,10.4777778 C0,10.7333333 0.128125,10.8611111 0.25625,10.9888889 C0.384375,11.1166667 0.5125,11.1166667 0.76875,11.1166667 L9.7375,11.1166667 C9.7375,11.2444444 9.609375,11.3722222 9.609375,11.5 C9.609375,11.6277778 9.48125,11.7555556 9.48125,11.7555556 C9.48125,11.7555556 9.48125,11.7555556 9.48125,11.8833333 C9.48125,12.0111111 9.353125,12.0111111 9.353125,12.1388889 C9.353125,12.1388889 9.353125,12.2666667 9.225,12.2666667 C9.225,12.2666667 9.225,12.2666667 9.096875,12.3944444 C8.96875,12.5222222 8.7125,12.7777778 8.45625,12.9055556 C7.6875,13.4166667 6.6625,13.6722222 5.253125,13.8 L0.76875,13.8 C0.5125,13.8 0.384375,13.9277778 0.25625,14.0555556 C0.128125,14.0555556 0,14.3111111 0,14.4388889 L0,15.7166667 C0,15.8444444 0,15.8444444 0,15.9722222 C0,15.9722222 0,15.9722222 0,15.9722222 C0,15.9722222 0,15.9722222 0,15.9722222 C0,16.1 0,16.1 0.128125,16.1 L0.128125,16.1 C0.128125,16.1 0.384375,16.3555556 0.76875,16.6111111 C1.28125,17.1222222 1.79375,17.6333333 2.30625,18.0166667 L8.7125,24.15 C8.840625,24.2777778 9.096875,24.4055556 9.225,24.5333333 C9.353125,24.6611111 9.609375,24.6611111 9.865625,24.6611111 L11.53125,24.6611111 C11.659375,24.6611111 11.7875,24.6611111 11.915625,24.5333333 C12.04375,24.4055556 12.04375,24.2777778 12.04375,24.15 C12.04375,24.0222222 12.04375,23.8944444 11.915625,23.7666667 L6.021875,17.8888889 L4.35625,16.2277778 L5.509375,16.2277778 C6.534375,16.2277778 7.559375,16.1 8.45625,15.8444444 C9.353125,15.5888889 10.25,15.2055556 10.890625,14.6944444 C11.53125,14.1833333 12.04375,13.4166667 12.428125,12.65 C12.428125,12.5222222 12.55625,12.3944444 12.55625,12.2666667 C12.55625,12.2666667 12.55625,12.1388889 12.684375,12.1388889 C12.684375,11.7555556 12.684375,11.3722222 12.8125,11.1166667 L15.8875,11.1166667 C16.14375,11.1166667 16.271875,11.1166667 16.4,10.9888889 C16.528125,10.8611111 16.65625,10.7333333 16.65625,10.4777778 L16.65625,9.32777778 C16.65625,9.07222222 16.528125,8.94444444 16.4,8.81666667 C16.271875,8.68888889 16.14375,8.56111111 15.8875,8.56111111 L12.8125,8.56111111 C12.55625,7.66666667 12.171875,6.77222222 11.659375,6.00555556 L15.759375,6.00555556 C16.015625,6.00555556 16.14375,6.00555556 16.271875,5.87777778 C16.4,5.75 16.528125,5.49444444 16.528125,5.36666667 L16.528125,5.36666667 Z" id="Path-Copy" fill="#AF1E23"></path>
                </g>
                <path d="M39.590625,86.5055556 L35.3625,86.5055556 L31.775,81.1388889 L28.95625,81.1388889 L28.95625,86.5055556 L25.36875,86.5055556 L25.36875,69.8944444 L32.928125,69.8944444 C34.85,69.8944444 36.3875,70.4055556 37.540625,71.3 C38.69375,72.3222222 39.20625,73.6 39.20625,75.3888889 L39.20625,75.3888889 C39.20625,76.7944444 38.821875,77.8166667 38.18125,78.7111111 C37.540625,79.6055556 36.64375,80.1166667 35.61875,80.6277778 L39.590625,86.5055556 Z M35.3625,75.6444444 L35.3625,75.6444444 C35.3625,74.75 35.10625,74.2388889 34.59375,73.8555556 C34.08125,73.4722222 33.440625,73.2166667 32.54375,73.2166667 L28.95625,73.2166667 L28.95625,77.9444444 L32.671875,77.9444444 C33.56875,77.9444444 34.209375,77.6888889 34.721875,77.3055556 C35.234375,76.9222222 35.3625,76.4111111 35.3625,75.6444444 Z M46.125,86.5055556 L42.5375,86.5055556 L42.5375,69.8944444 L46.125,69.8944444 L46.125,86.5055556 Z M67.1375,78.2 C67.1375,79.35 66.88125,80.5 66.496875,81.5222222 C66.1125,82.5444444 65.471875,83.4388889 64.703125,84.2055556 C63.934375,84.9722222 63.0375,85.6111111 61.884375,85.9944444 C60.859375,86.5055556 59.578125,86.6333333 58.296875,86.6333333 C57.015625,86.6333333 55.8625,86.3777778 54.8375,85.9944444 C53.8125,85.6111111 52.7875,84.9722222 52.01875,84.2055556 C51.25,83.4388889 50.609375,82.5444444 50.225,81.5222222 C49.840625,80.5 49.584375,79.35 49.584375,78.2 L49.584375,78.2 C49.584375,77.05 49.840625,75.9 50.225,74.8777778 C50.609375,73.8555556 51.25,72.9611111 52.01875,72.1944444 C52.7875,71.4277778 53.684375,70.7888889 54.8375,70.4055556 C55.8625,69.8944444 57.14375,69.7666667 58.425,69.7666667 C59.70625,69.7666667 60.859375,70.0222222 61.884375,70.4055556 C62.909375,70.9166667 63.934375,71.4277778 64.703125,72.1944444 C65.471875,72.9611111 66.1125,73.8555556 66.496875,74.8777778 C66.88125,75.9 67.1375,77.05 67.1375,78.2 L67.1375,78.2 Z M63.29375,78.3277778 L63.29375,78.3277778 C63.29375,77.5611111 63.165625,76.9222222 62.909375,76.2833333 C62.653125,75.6444444 62.26875,75.1333333 61.884375,74.6222222 C61.5,74.1111111 60.859375,73.7277778 60.346875,73.4722222 C59.834375,73.2166667 59.065625,73.0888889 58.296875,73.0888889 C57.528125,73.0888889 56.8875,73.2166667 56.246875,73.4722222 C55.60625,73.7277778 55.09375,74.1111111 54.709375,74.6222222 C54.325,75.1333333 53.940625,75.6444444 53.684375,76.2833333 C53.428125,76.9222222 53.3,77.5611111 53.3,78.3277778 L53.3,78.3277778 C53.3,79.0944444 53.428125,79.7333333 53.684375,80.3722222 C53.940625,81.0111111 54.325,81.5222222 54.709375,82.0333333 C55.09375,82.5444444 55.734375,82.9277778 56.246875,83.1833333 C56.8875,83.4388889 57.528125,83.5666667 58.296875,83.5666667 C59.065625,83.5666667 59.70625,83.4388889 60.346875,83.1833333 C60.9875,82.9277778 61.5,82.5444444 61.884375,82.0333333 C62.26875,81.5222222 62.653125,81.0111111 62.909375,80.3722222 C63.165625,79.7333333 63.29375,78.9666667 63.29375,78.3277778 Z M91.353125,86.5055556 L87.765625,86.5055556 L87.765625,79.8611111 L81.103125,79.8611111 L81.103125,86.5055556 L77.515625,86.5055556 L77.515625,69.8944444 L81.103125,69.8944444 L81.103125,76.4111111 L87.765625,76.4111111 L87.765625,69.8944444 L91.353125,69.8944444 L91.353125,86.5055556 Z M106.728125,80.5 C106.728125,80.6277778 106.728125,80.8833333 106.728125,81.0111111 C106.728125,81.1388889 106.728125,81.2666667 106.728125,81.5222222 L97.8875,81.5222222 C98.015625,82.2888889 98.4,82.9277778 98.9125,83.4388889 C99.425,83.95 100.065625,84.0777778 100.9625,84.0777778 C101.603125,84.0777778 102.115625,83.95 102.628125,83.8222222 C103.140625,83.6944444 103.525,83.3111111 104.0375,82.8 L106.0875,84.5888889 C105.446875,85.3555556 104.80625,85.8666667 103.909375,86.3777778 C103.0125,86.7611111 102.115625,87.0166667 100.9625,87.0166667 C100.065625,87.0166667 99.16875,86.8888889 98.271875,86.5055556 C97.503125,86.25 96.734375,85.7388889 96.221875,85.1 C95.709375,84.4611111 95.196875,83.8222222 94.8125,83.0555556 C94.428125,82.2888889 94.3,81.3944444 94.3,80.3722222 L94.3,80.3722222 C94.3,79.4777778 94.428125,78.5833333 94.8125,77.8166667 C95.06875,77.05 95.58125,76.2833333 96.09375,75.6444444 C96.60625,75.0055556 97.246875,74.6222222 98.015625,74.2388889 C98.784375,73.8555556 99.68125,73.7277778 100.578125,73.7277778 C101.603125,73.7277778 102.5,73.8555556 103.26875,74.2388889 C104.0375,74.6222222 104.678125,75.1333333 105.190625,75.7722222 C105.703125,76.4111111 106.0875,77.1777778 106.34375,77.9444444 C106.6,78.7111111 106.728125,79.6055556 106.728125,80.5 L106.728125,80.5 Z M103.26875,79.2222222 C103.140625,78.4555556 102.884375,77.8166667 102.371875,77.3055556 C101.859375,76.7944444 101.346875,76.5388889 100.578125,76.5388889 C99.809375,76.5388889 99.16875,76.7944444 98.784375,77.3055556 C98.271875,77.8166667 98.015625,78.4555556 97.8875,79.2222222 L103.26875,79.2222222 Z M120.309375,86.5055556 L116.85,86.5055556 L116.85,85.1 C116.465625,85.6111111 115.825,85.9944444 115.3125,86.25 C114.8,86.5055556 113.903125,86.6333333 113.134375,86.6333333 C112.49375,86.6333333 111.98125,86.5055556 111.46875,86.3777778 C110.95625,86.25 110.44375,85.9944444 110.059375,85.6111111 C109.675,85.2277778 109.41875,84.8444444 109.1625,84.3333333 C108.90625,83.8222222 108.778125,83.3111111 108.778125,82.6722222 L108.778125,82.6722222 C108.778125,82.0333333 108.90625,81.3944444 109.1625,80.8833333 C109.41875,80.3722222 109.803125,79.9888889 110.1875,79.6055556 C110.571875,79.2222222 111.2125,78.9666667 111.853125,78.8388889 C112.49375,78.7111111 113.134375,78.5833333 113.903125,78.5833333 C114.54375,78.5833333 115.05625,78.5833333 115.56875,78.7111111 C116.08125,78.8388889 116.465625,78.9666667 116.978125,79.0944444 L116.978125,78.8388889 C116.978125,78.0722222 116.721875,77.5611111 116.3375,77.05 C115.825,76.6666667 115.184375,76.4111111 114.2875,76.4111111 C113.646875,76.4111111 113.00625,76.4111111 112.49375,76.5388889 C111.98125,76.6666667 111.46875,76.7944444 110.828125,77.05 L109.93125,74.2388889 C110.571875,73.9833333 111.340625,73.7277778 112.109375,73.4722222 C112.878125,73.3444444 113.775,73.2166667 114.8,73.2166667 C116.721875,73.2166667 118.259375,73.7277778 119.15625,74.6222222 C120.053125,75.5166667 120.4375,76.9222222 120.4375,78.7111111 L120.4375,86.5055556 L120.309375,86.5055556 Z M116.978125,82.0333333 L116.978125,81.3944444 C116.721875,81.2666667 116.3375,81.1388889 115.953125,81.0111111 C115.56875,80.8833333 115.184375,80.8833333 114.671875,80.8833333 C113.903125,80.8833333 113.2625,81.0111111 112.878125,81.3944444 C112.49375,81.65 112.2375,82.1611111 112.2375,82.6722222 L112.2375,82.6722222 C112.2375,83.1833333 112.365625,83.5666667 112.75,83.8222222 C113.134375,84.0777778 113.646875,84.2055556 114.159375,84.2055556 C115.05625,84.2055556 115.696875,83.95 116.209375,83.5666667 C116.721875,83.3111111 116.978125,82.6722222 116.978125,82.0333333 Z M135.55625,73.8555556 L130.559375,86.6333333 L127.35625,86.6333333 L122.359375,73.8555556 L126.203125,73.8555556 L129.021875,82.4166667 L131.840625,73.8555556 L135.55625,73.8555556 Z M149.65,73.8555556 L144.78125,86.8888889 C144.525,87.5277778 144.26875,88.0388889 144.0125,88.55 C143.75625,89.0611111 143.5,89.3166667 143.115625,89.7 C142.73125,89.9555556 142.475,90.2111111 141.9625,90.3388889 C141.578125,90.4666667 141.065625,90.4666667 140.553125,90.4666667 C139.9125,90.4666667 139.271875,90.3388889 138.759375,90.2111111 C138.246875,90.0833333 137.734375,89.8277778 137.35,89.5722222 L138.503125,87.0166667 C138.759375,87.1444444 139.015625,87.2722222 139.271875,87.4 C139.528125,87.5277778 139.784375,87.5277778 140.040625,87.5277778 C140.296875,87.5277778 140.553125,87.5277778 140.809375,87.4 C141.065625,87.2722222 141.19375,87.0166667 141.321875,86.7611111 L136.325,73.9833333 L140.16875,73.9833333 L142.9875,82.6722222 L145.80625,73.9833333 L149.65,73.9833333 L149.65,73.8555556 Z M39.71875,100.561111 L30.75,100.561111 L30.75,104.138889 L38.69375,104.138889 L38.69375,107.333333 L30.75,107.333333 L30.75,113.722222 L27.1625,113.722222 L27.1625,97.1111111 L39.71875,97.1111111 L39.71875,100.561111 Z M45.996875,113.85 L42.409375,113.85 L42.409375,96.4722222 L45.996875,96.4722222 L45.996875,113.85 Z M62.396875,107.461111 C62.396875,108.355556 62.26875,109.25 61.884375,110.016667 C61.5,110.783333 61.115625,111.55 60.475,112.061111 C59.834375,112.7 59.19375,113.083333 58.296875,113.466667 C57.4,113.85 56.503125,113.977778 55.60625,113.977778 C54.58125,113.977778 53.684375,113.85 52.915625,113.466667 C52.01875,113.083333 51.378125,112.7 50.7375,112.061111 C50.096875,111.422222 49.7125,110.783333 49.328125,110.016667 C48.94375,109.25 48.815625,108.355556 48.815625,107.461111 L48.815625,107.461111 C48.815625,106.566667 48.94375,105.672222 49.328125,104.905556 C49.7125,104.138889 50.096875,103.372222 50.7375,102.861111 C51.378125,102.222222 52.01875,101.838889 52.915625,101.455556 C53.8125,101.072222 54.709375,100.944444 55.60625,100.944444 C56.63125,100.944444 57.528125,101.072222 58.296875,101.455556 C59.19375,101.838889 59.834375,102.222222 60.475,102.861111 C61.115625,103.5 61.5,104.138889 61.884375,104.905556 C62.26875,105.672222 62.396875,106.566667 62.396875,107.461111 L62.396875,107.461111 Z M58.9375,107.588889 L58.9375,107.588889 C58.9375,107.077778 58.809375,106.566667 58.68125,106.183333 C58.553125,105.8 58.296875,105.416667 58.040625,105.033333 C57.784375,104.65 57.4,104.394444 57.015625,104.266667 C56.63125,104.138889 56.11875,104.011111 55.734375,104.011111 C55.221875,104.011111 54.709375,104.138889 54.325,104.266667 C53.940625,104.394444 53.55625,104.65 53.3,105.033333 C53.04375,105.288889 52.7875,105.672222 52.659375,106.183333 C52.53125,106.566667 52.403125,107.077778 52.403125,107.461111 L52.403125,107.461111 C52.403125,107.972222 52.53125,108.355556 52.659375,108.738889 C52.7875,109.122222 53.04375,109.505556 53.3,109.888889 C53.55625,110.272222 53.940625,110.527778 54.325,110.655556 C54.709375,110.783333 55.221875,110.911111 55.734375,110.911111 C56.246875,110.911111 56.759375,110.783333 57.14375,110.655556 C57.528125,110.527778 57.9125,110.272222 58.16875,109.888889 C58.425,109.505556 58.68125,109.25 58.809375,108.738889 C58.9375,108.227778 58.9375,107.972222 58.9375,107.588889 Z M83.153125,101.072222 L79.18125,113.85 L75.978125,113.85 L73.54375,106.055556 L71.109375,113.85 L67.90625,113.85 L64.0625,101.072222 L67.65,101.072222 L69.7,108.738889 L72.134375,100.944444 L75.209375,100.944444 L77.64375,108.738889 L79.69375,101.072222 L83.153125,101.072222 Z M105.83125,102.988889 C105.83125,104.011111 105.703125,104.777778 105.31875,105.544444 C104.934375,106.311111 104.55,106.822222 103.909375,107.333333 C103.26875,107.844444 102.628125,108.227778 101.73125,108.483333 C100.9625,108.738889 100.065625,108.866667 99.16875,108.866667 L96.35,108.866667 L96.35,113.85 L92.7625,113.85 L92.7625,97.2388889 L99.553125,97.2388889 C100.578125,97.2388889 101.475,97.3666667 102.24375,97.6222222 C103.0125,97.8777778 103.653125,98.2611111 104.165625,98.7722222 C104.678125,99.2833333 105.0625,99.9222222 105.446875,100.561111 C105.703125,101.327778 105.83125,102.094444 105.83125,102.988889 L105.83125,102.988889 Z M102.115625,103.116667 L102.115625,103.116667 C102.115625,102.222222 101.859375,101.583333 101.346875,101.2 C100.834375,100.816667 100.065625,100.561111 99.16875,100.561111 L96.35,100.561111 L96.35,105.672222 L99.16875,105.672222 C100.065625,105.672222 100.834375,105.416667 101.346875,104.905556 C101.859375,104.394444 102.115625,103.755556 102.115625,103.116667 Z M119.028125,113.85 L115.56875,113.85 L115.56875,112.444444 C115.184375,112.955556 114.54375,113.338889 114.03125,113.594444 C113.390625,113.85 112.621875,113.977778 111.853125,113.977778 C111.2125,113.977778 110.7,113.85 110.1875,113.722222 C109.675,113.594444 109.1625,113.338889 108.778125,112.955556 C108.39375,112.572222 108.1375,112.188889 107.88125,111.677778 C107.625,111.166667 107.496875,110.655556 107.496875,110.016667 L107.496875,110.016667 C107.496875,109.377778 107.625,108.738889 107.88125,108.227778 C108.1375,107.716667 108.521875,107.333333 108.90625,106.95 C109.290625,106.566667 109.93125,106.311111 110.571875,106.183333 C111.2125,106.055556 111.853125,105.927778 112.621875,105.927778 C113.2625,105.927778 113.775,105.927778 114.2875,106.055556 C114.8,106.183333 115.184375,106.311111 115.696875,106.438889 L115.696875,106.183333 C115.696875,105.416667 115.440625,104.905556 115.05625,104.394444 C114.671875,103.883333 113.903125,103.755556 113.00625,103.755556 C112.365625,103.755556 111.725,103.755556 111.2125,103.883333 C110.7,104.011111 110.1875,104.138889 109.546875,104.394444 L108.65,101.583333 C109.290625,101.327778 110.059375,101.072222 110.828125,100.816667 C111.596875,100.561111 112.49375,100.561111 113.51875,100.561111 C115.440625,100.561111 116.978125,101.072222 117.875,101.966667 C118.771875,102.988889 119.15625,104.266667 119.15625,106.055556 L119.15625,113.85 L119.028125,113.85 Z M115.696875,109.377778 L115.696875,108.738889 C115.440625,108.611111 115.05625,108.483333 114.671875,108.355556 C114.2875,108.227778 113.903125,108.227778 113.390625,108.227778 C112.621875,108.227778 111.98125,108.355556 111.596875,108.738889 C111.2125,108.994444 110.95625,109.505556 110.95625,110.016667 L110.95625,110.016667 C110.95625,110.527778 111.084375,110.911111 111.46875,111.166667 C111.853125,111.422222 112.365625,111.55 112.878125,111.55 C113.775,111.55 114.415625,111.294444 114.928125,110.911111 C115.440625,110.527778 115.696875,110.016667 115.696875,109.377778 Z M134.915625,113.85 L131.328125,113.85 L131.328125,112.061111 C130.94375,112.7 130.303125,113.211111 129.790625,113.594444 C129.15,113.977778 128.38125,114.233333 127.484375,114.233333 C126.715625,114.233333 126.075,114.105556 125.30625,113.85 C124.665625,113.594444 124.025,113.083333 123.5125,112.572222 C123,112.061111 122.4875,111.294444 122.23125,110.527778 C121.846875,109.761111 121.71875,108.738889 121.71875,107.716667 L121.71875,107.716667 C121.71875,106.694444 121.846875,105.672222 122.23125,104.905556 C122.615625,104.138889 123,103.372222 123.5125,102.861111 C124.025,102.35 124.665625,101.838889 125.30625,101.583333 C125.946875,101.327778 126.715625,101.2 127.484375,101.2 C128.38125,101.2 129.278125,101.327778 129.91875,101.711111 C130.559375,102.094444 131.071875,102.477778 131.45625,102.988889 L131.45625,96.7277778 L135.04375,96.7277778 L135.04375,113.85 L134.915625,113.85 Z M131.328125,107.461111 L131.328125,107.461111 C131.328125,106.95 131.2,106.438889 131.071875,105.927778 C130.94375,105.416667 130.6875,105.161111 130.43125,104.777778 C130.175,104.522222 129.790625,104.266667 129.40625,104.011111 C129.021875,103.883333 128.6375,103.755556 128.253125,103.755556 C127.86875,103.755556 127.484375,103.883333 127.1,104.011111 C126.715625,104.138889 126.459375,104.394444 126.075,104.777778 C125.81875,105.033333 125.5625,105.416667 125.434375,105.927778 C125.30625,106.438889 125.178125,106.822222 125.178125,107.333333 L125.178125,107.333333 C125.178125,107.844444 125.30625,108.355556 125.434375,108.738889 C125.5625,109.122222 125.81875,109.505556 126.075,109.888889 C126.33125,110.144444 126.715625,110.4 127.1,110.655556 C127.484375,110.911111 127.86875,110.911111 128.253125,110.911111 C128.6375,110.911111 129.021875,110.783333 129.40625,110.655556 C129.790625,110.527778 130.046875,110.272222 130.43125,109.888889 C130.6875,109.633333 130.94375,109.25 131.071875,108.738889 C131.2,108.483333 131.328125,107.972222 131.328125,107.461111 Z M147.34375,109.888889 C147.34375,110.655556 147.215625,111.166667 146.959375,111.677778 C146.703125,112.188889 146.31875,112.572222 145.934375,112.955556 C145.55,113.338889 145.0375,113.594444 144.396875,113.722222 C143.75625,113.85 143.115625,113.977778 142.475,113.977778 C141.578125,113.977778 140.68125,113.85 139.784375,113.466667 C138.8875,113.211111 137.990625,112.7 137.09375,112.061111 L138.63125,109.633333 C139.271875,110.144444 140.040625,110.527778 140.68125,110.783333 C141.321875,111.038889 141.9625,111.166667 142.603125,111.166667 C143.115625,111.166667 143.5,111.038889 143.75625,110.911111 C144.0125,110.783333 144.140625,110.527778 144.140625,110.272222 L144.140625,110.272222 C144.140625,110.144444 144.0125,109.888889 143.884375,109.761111 C143.75625,109.633333 143.5,109.505556 143.24375,109.377778 C142.9875,109.25 142.73125,109.122222 142.346875,109.122222 C142.090625,108.994444 141.70625,108.866667 141.321875,108.866667 C140.9375,108.738889 140.425,108.611111 140.040625,108.355556 C139.65625,108.1 139.14375,107.972222 138.8875,107.588889 C138.63125,107.205556 138.246875,106.95 137.990625,106.566667 C137.734375,106.183333 137.60625,105.672222 137.60625,105.033333 L137.60625,105.033333 C137.60625,104.394444 137.734375,103.755556 137.990625,103.372222 C138.246875,102.861111 138.503125,102.477778 139.015625,102.094444 C139.4,101.711111 139.9125,101.455556 140.425,101.327778 C140.9375,101.2 141.578125,101.072222 142.21875,101.072222 C142.9875,101.072222 143.884375,101.2 144.653125,101.455556 C145.421875,101.711111 146.190625,102.094444 146.959375,102.477778 L145.55,104.905556 C144.909375,104.522222 144.26875,104.266667 143.75625,104.011111 C143.115625,103.755556 142.603125,103.627778 142.21875,103.627778 C141.834375,103.627778 141.45,103.755556 141.19375,103.883333 C140.9375,104.011111 140.809375,104.266667 140.809375,104.522222 L140.809375,104.522222 C140.809375,104.65 140.9375,104.905556 141.065625,105.033333 C141.19375,105.161111 141.45,105.288889 141.578125,105.416667 C141.834375,105.544444 142.090625,105.672222 142.346875,105.8 C142.603125,105.927778 142.9875,106.055556 143.371875,106.183333 C143.75625,106.311111 144.26875,106.438889 144.653125,106.694444 C145.165625,106.95 145.55,107.077778 145.934375,107.461111 C146.31875,107.844444 146.575,108.1 146.83125,108.483333 C147.215625,108.866667 147.34375,109.377778 147.34375,109.888889 L147.34375,109.888889 Z" id="RIOHeavyFlowPads" fill="#AF1E23" fill-rule="nonzero"></path>
            </g>
            <g id="vs" transform="translate(200.000000, 24.000000)">
                <line x1="30.7482759" y1="0.386538462" x2="0" y2="66.6134615" id="Line-2" stroke="#002561" stroke-width="3" stroke-linecap="square"></line>
                <ellipse id="Oval" fill="#002561" cx="18.5" cy="34.6596154" rx="18.5" ry="19.1980769"></ellipse>
                <path d="M19.9034483,28.8615385 L14.8,41.7461538 L12.2482759,41.7461538 L7.14482759,28.8615385 L10.2068966,28.8615385 L13.5241379,37.8807692 L16.8413793,28.8615385 L19.9034483,28.8615385 Z M31.0034483,37.8807692 C31.0034483,38.525 30.8758621,39.0403846 30.6206897,39.5557692 C30.3655172,40.0711538 30.1103448,40.4576923 29.6,40.8442308 C29.2172414,41.2307692 28.7068966,41.4884615 28.0689655,41.6173077 C27.5586207,41.7461538 26.9206897,41.875 26.1551724,41.875 C25.1344828,41.875 24.2413793,41.7461538 23.3482759,41.3596154 C22.4551724,40.9730769 21.562069,40.4576923 20.7965517,39.8134615 L22.4551724,37.8807692 C23.0931034,38.3961538 23.6034483,38.7826923 24.2413793,39.0403846 C24.8793103,39.2980769 25.5172414,39.4269231 26.2827586,39.4269231 C26.9206897,39.4269231 27.3034483,39.2980769 27.6862069,39.1692308 C28.0689655,39.0403846 28.1965517,38.6538462 28.1965517,38.2673077 L28.1965517,38.2673077 C28.1965517,38.1384615 28.1965517,37.8807692 28.0689655,37.7519231 C27.9413793,37.6230769 27.8137931,37.4942308 27.6862069,37.3653846 C27.5586207,37.2365385 27.1758621,37.1076923 26.9206897,36.9788462 C26.537931,36.85 26.1551724,36.7211538 25.6448276,36.5923077 C25.0068966,36.4634615 24.3689655,36.2057692 23.8586207,36.0769231 C23.3482759,35.9480769 22.837931,35.6903846 22.5827586,35.3038462 C22.2,35.0461538 21.9448276,34.6596154 21.6896552,34.2730769 C21.4344828,33.8865385 21.4344828,33.3711538 21.4344828,32.7269231 L21.4344828,32.7269231 C21.4344828,32.0826923 21.562069,31.5673077 21.8172414,31.1807692 C22.0724138,30.6653846 22.3275862,30.2788462 22.7103448,30.0211538 C23.0931034,29.6346154 23.6034483,29.3769231 24.1137931,29.2480769 C24.6241379,29.1192308 25.262069,28.9903846 25.9,28.9903846 C26.7931034,28.9903846 27.6862069,29.1192308 28.4517241,29.3769231 C29.2172414,29.6346154 29.9827586,30.0211538 30.6206897,30.5365385 L29.2172414,32.5980769 C28.7068966,32.2115385 28.0689655,31.9538462 27.5586207,31.6961538 C27.0482759,31.4384615 26.4103448,31.3096154 25.9,31.3096154 C25.3896552,31.3096154 25.0068966,31.4384615 24.6241379,31.5673077 C24.3689655,31.825 24.2413793,32.0826923 24.2413793,32.3403846 L24.2413793,32.3403846 C24.2413793,32.5980769 24.2413793,32.7269231 24.3689655,32.8557692 C24.4965517,32.9846154 24.6241379,33.1134615 24.7517241,33.2423077 C25.0068966,33.3711538 25.262069,33.5 25.6448276,33.6288462 C26.0275862,33.7576923 26.4103448,33.8865385 27.0482759,34.0153846 C27.6862069,34.1442308 28.3241379,34.4019231 28.7068966,34.5307692 C29.0896552,34.6596154 29.6,35.0461538 29.9827586,35.3038462 C30.3655172,35.5615385 30.6206897,35.9480769 30.7482759,36.3346154 C31.0034483,36.85 31.0034483,37.3653846 31.0034483,37.8807692 L31.0034483,37.8807692 Z" id="VS" fill="#FFFFFF" fill-rule="nonzero"></path>
            </g>
        </g>
    </g>
</svg>