<?xml version="1.0" encoding="UTF-8"?>
<svg width="316px" height="92px" viewBox="0 0 316 92" version="1.1" xmlns="http://www.w3.org/2000/svg" xmlns:xlink="http://www.w3.org/1999/xlink">
    <!-- Generator: Sketch 62 (91390) - https://sketch.com -->
    <title>300 v 500 mobile</title>
    <desc>Created with Sketch.</desc>
    <g id="Page-1" stroke="none" stroke-width="1" fill="none" fill-rule="evenodd">
        <g id="300-v-500-mobile">
            <g id="Group" fill="#002561">
                <path d="M34.2,63.3 C34.2,63.9 34.1,64.5 33.8,65 C33.6,65.5 33.2,65.9 32.8,66.3 C32.4,66.7 32,66.8 31.4,67 C30.8,67.2 30.2,67.3 29.5,67.3 C28.5,67.3 27.5,67.1 26.6,66.8 C25.7,66.5 24.8,65.9 24,65.2 L25.7,63.2 C26.3,63.7 26.9,64.1 27.5,64.3 C28.1,64.5 28.8,64.7 29.5,64.7 C30.1,64.7 30.6,64.6 30.9,64.4 C31.2,64.2 31.4,63.9 31.4,63.5 L31.4,63.5 C31.4,63.3 31.4,63.2 31.3,63 C31.2,62.8 31.1,62.7 30.9,62.6 C30.7,62.5 30.4,62.4 30.1,62.2 C29.8,62.1 29.3,61.9 28.8,61.8 C28.1,61.6 27.6,61.5 27,61.3 C26.5,61.1 26,60.9 25.6,60.6 C25.2,60.3 24.9,60 24.7,59.5 C24.5,59.1 24.4,58.5 24.4,57.9 L24.4,57.9 C24.4,57.3 24.5,56.8 24.7,56.3 C24.9,55.8 25.2,55.4 25.6,55.1 C26,54.8 26.5,54.5 27,54.3 C27.6,54.1 28.2,54 28.8,54 C29.8,54 30.6,54.1 31.4,54.4 C32.2,54.7 32.9,55.1 33.6,55.6 L32.1,57.7 C31.5,57.3 31,57 30.4,56.8 C29.8,56.6 29.3,56.5 28.7,56.5 C28.1,56.5 27.7,56.6 27.5,56.8 C27.2,57 27.1,57.3 27.1,57.6 L27.1,57.6 C27.1,57.8 27.1,58 27.2,58.1 C27.3,58.3 27.4,58.4 27.6,58.5 C27.8,58.6 28.1,58.7 28.5,58.9 C28.9,59.1 29.3,59.1 29.9,59.3 C30.6,59.5 31.1,59.7 31.6,59.9 C32.1,60.1 32.5,60.4 32.9,60.7 C33.3,61 33.5,61.4 33.7,61.8 C34.1,62.2 34.2,62.7 34.2,63.3 L34.2,63.3 Z M44.9,67.1 L42.2,67.1 L42.2,66 C41.9,66.4 41.4,66.7 41,66.9 C40.5,67.1 39.9,67.2 39.2,67.2 C38.7,67.2 38.3,67.1 37.9,67 C37.5,66.9 37.1,66.7 36.8,66.4 C36.5,66.1 36.2,65.8 36.1,65.4 C35.9,65 35.8,64.6 35.8,64.1 L35.8,64.1 C35.8,63.6 35.9,63.1 36.1,62.7 C36.3,62.3 36.6,62 36.9,61.7 C37.3,61.4 37.7,61.2 38.2,61.1 C38.7,61 39.2,60.9 39.8,60.9 C40.3,60.9 40.7,60.9 41.1,61 C41.5,61.1 41.8,61.2 42.2,61.3 L42.2,61.1 C42.2,60.5 42,60.1 41.7,59.8 C41.3,59.5 40.8,59.3 40.1,59.3 C39.6,59.3 39.1,59.3 38.7,59.4 C38.3,59.5 37.9,59.6 37.4,59.8 L36.7,57.7 C37.2,57.5 37.8,57.3 38.4,57.1 C39,57 39.7,56.9 40.5,56.9 C42,56.9 43.2,57.3 43.9,58 C44.6,58.8 45,59.8 45,61.1 L45,67.1 L44.9,67.1 Z M42.3,63.6 L42.3,63.1 C42.1,63 41.8,62.9 41.5,62.8 C41.2,62.7 40.9,62.7 40.5,62.7 C39.9,62.7 39.4,62.8 39.1,63.1 C38.8,63.3 38.6,63.7 38.6,64.1 L38.6,64.1 C38.6,64.5 38.7,64.8 39,65 C39.3,65.2 39.7,65.3 40.1,65.3 C40.8,65.3 41.3,65.1 41.7,64.8 C42.1,64.5 42.3,64.1 42.3,63.6 Z M56.4,67.1 L53.6,67.1 L53.6,61.6 C53.6,60.9 53.5,60.4 53.2,60.1 C52.9,59.8 52.5,59.6 51.9,59.6 C51.3,59.6 50.9,59.8 50.6,60.1 C50.3,60.4 50.1,60.9 50.1,61.6 L50.1,67.1 L47.3,67.1 L47.3,57.2 L50.1,57.2 L50.1,58.6 C50.3,58.4 50.4,58.2 50.6,58 C50.8,57.8 51,57.6 51.2,57.5 C51.4,57.4 51.7,57.2 52,57.1 C52.3,57 52.6,57 53,57 C54.1,57 54.9,57.3 55.5,58 C56.1,58.7 56.4,59.6 56.4,60.7 L56.4,67.1 L56.4,67.1 Z M61.9,56.1 L58.9,56.1 L58.9,53.6 L61.9,53.6 L61.9,56.1 Z M61.8,67.1 L59,67.1 L59,57.2 L61.8,57.2 L61.8,67.1 Z M70,66.7 C69.7,66.9 69.4,67 69,67.1 C68.6,67.2 68.2,67.3 67.8,67.3 C67.4,67.3 67,67.3 66.6,67.2 C66.2,67.1 65.9,66.9 65.7,66.7 C65.4,66.5 65.2,66.2 65.1,65.8 C65,65.4 64.9,64.9 64.9,64.4 L64.9,59.7 L63.7,59.7 L63.7,57.3 L64.9,57.3 L64.9,54.8 L67.7,54.8 L67.7,57.3 L70,57.3 L70,59.7 L67.7,59.7 L67.7,63.9 C67.7,64.5 68,64.9 68.6,64.9 C69.1,64.9 69.6,64.8 70,64.5 L70,66.7 Z M80.7,67.1 L78,67.1 L78,66 C77.7,66.4 77.2,66.7 76.8,66.9 C76.4,67.1 75.7,67.2 75,67.2 C74.5,67.2 74.1,67.1 73.7,67 C73.3,66.9 72.9,66.7 72.6,66.4 C72.3,66.1 72,65.8 71.9,65.4 C71.7,65 71.6,64.6 71.6,64.1 L71.6,64.1 C71.6,63.6 71.7,63.1 71.9,62.7 C72.1,62.3 72.4,62 72.7,61.7 C73.1,61.4 73.5,61.2 74,61.1 C74.5,61 75,60.9 75.6,60.9 C76.1,60.9 76.5,60.9 76.9,61 C77.3,61.1 77.6,61.2 78,61.3 L78,61.1 C78,60.5 77.8,60.1 77.5,59.8 C77.1,59.5 76.6,59.3 75.9,59.3 C75.4,59.3 74.9,59.3 74.5,59.4 C74.1,59.5 73.7,59.6 73.2,59.8 L72.5,57.7 C73,57.5 73.6,57.3 74.2,57.1 C74.8,57 75.5,56.9 76.3,56.9 C77.8,56.9 79,57.3 79.7,58 C80.4,58.8 80.8,59.8 80.8,61.1 L80.8,67.1 L80.7,67.1 Z M78,63.6 L78,63.1 C77.8,63 77.5,62.9 77.2,62.8 C76.9,62.7 76.6,62.7 76.2,62.7 C75.6,62.7 75.1,62.8 74.8,63.1 C74.5,63.3 74.3,63.7 74.3,64.1 L74.3,64.1 C74.3,64.5 74.4,64.8 74.7,65 C75,65.2 75.4,65.3 75.8,65.3 C76.5,65.3 77,65.1 77.4,64.8 C77.8,64.5 78,64.1 78,63.6 Z M89.1,59.9 L89,59.9 C88.1,59.9 87.3,60.2 86.8,60.7 C86.3,61.3 86,62.1 86,63.3 L86,67 L83.2,67 L83.2,57.1 L86,57.1 L86,59.1 C86.3,58.4 86.7,57.9 87.2,57.5 C87.7,57.1 88.4,56.9 89.2,56.9 L89.2,59.9 L89.1,59.9 Z M100.3,57.2 L96.5,67.3 C96.3,67.8 96.1,68.2 95.9,68.6 C95.7,69 95.5,69.2 95.2,69.5 C94.9,69.7 94.7,69.9 94.3,70 C94,70.1 93.6,70.1 93.2,70.1 C92.7,70.1 92.2,70 91.8,69.9 C91.4,69.8 91,69.6 90.7,69.4 L91.6,67.4 C91.8,67.5 92,67.6 92.2,67.7 C92.4,67.8 92.6,67.8 92.8,67.8 C93,67.8 93.2,67.8 93.4,67.7 C93.5,67.6 93.7,67.4 93.8,67.2 L90,57.2 L93,57.2 L95.3,63.9 L97.5,57.2 L100.3,57.2 Z M37.3,88.3 L34.9,88.3 L28.6,80.1 L28.6,88.3 L25.8,88.3 L25.8,75.4 L28.4,75.4 L34.5,83.4 L34.5,75.4 L37.3,75.4 L37.3,88.3 Z M48.7,88.3 L46,88.3 L46,87.2 C45.7,87.6 45.2,87.9 44.8,88.1 C44.3,88.3 43.7,88.4 43,88.4 C42.5,88.4 42.1,88.3 41.7,88.2 C41.3,88.1 40.9,87.9 40.6,87.6 C40.3,87.3 40,87 39.9,86.6 C39.8,86.2 39.6,85.8 39.6,85.3 L39.6,85.3 C39.6,84.8 39.7,84.3 39.9,83.9 C40.1,83.5 40.4,83.2 40.7,82.9 C41.1,82.6 41.5,82.4 42,82.3 C42.5,82.2 43,82.1 43.6,82.1 C44.1,82.1 44.5,82.1 44.9,82.2 C45.3,82.3 45.6,82.4 46,82.5 L46,82.3 C46,81.7 45.8,81.3 45.5,81 C45.1,80.7 44.6,80.5 43.9,80.5 C43.4,80.5 42.9,80.5 42.5,80.6 C42.1,80.7 41.7,80.8 41.2,81 L40.5,78.9 C41,78.7 41.6,78.5 42.2,78.3 C42.8,78.1 43.5,78.1 44.3,78.1 C45.8,78.1 47,78.5 47.7,79.2 C48.4,80 48.8,81 48.8,82.3 L48.8,88.3 L48.7,88.3 Z M46,84.8 L46,84.3 C45.8,84.2 45.5,84.1 45.2,84 C44.9,83.9 44.6,83.9 44.2,83.9 C43.6,83.9 43.1,84 42.8,84.3 C42.5,84.5 42.3,84.9 42.3,85.3 L42.3,85.3 C42.3,85.7 42.4,86 42.7,86.2 C43,86.4 43.4,86.5 43.8,86.5 C44.5,86.5 45,86.3 45.4,86 C45.8,85.8 46,85.3 46,84.8 Z M61.5,83.4 C61.5,84.2 61.4,85 61.1,85.6 C60.8,86.2 60.5,86.8 60.1,87.2 C59.7,87.6 59.2,88 58.7,88.2 C58.2,88.4 57.6,88.5 57,88.5 C56.2,88.5 55.6,88.4 55.1,88.1 C54.6,87.8 54.2,87.5 53.9,87.1 L53.9,91.3 L51.1,91.3 L51.1,78.4 L53.9,78.4 L53.9,79.8 C54.2,79.3 54.7,78.9 55.1,78.6 C55.6,78.3 56.2,78.1 56.9,78.1 C57.5,78.1 58,78.2 58.6,78.4 C59.2,78.6 59.6,79 60,79.4 C60.4,79.8 60.8,80.4 61,81 C61.2,81.6 61.5,82.5 61.5,83.4 L61.5,83.4 Z M58.7,83.4 L58.7,83.4 C58.7,83 58.6,82.6 58.5,82.2 C58.4,81.8 58.2,81.6 58,81.3 C57.8,81 57.5,80.9 57.2,80.7 C56.9,80.6 56.6,80.5 56.3,80.5 C56,80.5 55.7,80.6 55.4,80.7 C55.1,80.8 54.9,81 54.6,81.3 C54.4,81.5 54.2,81.8 54.1,82.2 C54,82.6 53.9,82.9 53.9,83.3 L53.9,83.3 C53.9,83.7 54,84.1 54.1,84.4 C54.2,84.7 54.4,85 54.6,85.3 C54.8,85.5 55.1,85.7 55.4,85.9 C55.7,86 56,86.1 56.3,86.1 C56.6,86.1 56.9,86 57.2,85.9 C57.5,85.8 57.7,85.6 58,85.3 C58.2,85.1 58.4,84.8 58.5,84.4 C58.7,84.2 58.7,83.8 58.7,83.4 Z M73.2,88.3 L70,88.3 L67.4,84.3 L66.4,85.3 L66.4,88.3 L63.6,88.3 L63.6,74.8 L66.4,74.8 L66.4,82 L69.7,78.4 L73.1,78.4 L69.3,82.3 L73.2,88.3 Z M77.6,77.3 L74.6,77.3 L74.6,74.8 L77.6,74.8 L77.6,77.3 Z M77.5,88.3 L74.7,88.3 L74.7,78.4 L77.5,78.4 L77.5,88.3 Z M89.2,88.3 L86.4,88.3 L86.4,82.8 C86.4,82.1 86.3,81.6 86,81.3 C85.7,81 85.3,80.8 84.7,80.8 C84.1,80.8 83.7,81 83.4,81.3 C83.1,81.6 82.9,82.1 82.9,82.8 L82.9,88.3 L80.1,88.3 L80.1,78.4 L83,78.4 L83,79.8 C83.2,79.6 83.3,79.4 83.5,79.2 C83.7,79 83.9,78.8 84.1,78.7 C84.3,78.6 84.6,78.4 84.9,78.3 C85.2,78.2 85.5,78.2 85.9,78.2 C87,78.2 87.8,78.5 88.4,79.2 C89,79.9 89.3,80.8 89.3,81.9 L89.3,88.3 L89.2,88.3 Z M99,85.3 C99,85.9 98.9,86.3 98.7,86.7 C98.5,87.1 98.2,87.4 97.9,87.7 C97.6,88 97.2,88.2 96.7,88.3 C96.2,88.4 95.7,88.5 95.2,88.5 C94.5,88.5 93.8,88.4 93,88.1 C92.3,87.9 91.6,87.5 90.9,87 L92.1,85.2 C92.6,85.6 93.2,85.9 93.7,86.1 C94.2,86.3 94.7,86.4 95.2,86.4 C95.6,86.4 95.9,86.3 96.1,86.2 C96.3,86.1 96.4,85.9 96.4,85.7 L96.4,85.7 C96.4,85.6 96.3,85.4 96.2,85.3 C96.1,85.2 96,85 95.8,84.9 C95.6,84.8 95.4,84.7 95.1,84.7 C94.9,84.6 94.6,84.5 94.3,84.5 C94,84.4 93.6,84.3 93.3,84.1 C92.9,84 92.6,83.8 92.3,83.5 C92,83.3 91.8,83 91.6,82.7 C91.4,82.4 91.3,82 91.3,81.5 L91.3,81.5 C91.3,81 91.4,80.5 91.6,80.2 C91.8,79.8 92.1,79.5 92.4,79.2 C92.7,78.9 93.1,78.7 93.5,78.6 C93.9,78.5 94.4,78.4 94.9,78.4 C95.5,78.4 96.2,78.5 96.8,78.7 C97.4,78.9 98,79.2 98.6,79.5 L97.5,81.4 C97,81.1 96.5,80.9 96.1,80.7 C95.7,80.5 95.2,80.5 94.9,80.5 C94.6,80.5 94.3,80.6 94.1,80.7 C93.9,80.8 93.8,81 93.8,81.2 L93.8,81.2 C93.8,81.3 93.9,81.5 94,81.6 C94.1,81.7 94.3,81.8 94.4,81.9 C94.6,82 94.8,82.1 95,82.2 C95.2,82.3 95.5,82.4 95.8,82.5 C96.1,82.6 96.5,82.7 96.9,82.9 C97.3,83.1 97.6,83.2 97.9,83.5 C98.2,83.7 98.4,84 98.6,84.3 C98.8,84.6 99,84.8 99,85.3 L99,85.3 Z" id="SanitaryNapkins" fill-rule="nonzero"></path>
                <g>
                    <path d="M34.3,36.4 C30.9,36.4 28,35.8 25.6,34.7 C23.2,33.6 21.1,32.1 19.4,30.2 L25.5,24.1 C26.8,25.4 28.1,26.3 29.4,27 C30.7,27.7 32.2,28 33.8,28 C35.2,28 36.3,27.7 37.1,27 C37.9,26.4 38.3,25.5 38.3,24.4 L38.3,24.3 C38.3,23.2 37.8,22.3 36.8,21.7 C35.8,21.1 34.4,20.8 32.6,20.8 L28.5,20.8 L27.1,15.8 L35.1,8.6 L21.8,8.6 L21.8,0.8 L47.1,0.8 L47.1,7.7 L38.8,14.8 C40,15.1 41.2,15.4 42.3,15.9 C43.4,16.4 44.4,17 45.2,17.8 C46,18.6 46.7,19.5 47.1,20.6 C47.6,21.7 47.8,23 47.8,24.5 L47.8,24.6 C47.8,26.4 47.5,28 46.8,29.4 C46.1,30.8 45.2,32 44,33.1 C42.8,34.2 41.4,34.9 39.7,35.4 C38,36.1 36.2,36.4 34.3,36.4 Z M67.8,27.8 C68.8,27.8 69.6,27.6 70.4,27.1 C71.2,26.6 71.9,26 72.4,25.1 C72.9,24.3 73.4,23.3 73.7,22.1 C74,21 74.1,19.7 74.1,18.3 L74.1,18.2 C74.1,16.8 73.9,15.5 73.6,14.4 C73.3,13.2 72.8,12.2 72.3,11.4 C71.7,10.6 71.1,9.9 70.3,9.4 C69.5,8.9 68.6,8.7 67.7,8.7 C66.7,8.7 65.9,8.9 65.1,9.4 C64.3,9.9 63.6,10.5 63.1,11.3 C62.5,12.1 62.1,13.1 61.8,14.3 C61.5,15.5 61.4,16.7 61.4,18.1 L61.4,18.2 C61.4,19.6 61.6,20.9 61.9,22.1 C62.2,23.3 62.7,24.3 63.2,25.1 C63.8,25.9 64.4,26.6 65.2,27.1 C66,27.6 66.9,27.8 67.8,27.8 Z M67.7,36.4 C65.2,36.4 63,35.9 61,35 C59,34.1 57.3,32.8 55.9,31.1 C54.5,29.4 53.5,27.5 52.7,25.3 C52,23.1 51.6,20.8 51.6,18.3 L51.6,18.2 C51.6,15.7 52,13.4 52.7,11.2 C53.4,9 54.5,7.1 55.9,5.4 C57.3,3.7 59,2.5 61,1.5 C63,0.5 65.2,0.1 67.7,0.1 C70.2,0.1 72.4,0.6 74.4,1.5 C76.4,2.4 78.1,3.7 79.5,5.4 C80.9,7.1 82,9 82.7,11.2 C83.4,13.4 83.8,15.7 83.8,18.2 L83.8,18.3 C83.8,20.8 83.4,23.1 82.7,25.3 C82,27.5 81,29.4 79.6,31 C78.2,32.6 76.5,34 74.5,35 C72.5,35.9 70.2,36.4 67.7,36.4 Z M104.3,27.8 C105.3,27.8 106.1,27.6 106.9,27.1 C107.7,26.6 108.4,26 108.9,25.1 C109.4,24.3 109.9,23.3 110.2,22.1 C110.5,21 110.6,19.7 110.6,18.3 L110.6,18.2 C110.6,16.8 110.4,15.5 110.1,14.4 C109.8,13.2 109.3,12.2 108.8,11.4 C108.2,10.6 107.6,9.9 106.8,9.4 C106,8.9 105.1,8.7 104.2,8.7 C103.2,8.7 102.4,8.9 101.6,9.4 C100.8,9.9 100.1,10.5 99.6,11.3 C99,12.1 98.6,13.1 98.3,14.3 C98,15.5 97.9,16.7 97.9,18.1 L97.9,18.2 C97.9,19.6 98.1,20.9 98.4,22.1 C98.7,23.3 99.2,24.3 99.7,25.1 C100.3,25.9 100.9,26.6 101.7,27.1 C102.5,27.6 103.3,27.8 104.3,27.8 Z M104.2,36.4 C101.7,36.4 99.5,35.9 97.5,35 C95.5,34.1 93.8,32.8 92.4,31.1 C91,29.4 90,27.5 89.2,25.3 C88.4,23.1 88.1,20.8 88.1,18.3 L88.1,18.2 C88.1,15.7 88.5,13.4 89.2,11.2 C89.9,9 91,7.1 92.4,5.4 C93.8,3.7 95.5,2.5 97.5,1.5 C99.5,0.5 101.7,0.1 104.2,0.1 C106.7,0.1 108.9,0.6 110.9,1.5 C112.9,2.4 114.6,3.7 116,5.4 C117.4,7.1 118.5,9 119.2,11.2 C119.9,13.4 120.3,15.7 120.3,18.2 L120.3,18.3 C120.3,20.8 119.9,23.1 119.2,25.3 C118.5,27.5 117.4,29.4 116,31.1 C114.6,32.8 112.9,34 110.9,35 C108.9,35.9 106.7,36.4 104.2,36.4 Z" id="Shape" fill-rule="nonzero"></path>
                    <path d="M13,3.9 L13,3 C13,2.8 12.9,2.7 12.8,2.6 C12.7,2.5 12.6,2.4 12.4,2.4 L0.6,2.4 C0.4,2.4 0.3,2.5 0.2,2.6 C0.2,2.6 0.2,2.6 0.2,2.7 C0.2,2.7 0.1,2.8 0.1,2.8 C0,2.9 0,2.9 0,3 L0,3.9 C0,4 0.1,4.2 0.2,4.3 C0.3,4.4 0.4,4.4 0.6,4.4 L4,4.4 C6,4.4 7.2,5.1 7.6,6.5 L0.6,6.5 C0.4,6.5 0.3,6.6 0.2,6.7 C0.1,6.7 0,6.8 0,7 L0,7.9 C0,8 0.1,8.1 0.2,8.2 C0.3,8.3 0.4,8.3 0.6,8.3 L7.6,8.3 C7.6,8.4 7.5,8.5 7.5,8.6 C7.5,8.7 7.4,8.8 7.4,8.8 C7.4,8.8 7.4,8.8 7.4,8.9 C7.4,9 7.3,9 7.3,9.1 C7.3,9.1 7.3,9.2 7.2,9.2 C7.2,9.2 7.2,9.2 7.1,9.3 C7,9.5 6.8,9.6 6.7,9.8 C6.1,10.2 5.3,10.4 4.2,10.5 L0.6,10.5 C0.4,10.5 0.3,10.6 0.2,10.7 C0.1,10.7 0,10.8 0,11 L0,12 C0,12.1 0,12.1 0,12.2 C0,12.2 0,12.2 0,12.2 C0,12.2 0,12.2 0,12.2 C0,12.3 0,12.3 0.1,12.3 L0.1,12.3 C0.1,12.3 0.3,12.5 0.6,12.7 C1,13.1 1.4,13.5 1.9,13.8 L7,18.6 C7.1,18.7 7.3,18.8 7.4,18.9 C7.5,19 7.7,19 7.9,19 L9.2,19 C9.3,19 9.4,19 9.5,18.9 C9.6,18.8 9.6,18.7 9.6,18.6 C9.6,18.5 9.6,18.4 9.5,18.3 L4.6,13.6 L3.3,12.3 L4.2,12.3 C5,12.3 5.8,12.2 6.5,12 C7.2,11.8 7.9,11.5 8.4,11.1 C8.9,10.7 9.3,10.1 9.6,9.5 C9.6,9.4 9.7,9.3 9.7,9.2 C9.7,9.2 9.7,9.1 9.8,9.1 C9.9,8.8 10,8.6 10,8.4 L12.4,8.4 C12.6,8.4 12.7,8.4 12.8,8.3 C12.9,8.2 13,8.1 13,7.9 L13,7 C13,6.8 12.9,6.7 12.8,6.6 C12.7,6.5 12.6,6.4 12.4,6.4 L10,6.4 C9.9,5.6 9.6,5 9.1,4.4 L12.3,4.4 C12.5,4.4 12.6,4.4 12.7,4.3 C12.9,4.2 13,4 13,3.9 L13,3.9 Z" id="Path"></path>
                </g>
            </g>
            <g id="Group" transform="translate(188.000000, 0.000000)">
                <g>
                    <g transform="translate(21.577669, 0.411959)" fill-rule="nonzero">
                        <path d="M7.7,9.5 L1.8,10.9 L0,3.4 L10.2,0.5 L17.2,0.5 L17.2,35.8 L7.7,35.8 L7.7,9.5 Z M35.7,36.5 C32.6,36.5 29.9,36 27.7,35 C25.5,34 23.4,32.6 21.6,30.9 L27.1,24.4 C28.5,25.6 29.9,26.5 31.3,27.2 C32.7,27.9 34.1,28.2 35.6,28.2 C37.2,28.2 38.4,27.8 39.4,27.1 C40.3,26.4 40.8,25.4 40.8,24.1 L40.8,24 C40.8,22.7 40.3,21.7 39.4,21 C38.5,20.3 37.2,19.9 35.7,19.9 C34.6,19.9 33.7,20.1 32.7,20.4 C31.8,20.7 30.9,21.2 30.1,21.7 L24.4,18.5 L25.4,0.7 L48.7,0.7 L48.7,8.7 L32.8,8.7 L32.5,14 C33.3,13.6 34.1,13.3 35,13.1 C35.9,12.9 36.9,12.7 38.1,12.7 C39.7,12.7 41.2,12.9 42.6,13.4 C44,13.9 45.3,14.5 46.4,15.4 C47.5,16.3 48.4,17.5 49,18.9 C49.7,20.3 50,22 50,23.9 L50,24 C50,26 49.6,27.7 48.9,29.3 C48.2,30.9 47.2,32.1 45.9,33.2 C44.6,34.3 43.1,35.1 41.4,35.7 C39.7,36.3 37.8,36.5 35.7,36.5 Z M70.1,27.9 C71.1,27.9 71.9,27.7 72.7,27.2 C73.5,26.7 74.2,26.1 74.7,25.2 C75.2,24.3 75.7,23.3 76,22.2 C76.3,21 76.4,19.8 76.4,18.4 L76.4,18.3 C76.4,16.9 76.2,15.6 75.9,14.4 C75.6,13.2 75.1,12.2 74.6,11.4 C74,10.5 73.4,9.9 72.6,9.4 C71.8,8.9 71,8.6 70,8.6 C69,8.6 68.2,8.8 67.4,9.3 C66.6,9.8 65.9,10.4 65.4,11.3 C64.8,12.1 64.4,13.1 64.1,14.3 C63.8,15.5 63.7,16.8 63.7,18.2 L63.7,18.3 C63.7,19.7 63.9,21 64.2,22.2 C64.5,23.4 65,24.4 65.5,25.3 C66.1,26.2 66.7,26.8 67.5,27.3 C68.3,27.6 69.2,27.9 70.1,27.9 Z M70,36.5 C67.5,36.5 65.3,36 63.3,35.1 C61.3,34.1 59.6,32.8 58.3,31.2 C56.9,29.5 55.9,27.6 55.1,25.4 C54.3,23.2 54,20.9 54,18.4 L54,18.3 C54,15.8 54.4,13.5 55.1,11.3 C55.9,9 56.9,7 58.3,5.4 C59.7,3.8 61.4,2.4 63.4,1.5 C65.4,0.5 67.6,4.4408921e-16 70.1,4.4408921e-16 C72.6,4.4408921e-16 74.8,0.5 76.8,1.4 C78.8,2.4 80.5,3.7 81.8,5.3 C83.1,6.9 84.3,8.9 85,11.1 C85.7,13.3 86.1,15.6 86.1,18.1 L86.1,18.2 C86.1,20.7 85.7,23 85,25.2 C84.3,27.4 83.2,29.4 81.8,31 C80.4,32.7 78.7,34 76.7,34.9 C74.7,36 72.5,36.5 70,36.5 Z" id="Shape" fill="#AF1E23"></path>
                        <polygon id="Path" fill="#002561" points="97.9 15.4 98.3 9.1 93 12.7 91.9 10.8 97.8 8 91.9 5.2 93 3.4 98.3 7 97.9 0.6 100 0.6 99.5 7 104.8 3.4 105.9 5.2 100 8 105.9 10.8 104.8 12.7 99.5 9.1 100 15.4"></polygon>
                    </g>
                    <path d="M12.9,4.2 L12.9,3.3 C12.9,3.1 12.8,3 12.7,2.9 C12.6,2.8 12.5,2.7 12.3,2.7 L0.6,2.7 C0.4,2.7 0.3,2.8 0.2,2.9 C0.2,2.9 0.2,2.9 0.2,3 C0.2,3 0.1,3.1 0.1,3.1 C0.1,3.2 0.1,3.2 0.1,3.3 L0.1,4.2 C0.1,4.4 0.2,4.5 0.3,4.6 C0.4,4.7 0.5,4.7 0.7,4.7 L4,4.7 C6,4.7 7.2,5.4 7.6,6.8 L0.6,6.8 C0.4,6.8 0.3,6.9 0.2,7 C0.1,7 0,7.2 0,7.3 L0,8.2 C0,8.4 0.1,8.5 0.2,8.6 C0.3,8.7 0.4,8.7 0.6,8.7 L7.6,8.7 C7.6,8.8 7.5,8.9 7.5,9 C7.5,9.1 7.4,9.2 7.4,9.2 C7.4,9.2 7.4,9.2 7.4,9.3 C7.4,9.4 7.3,9.4 7.3,9.5 C7.3,9.5 7.3,9.6 7.2,9.6 C7.2,9.6 7.2,9.6 7.1,9.7 C7,9.8 6.8,10 6.6,10.1 C6,10.5 5.2,10.7 4.1,10.8 L0.6,10.8 C0.4,10.8 0.3,10.9 0.2,11 C0.1,11 0,11.2 0,11.3 L0,12.3 C0,12.4 0,12.4 0,12.5 C0,12.5 0,12.5 0,12.5 C0,12.5 0,12.5 0,12.5 C0,12.6 0,12.6 0.1,12.6 L0.1,12.6 C0.1,12.6 0.3,12.8 0.6,13 C1,13.4 1.4,13.8 1.8,14.1 L6.8,18.9 C6.9,19 7.1,19.1 7.2,19.2 C7.3,19.3 7.5,19.3 7.7,19.3 L9,19.3 C9.1,19.3 9.2,19.3 9.3,19.2 C9.4,19.1 9.4,19 9.4,18.9 C9.4,18.8 9.4,18.7 9.3,18.6 L4.7,14 L3.4,12.7 L4.3,12.7 C5.1,12.7 5.9,12.6 6.6,12.4 C7.3,12.2 8,11.9 8.5,11.5 C9,11.1 9.4,10.5 9.7,9.9 C9.7,9.8 9.8,9.7 9.8,9.6 C9.8,9.6 9.8,9.5 9.9,9.5 C9.9,9.2 9.9,8.9 10,8.7 L12.4,8.7 C12.6,8.7 12.7,8.7 12.8,8.6 C12.9,8.5 13,8.4 13,8.2 L13,7.3 C13,7.1 12.9,7 12.8,6.9 C12.7,6.8 12.6,6.7 12.4,6.7 L10,6.7 C9.8,6 9.5,5.3 9.1,4.7 L12.3,4.7 C12.5,4.7 12.6,4.7 12.7,4.6 C12.8,4.5 12.9,4.3 12.9,4.2 L12.9,4.2 Z" id="Path-Copy" fill="#AF1E23"></path>
                </g>
                <path d="M30.9,67.7 L27.6,67.7 L24.8,63.5 L22.6,63.5 L22.6,67.7 L19.8,67.7 L19.8,54.7 L25.7,54.7 C27.2,54.7 28.4,55.1 29.3,55.8 C30.2,56.6 30.6,57.6 30.6,59 L30.6,59 C30.6,60.1 30.3,60.9 29.8,61.6 C29.3,62.3 28.6,62.7 27.8,63.1 L30.9,67.7 Z M27.6,59.2 L27.6,59.2 C27.6,58.5 27.4,58.1 27,57.8 C26.6,57.5 26.1,57.3 25.4,57.3 L22.6,57.3 L22.6,61 L25.5,61 C26.2,61 26.7,60.8 27.1,60.5 C27.5,60.2 27.6,59.8 27.6,59.2 Z M36,67.7 L33.2,67.7 L33.2,54.7 L36,54.7 L36,67.7 Z M52.4,61.2 C52.4,62.1 52.2,63 51.9,63.8 C51.6,64.6 51.1,65.3 50.5,65.9 C49.9,66.5 49.2,67 48.3,67.3 C47.5,67.7 46.5,67.8 45.5,67.8 C44.5,67.8 43.6,67.6 42.8,67.3 C42,67 41.2,66.5 40.6,65.9 C40,65.3 39.5,64.6 39.2,63.8 C38.9,63 38.7,62.1 38.7,61.2 L38.7,61.2 C38.7,60.3 38.9,59.4 39.2,58.6 C39.5,57.8 40,57.1 40.6,56.5 C41.2,55.9 41.9,55.4 42.8,55.1 C43.6,54.7 44.6,54.6 45.6,54.6 C46.6,54.6 47.5,54.8 48.3,55.1 C49.1,55.5 49.9,55.9 50.5,56.5 C51.1,57.1 51.6,57.8 51.9,58.6 C52.2,59.4 52.4,60.3 52.4,61.2 L52.4,61.2 Z M49.4,61.3 L49.4,61.3 C49.4,60.7 49.3,60.2 49.1,59.7 C48.9,59.2 48.6,58.8 48.3,58.4 C48,58 47.5,57.7 47.1,57.5 C46.7,57.3 46.1,57.2 45.5,57.2 C44.9,57.2 44.4,57.3 43.9,57.5 C43.4,57.7 43,58 42.7,58.4 C42.4,58.8 42.1,59.2 41.9,59.7 C41.7,60.2 41.6,60.7 41.6,61.3 L41.6,61.3 C41.6,61.9 41.7,62.4 41.9,62.9 C42.1,63.4 42.4,63.8 42.7,64.2 C43,64.6 43.5,64.9 43.9,65.1 C44.4,65.3 44.9,65.4 45.5,65.4 C46.1,65.4 46.6,65.3 47.1,65.1 C47.6,64.9 48,64.6 48.3,64.2 C48.6,63.8 48.9,63.4 49.1,62.9 C49.3,62.4 49.4,61.8 49.4,61.3 Z M71.3,67.7 L68.5,67.7 L68.5,62.5 L63.3,62.5 L63.3,67.7 L60.5,67.7 L60.5,54.7 L63.3,54.7 L63.3,59.8 L68.5,59.8 L68.5,54.7 L71.3,54.7 L71.3,67.7 Z M83.3,63 C83.3,63.1 83.3,63.3 83.3,63.4 C83.3,63.5 83.3,63.6 83.3,63.8 L76.4,63.8 C76.5,64.4 76.8,64.9 77.2,65.3 C77.6,65.7 78.1,65.8 78.8,65.8 C79.3,65.8 79.7,65.7 80.1,65.6 C80.5,65.5 80.8,65.2 81.2,64.8 L82.8,66.2 C82.3,66.8 81.8,67.2 81.1,67.6 C80.4,67.9 79.7,68.1 78.8,68.1 C78.1,68.1 77.4,68 76.7,67.7 C76.1,67.5 75.5,67.1 75.1,66.6 C74.7,66.1 74.3,65.6 74,65 C73.7,64.4 73.6,63.7 73.6,62.9 L73.6,62.9 C73.6,62.2 73.7,61.5 74,60.9 C74.2,60.3 74.6,59.7 75,59.2 C75.4,58.7 75.9,58.4 76.5,58.1 C77.1,57.8 77.8,57.7 78.5,57.7 C79.3,57.7 80,57.8 80.6,58.1 C81.2,58.4 81.7,58.8 82.1,59.3 C82.5,59.8 82.8,60.4 83,61 C83.2,61.6 83.3,62.3 83.3,63 L83.3,63 Z M80.6,62 C80.5,61.4 80.3,60.9 79.9,60.5 C79.5,60.1 79.1,59.9 78.5,59.9 C77.9,59.9 77.4,60.1 77.1,60.5 C76.7,60.9 76.5,61.4 76.4,62 L80.6,62 Z M93.9,67.7 L91.2,67.7 L91.2,66.6 C90.9,67 90.4,67.3 90,67.5 C89.6,67.7 88.9,67.8 88.3,67.8 C87.8,67.8 87.4,67.7 87,67.6 C86.6,67.5 86.2,67.3 85.9,67 C85.6,66.7 85.4,66.4 85.2,66 C85,65.6 84.9,65.2 84.9,64.7 L84.9,64.7 C84.9,64.2 85,63.7 85.2,63.3 C85.4,62.9 85.7,62.6 86,62.3 C86.3,62 86.8,61.8 87.3,61.7 C87.8,61.6 88.3,61.5 88.9,61.5 C89.4,61.5 89.8,61.5 90.2,61.6 C90.6,61.7 90.9,61.8 91.3,61.9 L91.3,61.7 C91.3,61.1 91.1,60.7 90.8,60.3 C90.4,60 89.9,59.8 89.2,59.8 C88.7,59.8 88.2,59.8 87.8,59.9 C87.4,60 87,60.1 86.5,60.3 L85.8,58.1 C86.3,57.9 86.9,57.7 87.5,57.5 C88.1,57.4 88.8,57.3 89.6,57.3 C91.1,57.3 92.3,57.7 93,58.4 C93.7,59.1 94,60.2 94,61.6 L94,67.7 L93.9,67.7 Z M91.3,64.2 L91.3,63.7 C91.1,63.6 90.8,63.5 90.5,63.4 C90.2,63.3 89.9,63.3 89.5,63.3 C88.9,63.3 88.4,63.4 88.1,63.7 C87.8,63.9 87.6,64.3 87.6,64.7 L87.6,64.7 C87.6,65.1 87.7,65.4 88,65.6 C88.3,65.8 88.7,65.9 89.1,65.9 C89.8,65.9 90.3,65.7 90.7,65.4 C91.1,65.2 91.3,64.7 91.3,64.2 Z M105.8,57.8 L101.9,67.8 L99.4,67.8 L95.5,57.8 L98.5,57.8 L100.7,64.5 L102.9,57.8 L105.8,57.8 Z M116.8,57.8 L113,68 C112.8,68.5 112.6,68.9 112.4,69.3 C112.2,69.7 112,69.9 111.7,70.2 C111.4,70.4 111.2,70.6 110.8,70.7 C110.5,70.8 110.1,70.8 109.7,70.8 C109.2,70.8 108.7,70.7 108.3,70.6 C107.9,70.5 107.5,70.3 107.2,70.1 L108.1,68.1 C108.3,68.2 108.5,68.3 108.7,68.4 C108.9,68.5 109.1,68.5 109.3,68.5 C109.5,68.5 109.7,68.5 109.9,68.4 C110.1,68.3 110.2,68.1 110.3,67.9 L106.4,57.9 L109.4,57.9 L111.6,64.7 L113.8,57.9 L116.8,57.9 L116.8,57.8 Z M31,78.7 L24,78.7 L24,81.5 L30.2,81.5 L30.2,84 L24,84 L24,89 L21.2,89 L21.2,76 L31,76 L31,78.7 Z M35.9,89.1 L33.1,89.1 L33.1,75.5 L35.9,75.5 L35.9,89.1 Z M48.7,84.1 C48.7,84.8 48.6,85.5 48.3,86.1 C48,86.7 47.7,87.3 47.2,87.7 C46.7,88.2 46.2,88.5 45.5,88.8 C44.8,89.1 44.1,89.2 43.4,89.2 C42.6,89.2 41.9,89.1 41.3,88.8 C40.6,88.5 40.1,88.2 39.6,87.7 C39.1,87.2 38.8,86.7 38.5,86.1 C38.2,85.5 38.1,84.8 38.1,84.1 L38.1,84.1 C38.1,83.4 38.2,82.7 38.5,82.1 C38.8,81.5 39.1,80.9 39.6,80.5 C40.1,80 40.6,79.7 41.3,79.4 C42,79.1 42.7,79 43.4,79 C44.2,79 44.9,79.1 45.5,79.4 C46.2,79.7 46.7,80 47.2,80.5 C47.7,81 48,81.5 48.3,82.1 C48.6,82.7 48.7,83.4 48.7,84.1 L48.7,84.1 Z M46,84.2 L46,84.2 C46,83.8 45.9,83.4 45.8,83.1 C45.7,82.8 45.5,82.5 45.3,82.2 C45.1,81.9 44.8,81.7 44.5,81.6 C44.2,81.5 43.8,81.4 43.5,81.4 C43.1,81.4 42.7,81.5 42.4,81.6 C42.1,81.7 41.8,81.9 41.6,82.2 C41.4,82.4 41.2,82.7 41.1,83.1 C41,83.4 40.9,83.8 40.9,84.1 L40.9,84.1 C40.9,84.5 41,84.8 41.1,85.1 C41.2,85.4 41.4,85.7 41.6,86 C41.8,86.3 42.1,86.5 42.4,86.6 C42.7,86.7 43.1,86.8 43.5,86.8 C43.9,86.8 44.3,86.7 44.6,86.6 C44.9,86.5 45.2,86.3 45.4,86 C45.6,85.7 45.8,85.5 45.9,85.1 C46,84.7 46,84.5 46,84.2 Z M64.9,79.1 L61.8,89.1 L59.3,89.1 L57.4,83 L55.5,89.1 L53,89.1 L50,79.1 L52.8,79.1 L54.4,85.1 L56.3,79 L58.7,79 L60.6,85.1 L62.2,79.1 L64.9,79.1 Z M82.6,80.6 C82.6,81.4 82.5,82 82.2,82.6 C81.9,83.2 81.6,83.6 81.1,84 C80.6,84.4 80.1,84.7 79.4,84.9 C78.8,85.1 78.1,85.2 77.4,85.2 L75.2,85.2 L75.2,89.1 L72.4,89.1 L72.4,76.1 L77.7,76.1 C78.5,76.1 79.2,76.2 79.8,76.4 C80.4,76.6 80.9,76.9 81.3,77.3 C81.7,77.7 82,78.2 82.3,78.7 C82.5,79.3 82.6,79.9 82.6,80.6 L82.6,80.6 Z M79.7,80.7 L79.7,80.7 C79.7,80 79.5,79.5 79.1,79.2 C78.7,78.9 78.1,78.7 77.4,78.7 L75.2,78.7 L75.2,82.7 L77.4,82.7 C78.1,82.7 78.7,82.5 79.1,82.1 C79.5,81.7 79.7,81.2 79.7,80.7 Z M92.9,89.1 L90.2,89.1 L90.2,88 C89.9,88.4 89.4,88.7 89,88.9 C88.5,89.1 87.9,89.2 87.3,89.2 C86.8,89.2 86.4,89.1 86,89 C85.6,88.9 85.2,88.7 84.9,88.4 C84.6,88.1 84.4,87.8 84.2,87.4 C84,87 83.9,86.6 83.9,86.1 L83.9,86.1 C83.9,85.6 84,85.1 84.2,84.7 C84.4,84.3 84.7,84 85,83.7 C85.3,83.4 85.8,83.2 86.3,83.1 C86.8,83 87.3,82.9 87.9,82.9 C88.4,82.9 88.8,82.9 89.2,83 C89.6,83.1 89.9,83.2 90.3,83.3 L90.3,83.1 C90.3,82.5 90.1,82.1 89.8,81.7 C89.5,81.3 88.9,81.2 88.2,81.2 C87.7,81.2 87.2,81.2 86.8,81.3 C86.4,81.4 86,81.5 85.5,81.7 L84.8,79.5 C85.3,79.3 85.9,79.1 86.5,78.9 C87.1,78.7 87.8,78.7 88.6,78.7 C90.1,78.7 91.3,79.1 92,79.8 C92.7,80.6 93,81.6 93,83 L93,89.1 L92.9,89.1 Z M90.3,85.6 L90.3,85.1 C90.1,85 89.8,84.9 89.5,84.8 C89.2,84.7 88.9,84.7 88.5,84.7 C87.9,84.7 87.4,84.8 87.1,85.1 C86.8,85.3 86.6,85.7 86.6,86.1 L86.6,86.1 C86.6,86.5 86.7,86.8 87,87 C87.3,87.2 87.7,87.3 88.1,87.3 C88.8,87.3 89.3,87.1 89.7,86.8 C90.1,86.5 90.3,86.1 90.3,85.6 Z M105.3,89.1 L102.5,89.1 L102.5,87.7 C102.2,88.2 101.7,88.6 101.3,88.9 C100.8,89.2 100.2,89.4 99.5,89.4 C98.9,89.4 98.4,89.3 97.8,89.1 C97.3,88.9 96.8,88.5 96.4,88.1 C96,87.7 95.6,87.1 95.4,86.5 C95.1,85.9 95,85.1 95,84.3 L95,84.3 C95,83.5 95.1,82.7 95.4,82.1 C95.7,81.5 96,80.9 96.4,80.5 C96.8,80.1 97.3,79.7 97.8,79.5 C98.3,79.3 98.9,79.2 99.5,79.2 C100.2,79.2 100.9,79.3 101.4,79.6 C101.9,79.9 102.3,80.2 102.6,80.6 L102.6,75.7 L105.4,75.7 L105.4,89.1 L105.3,89.1 Z M102.5,84.1 L102.5,84.1 C102.5,83.7 102.4,83.3 102.3,82.9 C102.2,82.5 102,82.3 101.8,82 C101.6,81.8 101.3,81.6 101,81.4 C100.7,81.3 100.4,81.2 100.1,81.2 C99.8,81.2 99.5,81.3 99.2,81.4 C98.9,81.5 98.7,81.7 98.4,82 C98.2,82.2 98,82.5 97.9,82.9 C97.8,83.3 97.7,83.6 97.7,84 L97.7,84 C97.7,84.4 97.8,84.8 97.9,85.1 C98,85.4 98.2,85.7 98.4,86 C98.6,86.2 98.9,86.4 99.2,86.6 C99.5,86.8 99.8,86.8 100.1,86.8 C100.4,86.8 100.7,86.7 101,86.6 C101.3,86.5 101.5,86.3 101.8,86 C102,85.8 102.2,85.5 102.3,85.1 C102.4,84.9 102.5,84.5 102.5,84.1 Z M115,86 C115,86.6 114.9,87 114.7,87.4 C114.5,87.8 114.2,88.1 113.9,88.4 C113.6,88.7 113.2,88.9 112.7,89 C112.2,89.1 111.7,89.2 111.2,89.2 C110.5,89.2 109.8,89.1 109.1,88.8 C108.4,88.6 107.7,88.2 107,87.7 L108.2,85.8 C108.7,86.2 109.3,86.5 109.8,86.7 C110.3,86.9 110.8,87 111.3,87 C111.7,87 112,86.9 112.2,86.8 C112.4,86.7 112.5,86.5 112.5,86.3 L112.5,86.3 C112.5,86.2 112.4,86 112.3,85.9 C112.2,85.8 112,85.7 111.8,85.6 C111.6,85.5 111.4,85.4 111.1,85.4 C110.9,85.3 110.6,85.2 110.3,85.2 C110,85.1 109.6,85 109.3,84.8 C109,84.6 108.6,84.5 108.4,84.2 C108.2,83.9 107.9,83.7 107.7,83.4 C107.5,83.1 107.4,82.7 107.4,82.2 L107.4,82.2 C107.4,81.7 107.5,81.2 107.7,80.9 C107.9,80.5 108.1,80.2 108.5,79.9 C108.8,79.6 109.2,79.4 109.6,79.3 C110,79.2 110.5,79.1 111,79.1 C111.6,79.1 112.3,79.2 112.9,79.4 C113.5,79.6 114.1,79.9 114.7,80.2 L113.6,82.1 C113.1,81.8 112.6,81.6 112.2,81.4 C111.7,81.2 111.3,81.1 111,81.1 C110.7,81.1 110.4,81.2 110.2,81.3 C110,81.4 109.9,81.6 109.9,81.8 L109.9,81.8 C109.9,81.9 110,82.1 110.1,82.2 C110.2,82.3 110.4,82.4 110.5,82.5 C110.7,82.6 110.9,82.7 111.1,82.8 C111.3,82.9 111.6,83 111.9,83.1 C112.2,83.2 112.6,83.3 112.9,83.5 C113.3,83.7 113.6,83.8 113.9,84.1 C114.2,84.4 114.4,84.6 114.6,84.9 C114.9,85.2 115,85.6 115,86 L115,86 Z" id="RIOHeavyFlowPads" fill="#AF1E23" fill-rule="nonzero"></path>
            </g>
            <g id="vs" transform="translate(140.000000, 19.000000)">
                <line x1="24.1" y1="0.3" x2="0" y2="51.7" id="Line-2" stroke="#002561" stroke-width="3" stroke-linecap="square"></line>
                <ellipse id="Oval" fill="#002561" cx="14.5" cy="26.9" rx="14.5" ry="14.9"></ellipse>
                <path d="M15.6,22.4 L11.6,32.4 L9.6,32.4 L5.6,22.4 L8,22.4 L10.6,29.4 L13.2,22.4 L15.6,22.4 Z M24.3,29.4 C24.3,29.9 24.2,30.3 24,30.7 C23.8,31.1 23.6,31.4 23.2,31.7 C22.9,32 22.5,32.2 22,32.3 C21.6,32.4 21.1,32.5 20.5,32.5 C19.7,32.5 19,32.4 18.3,32.1 C17.6,31.8 16.9,31.4 16.3,30.9 L17.6,29.4 C18.1,29.8 18.5,30.1 19,30.3 C19.5,30.5 20,30.6 20.6,30.6 C21.1,30.6 21.4,30.5 21.7,30.4 C22,30.3 22.1,30 22.1,29.7 L22.1,29.7 C22.1,29.6 22.1,29.4 22,29.3 C21.9,29.2 21.8,29.1 21.7,29 C21.6,28.9 21.3,28.8 21.1,28.7 C20.8,28.6 20.5,28.5 20.1,28.4 C19.6,28.3 19.1,28.1 18.7,28 C18.3,27.9 17.9,27.7 17.7,27.4 C17.4,27.2 17.2,26.9 17,26.6 C16.8,26.3 16.8,25.9 16.8,25.4 L16.8,25.4 C16.8,24.9 16.9,24.5 17.1,24.2 C17.3,23.8 17.5,23.5 17.8,23.3 C18.1,23 18.5,22.8 18.9,22.7 C19.3,22.6 19.8,22.5 20.3,22.5 C21,22.5 21.7,22.6 22.3,22.8 C22.9,23 23.5,23.3 24,23.7 L22.9,25.3 C22.5,25 22,24.8 21.6,24.6 C21.2,24.4 20.7,24.3 20.3,24.3 C19.9,24.3 19.6,24.4 19.3,24.5 C19.1,24.7 19,24.9 19,25.1 L19,25.1 C19,25.3 19,25.4 19.1,25.5 C19.2,25.6 19.3,25.7 19.4,25.8 C19.6,25.9 19.8,26 20.1,26.1 C20.4,26.2 20.7,26.3 21.2,26.4 C21.7,26.5 22.2,26.7 22.5,26.8 C22.8,26.9 23.2,27.2 23.5,27.4 C23.8,27.6 24,27.9 24.1,28.2 C24.3,28.6 24.3,29 24.3,29.4 L24.3,29.4 Z" id="VS" fill="#FFFFFF" fill-rule="nonzero"></path>
            </g>
        </g>
    </g>
</svg>