<?xml version="1.0" encoding="UTF-8"?>
<svg width="40px" height="40px" viewBox="0 0 40 40" version="1.1" xmlns="http://www.w3.org/2000/svg" xmlns:xlink="http://www.w3.org/1999/xlink">
    <!-- Generator: Sketch 62 (91390) - https://sketch.com -->
    <title>certificatins</title>
    <desc>Created with Sketch.</desc>
    <g id="certificatins" stroke="none" stroke-width="1" fill="none" fill-rule="evenodd">
        <g id="latex" transform="translate(6.000000, 6.000000)">
            <path d="M16.2707699,2.03704671 L16.8274332,2.08347232 C24.0139418,2.6828257 29.407812,8.90940859 28.976344,16.1079478 C28.557506,23.0957687 22.5532226,28.4209817 15.5654017,28.0021437 C15.4685395,27.996338 15.3717472,27.9894201 15.275044,27.9813915 L10.4137114,27.5777893 C4.16257806,27.0588016 -0.484244179,21.5705342 0.0347434511,15.3194008 C0.0794189549,14.7812907 0.162411606,14.2470514 0.28308992,13.720748 C1.96370599,6.3912301 8.77705846,1.41207268 16.2707699,2.03704671 Z" id="Rectangle-Copy-10" fill="#AF1E23" opacity="0.100000001"></path>
            <g id="rubber" fill-rule="nonzero">
                <path d="M24.3269434,6.796875 C23.1259325,6.796875 21.9749268,7.26504517 21.1137745,8.07903291 C21.0434132,8.03279111 20.9721668,7.98809814 20.9000353,7.94473267 L20.9000353,4.81445312 C20.9000353,3.40905762 19.7565525,2.265625 18.3510953,2.265625 C17.9468494,2.265625 17.5647297,2.36054228 17.2246498,2.52869414 C16.8031454,1.70121001 15.9433207,1.1328125 14.9525087,1.1328125 C14.5482628,1.1328125 14.1661431,1.22772978 13.8260632,1.39588164 C13.4045588,0.568397508 12.5447341,0 11.5539221,0 C10.5631103,0 9.70350684,0.568397508 9.28178115,1.39588164 C8.94192249,1.22772978 8.5595815,1.1328125 8.15533554,1.1328125 C6.74987838,1.1328125 5.60639559,2.27624512 5.60639559,3.68164062 L5.60639559,11.9347992 L4.83352693,11.1619644 C3.72920759,10.0579147 1.93255894,10.0579147 0.828239547,11.1619644 C-0.276079849,12.2662354 -0.276079849,14.0628052 0.828239547,15.1670761 L5.60639559,19.9450226 L5.60639559,23.6726837 L4.85521064,29 L21.6514416,29 L20.9000353,23.6726837 L20.9000353,21.996254 C21.481291,22.2409592 22.1147645,22.3730469 22.7692579,22.3730469 C25.4241824,22.3730469 27.5839223,20.2134018 27.5839223,17.5585937 C27.5839223,16.7640762 27.3863352,15.9857102 27.0166062,15.2927475 C28.2459386,14.4300842 29,13.0162812 29,11.4697266 C29,8.8930206 26.9037624,6.796875 24.3269434,6.796875 Z M18.3510953,3.96484375 C18.8197286,3.96484375 19.200742,4.34606172 19.200742,4.81445312 L19.200742,7.21437837 C18.6502418,7.06193545 18.0793855,6.97852324 17.5014487,6.96878813 L17.5014487,4.81445312 C17.5014487,4.34606172 17.8826834,3.96484375 18.3510953,3.96484375 Z M14.9525087,2.83203125 C15.421142,2.83203125 15.8021554,3.21324922 15.8021554,3.68164062 L15.8021554,7.15397647 C15.2009861,7.298233 14.6305724,7.52258301 14.1028621,7.8153 L14.1028621,3.68164062 C14.1028621,3.21324922 14.4840968,2.83203125 14.9525087,2.83203125 Z M2.02991429,13.9656753 C1.58827498,13.5238342 1.58827498,12.8052063 2.02991429,12.3635864 C2.47155348,11.9219666 3.19021294,11.9219666 3.63207349,12.3635864 L7.30568889,16.037262 L7.30568889,3.68164062 C7.30568889,3.21324922 7.68692359,2.83203125 8.15533554,2.83203125 C8.6239688,2.83203125 9.00498219,3.21324922 9.00498219,3.68164062 L9.00498219,11.4414062 L10.7042755,11.4414062 L10.7042755,2.54882812 C10.7042755,2.08043672 11.0855102,1.69921875 11.5539221,1.69921875 C12.0225554,1.69921875 12.4035688,2.08043672 12.4035688,2.54882812 L12.4035688,9.14790341 C11.2793358,10.3610306 10.5909893,11.9832535 10.5909893,13.7636719 C10.5909893,17.511467 13.640203,20.5605469 17.3881625,20.5605469 C17.8926402,20.5605469 18.3920289,20.5052338 18.8794694,20.3959351 C18.9799224,20.5339966 19.0874558,20.6651993 19.200742,20.7906494 L19.200742,22.8828125 L7.30568889,22.8828125 L7.30568889,19.2412186 L2.02991429,13.9656753 Z M6.81094679,27.3007812 L7.19439407,24.5820312 L19.3122581,24.5820312 L19.6957054,27.3007812 L6.81094679,27.3007812 Z" id="Shape" fill="#AF1E23"></path>
                <path d="M26,6 C27.6541667,6 29,4.65416667 29,3 C29,1.34583333 27.6541667,0 26,0 C24.3458333,0 23,1.34583333 23,3 C23,4.65416667 24.3458333,6 26,6 Z M26,2 C26.5515625,2 27,2.44869793 27,3 C27,3.55130207 26.5515625,4 26,4 C25.4486979,4 25,3.55130207 25,3 C25,2.44869793 25.4486979,2 26,2 Z" id="Shape" fill="#002561"></path>
                <path d="M23,0.5 C23,0.776171867 22.7761719,1 22.5,1 C22.2238281,1 22,0.776171867 22,0.5 C22,0.223828133 22.2238281,0 22.5,0 C22.7761719,0 23,0.223828133 23,0.5 Z" id="Path" fill="#002561"></path>
                <path d="M24,24.5 C24,24.7761719 23.7761719,25 23.5,25 C23.2238281,25 23,24.7761719 23,24.5 C23,24.2238281 23.2238281,24 23.5,24 C23.7761719,24 24,24.2238281 24,24.5 Z" id="Path" fill="#002561"></path>
                <path d="M19.7460187,18.56 C20.2895202,18.56 20.561271,18.0858816 20.561271,17.1376449 L20.561271,17.1376449 L20.561271,14.761271 L22.9376449,14.761271 C23.8858816,14.761271 24.36,14.4895202 24.36,13.9460187 C24.36,13.3793894 23.8858816,13.0960748 22.9376449,13.0960748 L22.9376449,13.0960748 L20.561271,13.0960748 L20.561271,10.7023551 C20.561271,9.75411838 20.2895202,9.28 19.7460187,9.28 C19.1678255,9.28 18.878729,9.75411838 18.878729,10.7023551 L18.878729,10.7023551 L18.878729,13.0960748 L16.5023551,13.0960748 C15.5541184,13.0960748 15.08,13.3793894 15.08,13.9460187 C15.08,14.4895202 15.5541184,14.761271 16.5023551,14.761271 L16.5023551,14.761271 L18.878729,14.761271 L18.878729,17.1376449 C18.878729,18.0858816 19.1678255,18.56 19.7460187,18.56 Z" id="+" fill="#FFFFFF" transform="translate(19.720000, 13.920000) rotate(-315.000000) translate(-19.720000, -13.920000) "></path>
            </g>
        </g>
    </g>
</svg>