<?xml version="1.0" encoding="UTF-8"?>
<svg width="174px" height="212px" viewBox="0 0 174 212" version="1.1" xmlns="http://www.w3.org/2000/svg" xmlns:xlink="http://www.w3.org/1999/xlink">
    <!-- Generator: Sketch 63.1 (92452) - https://sketch.com -->
    <title>icon</title>
    <desc>Created with Sketch.</desc>
    <defs>
        <path d="M125.658986,206.470564 C171.521526,206.470564 204,131.687943 204,85.8254032 C204,39.9628631 166.821065,31.7701036 120.958525,31.7701036 C75.0959853,31.7701036 34,46.9011991 34,92.7637391 C34,138.626279 79.7964461,206.470564 125.658986,206.470564 Z" id="path-1"></path>
    </defs>
    <g id="FAQs" stroke="none" stroke-width="1" fill="none" fill-rule="evenodd">
        <g id="RIO_FAQ_Desktop_Menopause" transform="translate(-120.000000, -811.000000)">
            <g id="left" transform="translate(75.372658, 521.000000)">
                <g id="icon" transform="translate(0.000000, 275.000000)">
                    <mask id="mask-2" fill="white">
                        <use xlink:href="#path-1"></use>
                    </mask>
                    <use id="Mask" fill="#AF1E23" opacity="0.100000001" transform="translate(119.000000, 119.120334) rotate(32.000000) translate(-119.000000, -119.120334) " xlink:href="#path-1"></use>
                    <g id="noun_clock_2326370" transform="translate(58.627342, 15.000000)" fill-rule="nonzero">
                        <path d="M66.6798088,126.117647 C68.8460583,126.117647 70.6021505,127.882173 70.6021505,130.058824 C70.6021505,132.235474 68.8460583,134 66.6798088,134 C29.8535673,134 0,104.003077 0,67 C0,29.9969227 29.8535673,0 66.6798088,0 C68.8460583,0 70.6021505,1.76452579 70.6021505,3.94117647 C70.6021505,6.11782715 68.8460583,7.88235294 66.6798088,7.88235294 C34.1860663,7.88235294 7.84468339,34.3502261 7.84468339,67 C7.84468339,99.6497739 34.1860663,126.117647 66.6798088,126.117647 Z" id="Shape" fill="#002561"></path>
                        <path d="M81.9173886,9.96241757 C79.99624,9.44764853 78.8561454,7.47294622 79.3709155,5.5517964 C79.8856856,3.63064838 81.8603877,2.49055353 83.7815361,3.00532437 C85.7026845,3.5200952 86.8427798,5.49479571 86.328009,7.41594553 C85.8132391,9.33709355 83.838537,10.4771884 81.9173886,9.96241757 Z" id="Path" fill="#AF1E23"></path>
                        <path d="M96.8981503,15.3663449 C95.1755565,14.3718041 94.5853509,12.1691308 95.5798916,10.4465368 C96.5744323,8.72394285 98.7771054,8.13373897 100.499699,9.12827798 C102.222293,10.1228188 102.812499,12.3254921 101.817958,14.048086 C100.823417,15.77068 98.6207441,16.3608857 96.8981503,15.3663449 Z" id="Path" fill="#002561"></path>
                        <path d="M109.119561,24.8804392 C107.712835,23.4737112 107.712835,21.1929555 109.119561,19.7862275 C110.526289,18.3795012 112.807044,18.3795012 114.213773,19.7862275 C115.620499,21.1929555 115.620499,23.4737112 114.213773,24.8804392 C112.807044,26.2871654 110.526289,26.2871654 109.119561,24.8804392 Z" id="Path" fill="#AF1E23"></path>
                        <path d="M118.633655,37.1018497 C117.639114,35.3792559 118.22932,33.1765829 119.951914,32.1820422 C121.674508,31.1875015 123.877181,31.7777071 124.871722,33.5003009 C125.866261,35.2228946 125.276057,37.4255677 123.553463,38.4201084 C121.830869,39.4146491 119.628196,38.8244435 118.633655,37.1018497 Z" id="Path" fill="#002561"></path>
                        <path d="M124.037582,52.0826122 C123.522812,50.1614624 124.662906,48.1867619 126.584054,47.671991 C128.505204,47.1572202 130.479905,48.2973151 130.994676,50.2184631 C131.509446,52.1396129 130.369352,54.1143152 128.448204,54.6290842 C126.527054,55.1438551 124.552351,54.0037602 124.037582,52.0826122 Z" id="Path" fill="#AF1E23"></path>
                        <path d="M126.795699,67 C126.795699,65.0105881 128.408438,63.3978495 130.397849,63.3978495 C132.387261,63.3978495 134,65.0105881 134,67 C134,68.9894119 132.387261,70.6021505 130.397849,70.6021505 C128.408438,70.6021505 126.795699,68.9894119 126.795699,67 Z" id="Path" fill="#002561"></path>
                        <path d="M124.037582,81.9173878 C124.552351,79.9962398 126.527054,78.8561449 128.448204,79.3709158 C130.369352,79.8856848 131.509446,81.8603871 130.994676,83.7815369 C130.479905,85.7026849 128.505204,86.8427798 126.584054,86.328009 C124.662906,85.8132381 123.522812,83.8385376 124.037582,81.9173878 Z" id="Path" fill="#AF1E23"></path>
                        <path d="M118.633655,96.8981503 C119.628196,95.1755565 121.830869,94.5853509 123.553463,95.5798916 C125.276057,96.5744323 125.866261,98.7771054 124.871722,100.499699 C123.877181,102.222293 121.674508,102.812499 119.951914,101.817958 C118.22932,100.823417 117.639114,98.6207441 118.633655,96.8981503 Z" id="Path" fill="#002561"></path>
                        <path d="M109.119561,109.119561 C110.526289,107.712835 112.807044,107.712835 114.213773,109.119561 C115.620499,110.526289 115.620499,112.807044 114.213773,114.213773 C112.807044,115.620499 110.526289,115.620499 109.119561,114.213773 C107.712835,112.807044 107.712835,110.526289 109.119561,109.119561 Z" id="Path" fill="#AF1E23"></path>
                        <path d="M96.8981503,118.633655 C98.6207441,117.639114 100.823417,118.22932 101.817958,119.951914 C102.812499,121.674508 102.222293,123.877181 100.499699,124.871722 C98.7771054,125.866261 96.5744323,125.276057 95.5798916,123.553463 C94.5853509,121.830869 95.1755565,119.628196 96.8981503,118.633655 Z" id="Path" fill="#002561"></path>
                        <path d="M81.9173886,124.037582 C83.838537,123.522812 85.8132391,124.662906 86.328009,126.584054 C86.8427798,128.505204 85.7026845,130.479905 83.7815361,130.994676 C81.8603877,131.509446 79.8856856,130.369352 79.3709155,128.448204 C78.8561454,126.527054 79.99624,124.552351 81.9173886,124.037582 Z" id="Path" fill="#AF1E23"></path>
                    </g>
                    <path d="M155.912405,91.1143562 C159.47861,96.0451118 163.039375,100.97861 166.627342,105.939531 C165.950008,106.501714 165.286275,106.515426 164.636143,106.603181 C163.6079,106.740299 162.582378,106.899356 161.556856,107.052927 C159.179386,107.417661 156.799196,107.771425 154.424446,108.152612 C153.35812,108.322638 152.305396,108.574935 151.23363,108.733991 C150.335959,108.865625 149.424686,108.909502 148.429086,109 C148.706548,107.113259 150.042175,105.692719 150.153704,103.784039 C144.318837,101.346085 138.519333,98.9273276 132.627342,96.4646922 C132.670865,96.3495132 132.689907,96.0588235 132.842239,95.9436446 C134.993931,94.3064582 135.785515,92.0769231 135.698468,89.4442616 C135.695747,89.3290827 135.758312,89.2111614 135.815437,89 C136.182666,89.0713012 136.563497,89.0822707 136.892643,89.2221308 C140.186827,90.5987934 143.464689,92.0138489 146.761593,93.3822844 C148.717429,94.1940217 150.708628,94.9262306 152.675346,95.7187714 C153.279234,95.9628411 153.632862,95.7379679 153.864081,95.1949815 C154.269393,94.2324146 154.661105,93.2616207 155.063697,92.2990539 C155.216029,91.9260935 155.381962,91.5531331 155.539735,91.1829151 C155.662145,91.1609763 155.787275,91.1362951 155.912405,91.1143562" id="Fill-16" fill="#AF1E23"></path>
                    <path d="M110.281868,73 C108.923368,69.7485599 107.719061,66.7240965 106.405755,63.75354 C105.103083,60.8056811 103.973215,57.7670316 102.497739,54.8617309 C100.852119,55.5625212 99.355376,56.2037302 97.627342,56.9414042 C97.6751952,56.1413116 97.6778538,55.5568468 97.7469751,54.9780564 C97.9330711,53.3948945 98.1617033,51.8145698 98.3477993,50.2314078 C98.5206027,48.7276877 98.6482113,47.2211304 98.8183562,45.7174103 C98.8954531,45.0336433 99.0336958,44.3583878 99.1214268,43.6746207 C99.1985237,43.0759699 99.2543525,42.4744819 99.3022057,41.8701566 C99.3925952,40.7948549 99.4457655,39.7138787 99.5733742,38.6414142 C99.6504711,37.9746704 99.9721512,37.8356472 100.498537,38.187461 C101.256213,38.6953212 102.000597,39.2287162 102.734347,39.7706229 C104.970157,41.4218778 107.187358,43.104342 109.436461,44.7357364 C111.169812,45.9954567 112.943041,47.1955956 114.873122,48.5461064 C114.306858,48.8695481 113.897447,49.113548 113.48006,49.3376874 C112.682506,49.768943 111.895586,50.2172218 111.079422,50.5974076 C110.122357,51.0513609 109.965505,51.3691282 110.40416,52.3876857 C111.177787,54.1949871 111.988634,55.9852652 112.762262,57.7954037 C113.384354,59.2480541 113.977202,60.7205649 114.586002,62.1817269 C114.766781,62.6158197 114.971487,63.0385636 115.149607,63.4783308 C115.952478,65.4530274 116.750032,67.4305612 117.627342,69.6066995 C114.796025,69.7315367 112.328924,70.5259548 110.281868,73" id="Fill-18" fill="#AF1E23"></path>
                    <path d="M116.662173,83.0525921 C116.721021,82.3869089 116.704972,81.7037078 116.849418,81.0643016 C117.389756,78.6993745 119.296986,77.0526845 121.562658,77.0030502 C122.290242,76.9855322 123.039224,77.0410058 123.740058,77.2337036 C126.2224,77.9110654 127.439496,79.8672397 127.613367,82.638 C127.875511,86.8744311 124.403442,89.4670919 121.078495,88.9298739 C119.58588,88.6875419 118.400882,87.6510615 117.491403,86.3284541 C116.828019,85.3620456 116.517726,84.275931 116.662173,83.0525921" id="Fill-20" fill="#002561"></path>
                    <path d="M159.62657,169.337348 C159.62657,170.865532 159.628561,169.170761 159.62458,170.696933 C159.62458,171.001765 159.61164,174.037821 159.53102,174.344665 C159.457368,174.624346 159.523058,174.955335 159.580786,175.252119 C159.695246,175.830596 159.476278,176.107258 158.893027,176.084119 C158.717853,176.077077 131.997008,176.178688 130.227348,176.178688 L129.665993,176.178688 C129.664003,176.58446 129.661017,193.511501 129.657036,226.959813 C129.501767,226.974904 129.370386,226.998043 129.240001,226.998043 C126.966714,227.001061 124.256929,227.001061 121.981651,226.999049 C121.464091,226.999049 121.422288,226.951765 121.421292,226.405481 C121.420297,223.93765 121.421292,179.439284 121.421292,176.972458 C121.421292,176.848714 121.425274,176.724971 121.419302,176.602233 C121.400391,176.261183 121.341668,176.197802 121.014211,176.1807 C120.892783,176.173657 120.77036,176.178688 120.648932,176.178688 L94.2285088,176.178688 L93.6542153,176.178688 C93.6432669,175.977478 93.6283373,175.827577 93.6283373,175.678683 C93.627342,173.442241 93.627342,171.687472 93.627342,169.452037 C93.627342,169.359481 93.627342,169.265919 93.6333139,169.173362 C93.6492388,168.938954 93.7816149,168.807161 94.0065549,168.778992 C94.1429122,168.760883 94.2802649,168.76692 94.4176176,168.76692 L120.838041,168.76692 L121.421292,168.76692 L121.421292,168.203534 L121.421292,141.900412 C121.421292,141.792765 121.419302,141.684112 121.421292,141.577471 C121.433236,141.118713 121.536748,141.047284 121.979661,141.099599 C122.566893,141.170022 128.499491,141.217306 129.290762,141.032193 C129.388302,141.009054 129.492809,141.013079 129.648078,141 L129.648078,168.764907 C132.601161,168.765914 156.684436,168.76692 159.62657,168.768932 L159.62657,169.337348 Z" id="Fill-6" fill="#002561"></path>
                </g>
            </g>
        </g>
    </g>
</svg>