<?xml version="1.0" encoding="UTF-8"?>
<svg width="85px" height="85px" viewBox="0 0 85 85" version="1.1" xmlns="http://www.w3.org/2000/svg" xmlns:xlink="http://www.w3.org/1999/xlink">
    <!-- Generator: Sketch 62 (91390) - https://sketch.com -->
    <title>features</title>
    <desc>Created with Sketch.</desc>
    <g id="features" stroke="none" stroke-width="1" fill="none" fill-rule="evenodd">
        <g id="baterial-sap" transform="translate(12.000000, 8.000000)" fill-rule="nonzero">
            <path d="M30.8447354,34.5376919 L32.6462385,36.3589784 C31.911855,37.3198034 31.4192299,38.4754353 31.2586359,39.737515 L28.7150503,39.737515 C28.2240516,39.737515 27.8267418,40.1396264 27.8267418,40.6355785 C27.8267418,41.1315306 28.2240516,41.5336421 28.7150503,41.5336421 L31.2586359,41.5336421 C31.4192298,42.7955025 31.9118008,43.9510797 32.6461843,44.9117951 L30.8447353,46.7330268 C30.4977398,47.0838329 30.4977398,47.6521387 30.8447353,48.0029448 C31.0182331,48.1783478 31.2455152,48.2660494 31.4727972,48.2660494 C31.7000792,48.2660494 31.9273613,48.1783479 32.100859,48.0029448 L33.9022538,46.1817679 C34.852642,46.9243805 35.9957754,47.4225251 37.2442002,47.5849374 L37.2442002,50.1568941 C37.2442002,50.6528462 37.64151,51.0549577 38.1325087,51.0549577 C38.6235074,51.0549577 39.0208172,50.6528462 39.0208172,50.1568941 L39.0208172,47.5849374 C40.2692421,47.4225251 41.4123754,46.9243805 42.3627636,46.1817679 L44.1641584,48.0029448 C44.3376562,48.1783478 44.5649382,48.2660494 44.7922202,48.2660494 C45.0195022,48.2660494 45.2467844,48.1783479 45.4202821,48.0029448 C45.7672776,47.6521387 45.7672776,47.0838329 45.4202821,46.7330268 L43.6188332,44.9117951 C44.3532167,43.9510797 44.8457876,42.7955026 45.0063815,41.5336421 L47.5508346,41.5336421 C48.0418333,41.5336421 48.4391431,41.1315306 48.4391431,40.6355785 C48.4391431,40.1396264 48.0418333,39.737515 47.5508346,39.737515 L45.0063815,39.737515 C44.8457876,38.4754352 44.3531624,37.3198033 43.6187789,36.3589784 L45.420282,34.5376919 C45.7672775,34.1868858 45.7672775,33.6185799 45.420282,33.2677739 C45.0732865,32.9169678 44.5111537,32.9169678 44.1641582,33.2677739 L42.3627635,35.0889508 C41.4124295,34.3462834 40.2692419,33.8481935 39.0208171,33.6857812 L39.0208171,31.114263 C39.0208171,30.6183109 38.6235072,30.2161995 38.1325085,30.2161995 C37.6415098,30.2161995 37.2442,30.6183109 37.2442,31.114263 L37.2442,33.6857812 C35.9957752,33.8481935 34.8525876,34.3462833 33.9022536,35.0889508 L32.1008588,33.2677739 C31.7538633,32.9169678 31.1917306,32.9169678 30.844735,33.2677739 C30.4977395,33.6185799 30.4977399,34.1868858 30.8447354,34.5376919 Z M38.1325089,35.4177767 C40.9778722,35.4177767 43.2931998,37.7585302 43.2931998,40.6355786 C43.2931998,43.512627 40.9778722,45.8529421 38.1325089,45.8529421 C35.2871456,45.8529421 32.971818,43.512627 32.971818,40.6355786 C32.971818,37.7585302 35.2871456,35.4177767 38.1325089,35.4177767 Z" id="Shape" fill="#E5B431"></path>
            <path d="M21.7848992,30.9139309 L21.7848992,33.4858875 C21.7848992,33.9818396 22.182209,34.3839511 22.6732077,34.3839511 C23.1642064,34.3839511 23.5615162,33.9818396 23.5615162,33.4858875 L23.5615162,30.9139309 C24.8099411,30.7515186 25.9530744,30.2533739 26.9034626,29.5107613 L28.7048574,31.3319382 C28.8783552,31.5073413 29.1056372,31.5950428 29.3329192,31.5950428 C29.5602012,31.5950428 29.7874834,31.5073413 29.9609811,31.3319382 C30.3079766,30.9811321 30.3079766,30.4128263 29.9609811,30.0620202 L28.1595322,28.2407885 C28.8939157,27.2800732 29.3864866,26.1244961 29.5470805,24.8626356 L32.0915336,24.8626356 C32.5825323,24.8626356 32.9798421,24.4605241 32.9798421,23.964572 C32.9798421,23.4686199 32.5825323,23.0665085 32.0915336,23.0665085 L29.5470805,23.0665085 C29.3864866,21.8045384 28.8938614,20.6489064 28.1593695,19.6880814 L29.9609811,17.8666853 C30.3079766,17.5158792 30.3079766,16.9475734 29.9609811,16.5967673 C29.6139856,16.2459612 29.0518528,16.2459612 28.7048573,16.5967673 L26.9031915,18.4182182 C25.9528576,17.6757152 24.8098326,17.1775706 23.5615162,17.0152131 L23.5615162,14.4432564 C23.5615162,13.9473043 23.1642064,13.5451929 22.6732077,13.5451929 C22.182209,13.5451929 21.7848992,13.9473043 21.7848992,14.4432564 L21.7848992,17.0152131 C20.5365828,17.1775705 19.3935578,17.6757152 18.4432239,18.4182182 L16.6415581,16.5967673 C16.2945626,16.2459612 15.7324298,16.2459612 15.3854343,16.5967673 C15.0384388,16.9475734 15.0384388,17.5158792 15.3854343,17.8666853 L17.1870459,19.6880814 C16.4525539,20.6489064 15.9599288,21.8045384 15.7993349,23.0665085 L13.2557493,23.0665085 C12.7647506,23.0665085 12.3674408,23.4686199 12.3674408,23.964572 C12.3674408,24.4605241 12.7647506,24.8626356 13.2557493,24.8626356 L15.7993349,24.8626356 C15.9599288,26.124496 16.4524998,27.2800732 17.1868833,28.2407885 L15.3854343,30.0620202 C15.0384388,30.4128263 15.0384388,30.9811321 15.3854343,31.3319382 C15.5589321,31.5073413 15.7862142,31.5950428 16.0134962,31.5950428 C16.2407782,31.5950428 16.4680603,31.5073413 16.641558,31.3319382 L18.4429528,29.5107613 C19.393341,30.2533739 20.5364744,30.7515186 21.7848992,30.9139309 Z M22.6732077,18.7472086 C25.518571,18.7472086 27.8338986,21.0875237 27.8338986,23.964572 C27.8338986,26.8416204 25.518571,29.1819354 22.6732077,29.1819354 C19.8278444,29.1819354 17.5125168,26.8416204 17.5125168,23.964572 C17.5125168,21.0875237 19.8278444,18.7472086 22.6732077,18.7472086 Z" id="Shape" fill="#E5B431"></path>
            <path d="M22.6740276,45.8452681 C24.9470879,45.8452681 26.7961217,43.9758415 26.7961217,41.6777117 C26.7961217,39.3795819 24.947088,37.5097648 22.6740276,37.5097648 C20.4009673,37.5097648 18.5511612,39.3795819 18.5511612,41.6777117 C18.5511612,43.9758414 20.4009673,45.8452681 22.6740276,45.8452681 Z M22.6740276,39.109007 C24.0750917,39.109007 25.2143251,40.2611955 25.2143251,41.6777117 C25.2143251,43.0938375 24.0750917,44.246026 22.6740276,44.246026 C21.2729636,44.246026 20.1329578,43.0938375 20.1329578,41.6777117 C20.1329578,40.2611954 21.2729636,39.109007 22.6740276,39.109007 Z" id="Shape" fill="#FFFFFF"></path>
            <path d="M37.6176324,23.964572 C40.7436411,23.964572 43.2860428,21.3937877 43.2860428,18.2339135 C43.2860428,15.0740393 40.7436412,12.5032549 37.6176324,12.5032549 C34.4916236,12.5032549 31.9492221,15.0740393 31.9492221,18.2339135 C31.9492221,21.3937877 34.4916237,23.964572 37.6176324,23.964572 Z M37.6176324,14.4001983 C39.7083569,14.4001983 41.4097046,16.1197664 41.4097046,18.2339135 C41.4097046,20.3480606 39.7083569,22.0676286 37.6176324,22.0676286 C35.526908,22.0676286 33.8255603,20.3480606 33.8255603,18.2339135 C33.8255603,16.1197664 35.526908,14.4001983 37.6176324,14.4001983 Z" id="Shape" fill="#FFFFFF"></path>
            <path d="M40.1941826,26.0484478 C40.1941826,28.3465168 42.0431211,30.2161995 44.3166629,30.2161995 C46.5902046,30.2161995 48.4391431,28.3465168 48.4391431,26.0484478 C48.4391431,23.7503788 46.5902046,21.8806962 44.3166629,21.8806962 C42.0431211,21.8806962 40.1941826,23.7503788 40.1941826,26.0484478 Z M44.3166629,23.6822064 C45.6070044,23.6822064 46.6572015,24.7434965 46.6572015,26.0484478 C46.6572015,27.3533991 45.6070044,28.4146892 44.3166629,28.4146892 C43.0263213,28.4146892 41.9761243,27.3533991 41.9761243,26.0484478 C41.9761243,24.7434965 43.0263214,23.6822064 44.3166629,23.6822064 Z" id="Shape" fill="#FFFFFF"></path>
            <path d="M30.5514669,67.6408368 C30.6672335,67.6974507 30.7928525,67.7259643 30.9184716,67.7259643 C31.0440907,67.7259643 31.1697097,67.6974507 31.2854763,67.6408369 C59.8478065,53.6881996 62.1467178,23.6200268 61.8092704,11.3397721 C61.8010601,11.0554629 61.7953127,10.8583474 61.7977759,10.7562772 C61.8068073,10.3827082 61.5711689,10.0475705 61.2189428,9.93145 L31.2025513,0.0422022538 C31.0317751,-0.0139983513 30.8486832,-0.0139983513 30.679549,0.0417889978 L0.618821367,9.93103675 C0.265774262,10.0471572 0.0301358906,10.3831214 0.0391673382,10.7566903 C0.0416304679,10.8587607 0.0358832213,11.0567026 0.0276727609,11.3422515 C-0.308132521,23.6225062 1.99324186,53.6902658 30.5514669,67.6408368 Z M1.70916213,11.3889476 C1.70916213,11.3769636 1.70916213,11.3649797 1.7099832,11.3529957 L30.9406397,1.73689963 L60.1269601,11.3525824 C60.1277811,11.3637399 60.1277811,11.3753107 60.1277811,11.3868813 C60.4553759,23.2848891 58.2508842,52.3364914 30.9184716,65.9374613 C3.59016416,52.3385576 1.38320937,23.2873686 1.70916213,11.3889476 Z" id="Shape" fill="#FFFFFF"></path>
        </g>
    </g>
</svg>