<?xml version="1.0" encoding="UTF-8"?>
<svg width="60px" height="47px" viewBox="0 0 60 47" version="1.1" xmlns="http://www.w3.org/2000/svg" xmlns:xlink="http://www.w3.org/1999/xlink">
    <!-- Generator: Sketch 62 (91390) - https://sketch.com -->
    <title>icon</title>
    <desc>Created with Sketch.</desc>
    <g id="Page-1" stroke="none" stroke-width="1" fill="none" fill-rule="evenodd">
        <g id="RIO-Homepage_Desktop_Option-1" transform="translate(-468.000000, -2048.000000)">
            <g id="section-3" transform="translate(0.000000, 1150.000000)">
                <g id="icons" transform="translate(171.000000, 756.000000)">
                    <g id="glue-trip" transform="translate(297.000000, 143.000000)">
                        <g id="icon">
                            <path d="M56.6801746,25.9312135 L56.3958853,25.9312135 L56.3958853,26.2843717 C56.111596,27.0966357 55.436409,29.1802693 54.548005,31.2992188 C54.1215711,32.3940094 53.659601,33.4534841 53.1976309,34.4070114 C52.8292494,35.216873 52.3766637,35.9862326 51.8472569,36.70254 C50.4887085,38.5243349 48.8729604,40.1419593 47.0498753,41.5054922 C44.6530185,43.1180697 41.8960398,44.1243106 39.0187032,44.4367057 C35.5988907,44.8434429 32.157426,45.0439331 28.713217,45.0370747 C23.4292708,45.0398288 18.1534108,44.6265175 12.9351621,43.8010208 C10.8239177,43.4698554 8.7351817,43.0098803 6.680798,42.4237036 C5.19332418,42.0380491 3.77762836,41.4180513 2.48753117,40.5872808 C1.21939594,39.7718664 0.445790838,38.3800579 0.426433915,36.8791191 C0.474155342,35.5985893 0.921212842,34.3644626 1.70573566,33.3475367 C2.89372774,31.6466287 4.35898599,30.154648 6.04114713,28.9330586 C9.31047382,26.5315825 11.3004988,25.1542653 12.4376559,24.3773172 L13.6103491,23.600369 L13.8591022,23.600369 L13.8591022,23.600369 L13.8591022,23.600369 L13.8591022,23.600369 L13.8591022,23.600369 L13.8591022,23.3884741 L13.8591022,23.6356848 L13.8591022,23.6356848 L13.8591022,23.4237899 L13.8591022,23.4237899 L13.8591022,23.6710007 L13.8591022,23.6710007 L13.8591022,23.3884741 L13.8591022,23.6356848 L13.8591022,23.3884741 L13.6103491,23.3884741 L13.6103491,23.3884741 L13.6103491,23.1412633 L13.361596,23.1412633 L13.6103491,23.1412633 L13.3260599,23.1412633 L13.3260599,23.1412633 L13.574813,23.1412633 L13.574813,23.1412633 L13.361596,23.1412633 L13.6458853,23.1412633 L13.4326683,23.1412633 L13.4326683,23.1412633 L13.4326683,23.1412633 L13.4326683,23.1412633 L13.4326683,23.1412633 L13.4326683,23.1412633 L13.4326683,23.1412633 L13.4326683,23.1412633 L13.4326683,23.1412633 L13.4326683,23.1412633 L13.4326683,23.1412633 L13.4326683,23.1412633 L13.4326683,23.1412633 L13.4326683,23.1412633 L13.4326683,23.1412633 L13.4326683,23.1412633 L13.4326683,23.1412633 L13.4326683,23.1412633 L13.4326683,23.1412633 L13.4326683,23.1412633 L13.6103491,23.1412633 L13.6103491,23.1412633 L13.6103491,23.1412633 L13.6103491,23.1412633 L13.6103491,23.3531582 C13.6347373,23.2846058 13.6347373,23.2098157 13.6103491,23.1412633 L13.361596,23.1412633 L13.361596,23.3531582 L13.361596,23.3531582 L13.361596,23.3531582 L13.361596,23.3531582 L13.361596,23.3531582 L13.361596,23.3531582 L15.2450125,23.3531582 C19.4027431,23.3531582 29.4594763,23.7416323 38.4501247,24.2713697 C42.9987531,24.5538963 47.2986284,24.8717387 50.5679551,25.1895811 C52.1670823,25.3661603 53.5529925,25.5074236 54.5124688,25.6840027 L55.7206983,25.9312135 L56.0405237,25.9312135 L56.0405237,25.9312135 L56.2537406,25.9312135 L55.9694514,25.9312135 L56.2537406,25.9312135 L56.2537406,25.7546343 C56.1609947,25.7271543 56.0621973,25.7271543 55.9694514,25.7546343 C55.6734232,25.6331658 55.3628906,25.5500792 55.0455112,25.5074236 C52.5164897,25.0774375 49.9660602,24.7827147 47.4052369,24.6245279 C37.0997506,23.7416323 20.6820449,23 14.9607232,23 L13.0417706,23 L12.8640898,23 L12.8640898,23 C12.8320862,23.0670512 12.8320862,23.1448437 12.8640898,23.2118949 C12.8196581,23.3008946 12.8196581,23.4054219 12.8640898,23.4944215 C12.9447954,23.5213404 13.0321373,23.5213404 13.1128429,23.4944215 C13.2179129,23.5198765 13.3275983,23.5198765 13.4326683,23.4944215 L13.4326683,23.4944215 L13.4326683,23.4944215 L13.4326683,23.4944215 C13.4326683,23.4944215 13.4326683,23.4944215 13.4326683,23.4944215 L13.4326683,23.4944215 C13.3776937,23.4628787 13.3099622,23.4628787 13.2549875,23.4944215 L13.8591022,23.4944215 L13.8591022,23.4944215 C13.361596,23.7769481 11.584788,24.9070545 6.00561097,29.0036902 C4.21713036,30.2087899 2.65381294,31.7146105 1.38591022,33.4534841 C0.545581701,34.5826652 0.0630631987,35.9351766 0,37.3382249 C0.0275599846,39.0123977 0.894074388,40.5624528 2.30985037,41.4701764 C3.62129117,42.3169615 5.06107322,42.9489225 6.57418953,43.3419151 C13.8122318,45.2117566 21.2710124,46.1026862 28.7487531,45.9906019 C32.2170477,46.0143545 35.6832226,45.8138078 39.1253117,45.3902329 C42.0878756,45.0652262 44.9280132,44.0355487 47.4052369,42.3883878 C49.2686468,40.8539155 50.8967721,39.0574258 52.2381546,37.0556983 C52.8775514,36.1836767 53.4253029,35.2488056 53.872818,34.2657481 C55.0602248,31.6035389 56.1040977,28.8803626 57,26.1077926 L57,26.1077926 L57,26.1077926 L56.6801746,25.9312135 Z" id="Path" fill="#FFFFFF" fill-rule="nonzero"></path>
                            <path d="M46.6842105,24.635048 L46.4385965,24.635048 C46.4385965,24.635048 46.4385965,25.016939 46.122807,25.5897755 C45.8070175,26.162612 45.4210526,27.8811215 44.8947368,29.179551 C44.5175833,30.3135641 44.010668,31.391345 43.3859649,32.3874354 C42.4793196,33.6928786 41.4174057,34.8614964 40.2280702,35.8626436 C38.6659011,37.0314064 36.8530862,37.7417039 34.9649123,37.9248551 C32.6828902,38.218747 30.3853736,38.3463283 28.0877193,38.3067461 C24.5627607,38.3284175 21.0421312,38.034645 17.5614035,37.4283968 C16.1620148,37.2010623 14.7786377,36.8693082 13.4210526,36.4354801 C12.4821147,36.1364746 11.5849776,35.6996487 10.754386,35.1370507 C9.94574481,34.5616007 9.44757386,33.591341 9.42105263,32.5401918 C9.5277703,31.554061 9.92116383,30.6308295 10.5438596,29.9051439 C11.3622207,28.7167249 12.344602,27.6732758 13.4561404,26.8118267 L17.5614035,23.6039422 L18.3333333,23.0311057 L18.3333333,23.0311057 L18.3333333,23.0311057 L18.3333333,23.0311057 L18.3333333,23.0311057 L18.3333333,23.0311057 L18.3333333,23.0311057 L18.3333333,23.0311057 L18.3333333,22.763782 L18.3333333,23.0311057 L18.3333333,23.0311057 L18.3333333,22.763782 L18.3333333,22.763782 L18.3333333,23.0311057 L18.3333333,23.0311057 L18.3333333,22.6492147 L18.3333333,22.9165384 L18.3333333,22.6492147 L18.122807,22.6492147 L18.122807,22.6492147 L18.122807,22.381891 L17.9122807,22.381891 L18.122807,22.381891 L18.2631579,22.381891 L18.2631579,22.381891 L18.4736842,22.381891 L18.4736842,22.381891 L18.2631579,22.381891 C18.2631579,22.381891 18.2631579,22.381891 18.2631579,22.381891 L18.5087719,22.381891 L18.2982456,22.381891 L18.5087719,22.381891 L18.3333333,22.1909455 L18.3333333,22.1909455 L18.5438596,22.1909455 L18.3684211,22 L18.3684211,22 L18.3684211,22 L18.3684211,22 L18.3684211,22 L18.3684211,22 L18.3684211,22 L18.3684211,22 L18.3684211,22 L18.3684211,22.2291346 L18.3684211,22.2291346 C18.3684211,22.2291346 18.3684211,22.2291346 18.3684211,22.2291346 L18.3684211,22.4582692 L18.3684211,22.4582692 L18.3684211,22.4582692 L18.5789474,22.4582692 C18.5789474,22.4582692 18.5789474,22.4582692 18.5789474,22.4582692 L18.5789474,22.4582692 L18.5789474,22.4582692 L18.5789474,22.6874038 C18.6030278,22.613274 18.6030278,22.532399 18.5789474,22.4582692 L18.2631579,22.4582692 L18.2631579,22.6874038 L18.2631579,22.4964583 L18.2631579,22.7255929 L18.2631579,22.7255929 L18.2631579,22.5346474 L18.2631579,22.763782 L18.2631579,22.763782 L18.2631579,22.763782 L18.2631579,22.763782 L19.4561404,22.763782 C22.2280702,22.763782 28.7894737,23.0311057 34.7894737,23.4129967 C37.7719298,23.6421313 40.6140351,23.8712659 42.754386,24.1004005 L45.3859649,24.4441025 L46.122807,24.4441025 L46.3333333,24.4441025 L46.3333333,24.4441025 L46.3333333,24.4441025 L46.3333333,24.4441025 L46.3333333,24.4441025 L46.5087719,24.2149679 L46.2631579,24.2149679 L46.5087719,24.2149679 L46.7192982,24.2149679 L46.4736842,24.2149679 L45.877193,24.0240223 C44.8947368,24.0240223 43.0701754,23.6039422 40.8245614,23.3748076 C34.0175439,22.763782 23.2807018,22.2291346 19.3859649,22.2291346 L17.9122807,22.2291346 C17.8882003,22.3032644 17.8882003,22.3841394 17.9122807,22.4582692 C17.868406,22.5409795 17.868406,22.6428827 17.9122807,22.7255929 C17.9811003,22.7468258 18.0539874,22.7468258 18.122807,22.7255929 C18.2040417,22.7413081 18.2871863,22.7413081 18.3684211,22.7255929 L18.3684211,22.7255929 L18.3684211,22.7255929 L18.3684211,22.7255929 C18.3684211,22.7255929 18.3684211,22.7255929 18.3684211,22.7255929 L18.1578947,22.7255929 L18.1578947,22.7255929 C17.8421053,22.9165384 16.6491228,23.7566986 12.9649123,26.544503 C11.7902236,27.4363817 10.7588219,28.5331422 9.9122807,29.7905766 C9.35326262,30.6253236 9.03563702,31.6225361 9,32.6547592 C9.03251771,33.8843198 9.60720236,35.0215573 10.5438596,35.7098872 C11.4145475,36.3366783 12.3750505,36.8013011 13.3859649,37.0846949 C18.1753308,38.426787 23.1075491,39.0689131 28.0526316,38.9941499 C30.4118349,38.9873732 32.7679769,38.8087583 35.1052632,38.4595025 C37.0810606,38.2260473 38.9733236,37.4652059 40.6140351,36.2445346 C41.8457434,35.2285106 42.9436815,34.0335265 43.877193,32.6929483 C44.2947564,32.0484505 44.647649,31.3570982 44.9298246,30.6307368 C45.723689,28.7155357 46.4149063,26.7518697 47,24.7496153 L47,24.7496153 L47,24.7496153 L46.6842105,24.635048 Z" id="Path" stroke="#FFFFFF" fill="#FFFFFF" fill-rule="nonzero"></path>
                            <path d="M53.2944031,1.58016818 L53.2944031,1.30543286 L48.3128858,1.30543286 C43.4736977,1.30543286 35.894675,1.30543286 29.205209,1.03069754 C25.3979066,1.03069754 21.9108445,0.584252651 19.3489213,0.343859247 L16.2888465,0.000440098086 L15.150214,0.000440098086 L14.6520622,0.000440098086 C12.8910984,-0.0213866612 11.225217,0.769758424 10.1686967,2.12963882 C8.44129977,4.68939793 7.36813658,7.60834138 7.03745733,10.6464337 C6.98751422,11.3324263 6.98751422,12.020956 7.03745733,12.7069486 C7.10815242,14.6974485 7.49208602,16.6659963 8.17608984,18.5450741 C8.49344218,19.6096138 9.13875698,20.5558211 10.0263677,21.2580854 C10.7814119,21.8029675 11.6592824,22.1677639 12.5882908,22.3226848 L12.5882908,22.3226848 C12.5882908,22.3226848 19.9894021,23.043865 28.8138041,23.7650452 C34.1867263,24.245832 39.8798888,24.8639865 44.2565075,25.3447733 L49.5582651,25.9972696 L51.0883026,25.9972696 L51.4797075,25.9972696 L51.6576188,25.9972696 C53.0327854,26.0371662 54.3832972,25.6388944 55.5005036,24.8639865 C57.029016,23.5807581 58.0374527,21.8166809 58.3470848,19.8844088 C58.8275461,17.5443129 59.0423078,15.1606455 58.9875656,12.7756324 C59.0891221,9.94348656 58.5676542,7.12272067 57.4575282,4.49923094 C57.0500443,3.59115461 56.4708474,2.76429034 55.7495794,2.06095499 C55.1588538,1.49624969 54.3999188,1.12400599 53.5790612,0.996355629 L53.5790612,1.51148435 C54.2779084,1.63533095 54.922335,1.95827311 55.429339,2.43871605 C56.4967974,3.51523159 57.2568855,4.84043085 57.6354395,6.28501052 C58.2655251,8.39365938 58.5653595,10.5813912 58.5249962,12.7756324 C58.6691443,15.7861741 58.2595497,18.7975574 57.3151991,21.6701884 C56.9046082,22.7529879 56.1900543,23.7042231 55.2514277,24.4175416 C54.2205727,25.1401726 52.9659686,25.5034336 51.6932011,25.447799 L51.6932011,25.447799 L51.6932011,25.447799 L51.6932011,25.447799 L51.6932011,25.447799 C51.408543,25.447799 39.5240661,23.8680709 28.8493864,22.9751811 L17.427479,21.9792656 L13.8692524,21.6358465 L12.5882908,21.6358465 L12.5882908,21.6358465 C11.7508237,21.4917597 10.9592413,21.1626568 10.2754435,20.6742728 C9.45938457,20.0429859 8.87347998,19.1767176 8.60307703,18.201655 C7.92042248,16.3828215 7.54790364,14.4691764 7.50002678,12.535239 C7.4470119,11.8837457 7.4470119,11.2292432 7.50002678,10.5777499 C7.81787502,7.62737205 8.88082724,4.79730555 10.5956839,2.33569031 C11.53186,1.0789213 13.0486281,0.346973549 14.6520622,0.378201161 L15.1146317,0.378201161 L15.1146317,0.378201161 C15.1146317,0.378201161 21.5906041,1.27109095 29.3475381,1.54582627 C36.0370041,1.78621967 43.5804445,1.8549035 48.4552149,1.8549035 L53.2944031,1.8549035 L53.2944031,1.8549035 L53.2944031,1.8549035 L53.2944031,1.8549035 L53.2944031,1.8549035 L53.2944031,1.8549035 L53.2944031,1.8549035 L53.2944031,1.58016818 Z" id="Path" stroke="#FFFFFF" fill="#FFFFFF" fill-rule="nonzero"></path>
                            <path d="M52.9341146,9.76680992 C50.7316876,10.2550581 50.6570291,13.0217978 50.507712,14.030844 C50.3583949,15.0398902 49.686468,18.3274279 51.2916267,19.5643233 C51.5529316,19.7596226 52.1501999,19.5643233 51.9262243,19.2713744 C50.7690169,18.3599778 51.1049803,16.439535 51.1049803,15.4630386 C50.9479319,13.7566945 51.4046105,12.0500865 52.4115048,10.5805569 C53.8300171,8.82286344 55.2112001,11.5896031 55.323188,12.2080508 C55.4519089,13.6582678 55.2618591,15.1165782 54.7632489,16.5046348 C54.3036896,17.9834294 53.5314202,19.3743726 52.4861633,20.6059194 C50.3210656,23.14481 48.3799435,18.9458756 47.9693215,17.9042795 C47.0284445,13.9466721 48.8958,9.88240356 52.710139,7.58596806 C53.0771362,7.35255905 53.5750077,7.35255905 53.9420049,7.58596806 C53.9420049,7.58596806 53.7553586,7.29301915 53.6433708,7.19536952 C53.4940586,7.06776737 53.2924773,6.99745849 53.0834317,7 C52.7601692,7.02750348 52.463654,7.16853149 52.2621877,7.39066879 C47.3720532,11.1664547 45.3562725,15.9838367 48.5292606,20.4106202 C51.7022487,24.8374036 54.4646147,18.7831262 55.0618831,17.1556323 C55.5471636,16.1465861 57.7869199,8.52991453 52.9341146,9.76680992 Z" id="Path" fill="#FFFFFF" fill-rule="nonzero"></path>
                            <g id="Group" transform="translate(21.000000, 0.000000)" stroke="#E5B431" stroke-width="1.5">
                                <path d="M1.10809227,24.0684128 C-0.751492937,15.9569335 0.809417604,7.41887351 5.40866667,0.544603241" id="Path"></path>
                                <path d="M3.63088178,24.0684128 C1.78792816,15.9564549 3.35106218,7.42714417 7.942,0.544603241" id="Path"></path>
                                <path d="M7.42284613,24.0684128 C5.59208068,15.9518482 7.1588407,7.41865735 11.742,0.544603241" id="Path"></path>
                                <path d="M9.97974615,24.0684128 C8.11241644,16.3848255 9.67191013,8.29409676 14.2753333,1.78269848" id="Path"></path>
                                <path d="M12.6864356,25.306508 C10.3827435,17.1945501 12.3366611,8.66523941 18.0753333,1.78269848" id="Path"></path>
                            </g>
                        </g>
                    </g>
                </g>
            </g>
        </g>
    </g>
</svg>