<?xml version="1.0" encoding="UTF-8"?>
<svg width="146px" height="149px" viewBox="0 0 146 149" version="1.1" xmlns="http://www.w3.org/2000/svg" xmlns:xlink="http://www.w3.org/1999/xlink">
    <!-- Generator: Sketch 62 (91390) - https://sketch.com -->
    <title>xl tag</title>
    <desc>Created with Sketch.</desc>
    <g id="Product-Page" stroke="none" stroke-width="1" fill="none" fill-rule="evenodd">
        <g id="Rio_Product-page_Desktop_Option-1" transform="translate(-125.000000, -1012.000000)">
            <g id="xl-tag" transform="translate(125.000000, 1012.000000)">
                <polygon id="Rectangle" fill="#E5B431" points="0 2.46072346e-13 146 2.46072346e-13 146 149 0 149"></polygon>
                <g id="Group-21" transform="translate(16.000000, 18.000000)" fill-rule="nonzero">
                    <path d="M15.625,62.2323167 L29.7321429,40.8955224 L43.75,62.2323167 L59.8214286,62.2323167 L38.0357143,30.4049319 L58.9285714,-1.6628821e-13 L43.3035714,-1.6628821e-13 L30,20.1810513 L16.9642857,-1.6628821e-13 L0.892857143,-1.6628821e-13 L21.7857143,30.5827385 L0,62.2323167 L15.625,62.2323167 Z M115,62.2323167 L115,49.7858533 L83.8392857,49.7858533 L83.8392857,-1.6628821e-13 L70.0892857,-1.6628821e-13 L70.0892857,62.2323167 L115,62.2323167 Z" id="XL" fill="#AF1E23"></path>
                    <path d="M2.58540146,81.2752239 L2.58540146,76.7450746 L8.19270073,76.7450746 L8.19270073,74.4047761 L2.58540146,74.4047761 L2.58540146,71.9140299 L8.94817518,71.9140299 L8.94817518,69.5737313 L0,69.5737313 L0,81.2752239 L2.58540146,81.2752239 Z M13.5985401,81.2752239 L13.5985401,77.5307463 L15.629927,77.5307463 L18.1481752,81.2752239 L21.170073,81.2752239 L18.2992701,77.0961194 C19.7934307,76.5444776 20.8175182,75.3576119 20.8175182,73.4686567 L20.8175182,73.4352239 C20.8175182,72.3319403 20.4649635,71.4125373 19.810219,70.760597 C19.0379562,69.9916418 17.879562,69.5737313 16.3854015,69.5737313 L11.0131387,69.5737313 L11.0131387,81.2752239 L13.5985401,81.2752239 Z M16.2175182,75.2573134 L13.5985401,75.2573134 L13.5985401,71.8973134 L16.1671533,71.8973134 C17.4262774,71.8973134 18.1985401,72.4656716 18.1985401,73.5689552 L18.1985401,73.6023881 C18.1985401,74.5886567 17.4766423,75.2573134 16.2175182,75.2573134 Z M28.8591241,81.4758209 C32.4854015,81.4758209 35.1211679,78.7510448 35.1211679,75.4244776 L35.1211679,75.3910448 C35.1211679,72.0644776 32.5189781,69.3731343 28.8927007,69.3731343 C25.2664234,69.3731343 22.6306569,72.0979104 22.6306569,75.4244776 L22.6306569,75.4579104 C22.6306569,78.7844776 25.2328467,81.4758209 28.8591241,81.4758209 Z M28.8927007,79.1020896 C26.8109489,79.1020896 25.3335766,77.4304478 25.3335766,75.4244776 L25.3335766,75.3910448 C25.3335766,73.3850746 26.7773723,71.7468657 28.8591241,71.7468657 C30.9408759,71.7468657 32.4182482,73.4185075 32.4182482,75.4244776 L32.4182482,75.4579104 C32.4182482,77.4638806 30.9744526,79.1020896 28.8927007,79.1020896 Z M39.9562044,81.2752239 L39.9562044,73.6859701 L43.229927,78.6340299 L43.2970803,78.6340299 L46.6043796,73.6358209 L46.6043796,81.2752239 L49.1729927,81.2752239 L49.1729927,69.5737313 L46.3861314,69.5737313 L43.2970803,74.521791 L40.2080292,69.5737313 L37.4211679,69.5737313 L37.4211679,81.2752239 L39.9562044,81.2752239 Z M65.9781022,81.2752239 L65.9781022,78.9850746 L59.5985401,78.9850746 L59.5985401,76.5277612 L65.1386861,76.5277612 L65.1386861,74.2376119 L59.5985401,74.2376119 L59.5985401,71.8638806 L65.8941606,71.8638806 L65.8941606,69.5737313 L57.029927,69.5737313 L57.029927,81.2752239 L65.9781022,81.2752239 Z M74.3051095,81.358806 L79.0562044,69.5737313 L76.2693431,69.5737313 L73.1970803,77.8149254 L70.1248175,69.5737313 L67.2708029,69.5737313 L72.0218978,81.358806 L74.3051095,81.358806 Z M89.8175182,81.2752239 L89.8175182,78.9850746 L83.4379562,78.9850746 L83.4379562,76.5277612 L88.9781022,76.5277612 L88.9781022,74.2376119 L83.4379562,74.2376119 L83.4379562,71.8638806 L89.7335766,71.8638806 L89.7335766,69.5737313 L80.8693431,69.5737313 L80.8693431,81.2752239 L89.8175182,81.2752239 Z M94.7029197,81.2752239 L94.7029197,77.5307463 L96.7343066,77.5307463 L99.2525547,81.2752239 L102.274453,81.2752239 L99.4036496,77.0961194 C100.89781,76.5444776 101.921898,75.3576119 101.921898,73.4686567 L101.921898,73.4352239 C101.921898,72.3319403 101.569343,71.4125373 100.914599,70.760597 C100.142336,69.9916418 98.9839416,69.5737313 97.489781,69.5737313 L92.1175182,69.5737313 L92.1175182,81.2752239 L94.7029197,81.2752239 Z M97.3218978,75.2573134 L94.7029197,75.2573134 L94.7029197,71.8973134 L97.2715328,71.8973134 C98.5306569,71.8973134 99.3029197,72.4656716 99.3029197,73.5689552 L99.3029197,73.6023881 C99.3029197,74.5886567 98.5810219,75.2573134 97.3218978,75.2573134 Z M110.148175,81.2752239 L110.148175,76.6113433 L114.664234,69.5737313 L111.726277,69.5737313 L108.872263,74.2710448 L106.068613,69.5737313 L103.046715,69.5737313 L107.562774,76.6614925 L107.562774,81.2752239 L110.148175,81.2752239 Z" id="FROMEVERY" fill="#002561"></path>
                    <path d="M5.84737226,111.210985 L7.88883212,106.224478 L17.3305839,106.224478 L19.3720438,111.210985 L24.5075912,111.210985 L14.9382482,88.8193433 L10.4087591,88.8193433 L0.839416058,111.210985 L5.84737226,111.210985 Z M15.5762044,101.904955 L9.64321168,101.904955 L12.609708,94.6951642 L15.5762044,101.904955 Z M32.8010219,111.210985 L32.8010219,97.0772537 L43.6143796,111.210985 L47.7929927,111.210985 L47.7929927,88.9781493 L42.9445255,88.9781493 L42.9445255,102.667224 L32.4820438,88.9781493 L27.9525547,88.9781493 L27.9525547,111.210985 L32.8010219,111.210985 Z M63.9013869,111.592119 C67.9843066,111.592119 71.1421898,110.00406 73.4388321,108.066627 L73.4388321,98.4112239 L63.7418978,98.4112239 L63.7418978,102.635463 L68.6860584,102.635463 L68.6860584,105.811582 C67.4420438,106.700896 65.8471533,107.145552 64.0608759,107.145552 C60.1055474,107.145552 57.2985401,104.16 57.2985401,100.094567 L57.2985401,100.031045 C57.2985401,96.2514627 60.1374453,93.1071045 63.71,93.1071045 C66.2937226,93.1071045 67.8248175,93.9328955 69.5472993,95.3621493 L72.6413869,91.6460896 C70.3128467,89.6768955 67.8886131,88.5970149 63.8694891,88.5970149 C57.1071533,88.5970149 52.1629927,93.7740896 52.1629927,100.094567 L52.1629927,100.15809 C52.1629927,106.732657 56.9476642,111.592119 63.9013869,111.592119 Z M94.2043066,111.210985 L94.2043066,106.764418 L83.0719708,106.764418 L83.0719708,88.9781493 L78.159708,88.9781493 L78.159708,111.210985 L94.2043066,111.210985 Z M114.905985,111.210985 L114.905985,106.859701 L102.784818,106.859701 L102.784818,102.190806 L113.311095,102.190806 L113.311095,97.8395224 L102.784818,97.8395224 L102.784818,93.3294328 L114.746496,93.3294328 L114.746496,88.9781493 L97.9044526,88.9781493 L97.9044526,111.210985 L114.905985,111.210985 Z" id="ANGLE" fill="#002561"></path>
                </g>
            </g>
        </g>
    </g>
</svg>