<?xml version="1.0" encoding="UTF-8"?>
<svg width="23px" height="23px" viewBox="0 0 23 23" version="1.1" xmlns="http://www.w3.org/2000/svg" xmlns:xlink="http://www.w3.org/1999/xlink">
    <!-- Generator: Sketch 62 (91390) - https://sketch.com -->
    <title>instagram</title>
    <desc>Created with Sketch.</desc>
    <g id="Page-1" stroke="none" stroke-width="1" fill="none" fill-rule="evenodd">
        <g id="RIO-Homepage_Desktop_Option-1" transform="translate(-953.000000, -8077.000000)" fill="#AF1E23" fill-rule="nonzero">
            <g id="footer" transform="translate(119.000000, 7982.000000)">
                <g id="contact" transform="translate(801.000000, 0.000000)">
                    <g id="social" transform="translate(0.000000, 95.000000)">
                        <g id="instagram" transform="translate(33.000000, 0.000000)">
                            <path d="M22.9415437,6.76208354 C22.8876516,5.5400012 22.6899886,4.69983057 22.4068355,3.97181144 C22.1147297,3.19903699 21.6653361,2.50717304 21.0765603,1.93202387 C20.5013013,1.34792363 19.8047412,0.894052492 19.0407721,0.606565633 C18.3084009,0.32346658 17.4724586,0.125841296 16.2501431,0.0719594421 C15.0186993,0.0135143272 14.627762,0 11.5044764,0 C8.38119081,0 7.99025346,0.0135143272 6.76337381,0.0673961814 C5.5410583,0.121278036 4.70072734,0.319078774 3.9727448,0.602002372 C3.1996474,0.894052492 2.50765144,1.34336037 1.93239252,1.93202387 C1.34818083,2.50717304 0.894398575,3.20360025 0.606681372,3.96742364 C0.323528301,4.69983057 0.125865308,5.53543794 0.0719731727,6.75752028 C0.0135169059,7.98872913 0,8.37959189 0,11.5022816 C0,14.6249714 0.0135169059,15.0158341 0.0674090413,16.2424797 C0.121301177,17.4645621 0.319139658,18.3047327 0.602292729,19.0327518 C0.894398575,19.8055263 1.34818083,20.4973902 1.93239252,21.0725394 C2.50765144,21.6566396 3.20421153,22.1105108 3.96818066,22.3979976 C4.70072734,22.6810967 5.53649416,22.878722 6.75898517,22.9326038 C7.98568933,22.9866611 8.37680216,23 11.5000877,23 C14.6233733,23 15.0143107,22.9866611 16.2411903,22.9326038 C17.4635058,22.878722 18.3038368,22.6810967 19.0318193,22.3979976 C20.5778386,21.8003831 21.8001542,20.5783007 22.3978828,19.0327518 C22.6808603,18.3003449 22.8786988,17.4645621 22.932591,16.2424797 C22.9864831,15.0158341 23,14.6249714 23,11.5022816 C23,8.37959189 22.9954359,7.98872913 22.9415437,6.76208354 Z M20.8699445,16.1526181 C20.820441,17.2758878 20.6317308,17.8824535 20.474443,18.2868306 C20.0878943,19.2888222 19.2925027,20.0840621 18.2903199,20.470537 C17.8858656,20.6277948 17.2747956,20.816469 16.1557002,20.8657876 C14.9423375,20.9198449 14.578434,20.9331838 11.5090405,20.9331838 C8.43964707,20.9331838 8.07117941,20.9198449 6.86220531,20.8657876 C5.73872129,20.816469 5.13203992,20.6277948 4.72758567,20.470537 C4.22886405,20.2862506 3.77490631,19.9942005 3.40643865,19.6122888 C3.02445409,19.2393282 2.73234824,18.7900203 2.54802666,18.2913938 C2.3907389,17.8870167 2.20202868,17.2758878 2.15270068,16.1571814 C2.09863306,14.9440501 2.08529164,14.5800406 2.08529164,11.5112327 C2.08529164,8.44242481 2.09863306,8.07402744 2.15270068,6.86545944 C2.20202868,5.74218975 2.3907389,5.13562412 2.54802666,4.73124703 C2.73234824,4.2324451 3.02445409,3.77874942 3.41100278,3.4101766 C3.78385909,3.0282649 4.2332527,2.73621478 4.7321498,2.55210383 C5.13660405,2.39484607 5.74784955,2.20617185 6.86676944,2.15667781 C8.08013219,2.10279595 8.4442112,2.08928162 11.5134292,2.08928162 C14.5873867,2.08928162 14.9512903,2.10279595 16.1602644,2.15667781 C17.2837484,2.20617185 17.8904298,2.39484607 18.294884,2.55210383 C18.7936056,2.73621478 19.2475634,3.0282649 19.616031,3.4101766 C19.9980156,3.78313723 20.2901214,4.2324451 20.474443,4.73124703 C20.6317308,5.13562412 20.820441,5.74657755 20.8699445,6.86545944 C20.9238366,8.0785907 20.9373535,8.44242481 20.9373535,11.5112327 C20.9373535,14.5800406 20.9238366,14.9394869 20.8699445,16.1526181 Z" id="Shape"></path>
                            <path d="M11.5,5.75 C8.32557774,5.75 5.75,8.32540698 5.75,11.5 C5.75,14.674593 8.32557774,17.25 11.5,17.25 C14.674593,17.25 17.25,14.674593 17.25,11.5 C17.25,8.32540698 14.674593,5.75 11.5,5.75 Z M11.5,15.2298821 C9.44059675,15.2298821 7.77011794,13.559574 7.77011794,11.5 C7.77011794,9.440426 9.44059675,7.77011794 11.5,7.77011794 C13.559574,7.77011794 15.2298821,9.440426 15.2298821,11.5 C15.2298821,13.559574 13.559574,15.2298821 11.5,15.2298821 L11.5,15.2298821 Z" id="Shape"></path>
                            <path d="M19.55,6.325 C19.55,7.2776021 18.7776513,8.05 17.8248903,8.05 C16.8723487,8.05 16.1,7.2776021 16.1,6.325 C16.1,5.37217842 16.8723487,4.6 17.8248903,4.6 C18.7776513,4.6 19.55,5.37217842 19.55,6.325 L19.55,6.325 Z" id="Path"></path>
                        </g>
                    </g>
                </g>
            </g>
        </g>
    </g>
</svg>