<?xml version="1.0" encoding="UTF-8"?>
<svg width="50px" height="50px" viewBox="0 0 50 50" version="1.1" xmlns="http://www.w3.org/2000/svg" xmlns:xlink="http://www.w3.org/1999/xlink">
    <!-- Generator: Sketch 62 (91390) - https://sketch.com -->
    <title>Artboard Copy</title>
    <desc>Created with Sketch.</desc>
    <defs>
        <filter x="-50.0%" y="-37.1%" width="200.0%" height="174.3%" filterUnits="objectBoundingBox" id="filter-1">
            <feOffset dx="0" dy="3" in="SourceAlpha" result="shadowOffsetOuter1"></feOffset>
            <feGaussianBlur stdDeviation="1.5" in="shadowOffsetOuter1" result="shadowBlurOuter1"></feGaussianBlur>
            <feColorMatrix values="0 0 0 0 0   0 0 0 0 0   0 0 0 0 0  0 0 0 0.218476836 0" type="matrix" in="shadowBlurOuter1" result="shadowMatrixOuter1"></feColorMatrix>
            <feMerge>
                <feMergeNode in="shadowMatrixOuter1"></feMergeNode>
                <feMergeNode in="SourceGraphic"></feMergeNode>
            </feMerge>
        </filter>
    </defs>
    <g id="Artboard-Copy" stroke="none" stroke-width="1" fill="none" fill-rule="evenodd">
        <g id="hand_cursor" filter="url(#filter-1)" transform="translate(11.000000, 6.500000)" fill-rule="nonzero">
            <path d="M25.6201483,32.0327723 C23.6813761,34.0207832 21.0040367,35.25 18.0526316,35.25 L16.7005263,35.25 C13.8414377,35.25 11.1527621,34.1098646 9.13154727,32.0373173 L0.650609273,23.3413682 C-0.251435766,22.4168592 -0.75,21.1874035 -0.75,19.8792444 C-0.75,18.5711539 -0.251528113,17.3421695 0.650357239,16.4173791 C1.55858212,15.4856396 2.76738121,14.9736889 4.05226316,14.9736889 C5.29097711,14.9736889 6.45897996,15.4488626 7.35526316,16.3176405 L7.35526316,4.65555556 C7.35526316,3.3053693 7.89202603,2.08157825 8.75671353,1.19493043 C9.62813121,0.30138151 10.8317959,-0.25 12.1578947,-0.25 C13.4839936,-0.25 14.6876583,0.30138151 15.5590759,1.19493043 C16.4237634,2.08157825 16.9605263,3.3053693 16.9605263,4.65555556 L16.9605263,10.0795094 C17.3113853,9.9949823 17.676867,9.95 18.0526316,9.95 C18.9661734,9.95 19.8207069,10.2122514 20.5488988,10.667361 C21.0747869,10.9960336 21.5346316,11.4256461 21.9023781,11.9297264 C22.5233347,11.6293863 23.2163291,11.4611111 23.9473684,11.4611111 C25.2734673,11.4611111 26.4771319,12.0124926 27.3485496,12.9060415 C28.2132371,13.7926894 28.75,15.0164804 28.75,16.3666667 L28.75,24.3 C28.75,27.316769 27.5521907,30.0516622 25.6201483,32.0327723 Z" id="Shape" stroke="#E0DCCC" stroke-width="1.5" fill="#AF1E23"></path>
            <path d="M17.78125,12.8846154 C18.7289687,12.8846154 19.5,13.7473077 19.5,14.8076923 L19.5,17.5 C19.5,18.1373077 19.9616563,18.6538462 20.53125,18.6538462 C21.1008437,18.6538462 21.5625,18.1373077 21.5625,17.5 L21.5625,16.3461538 C21.5625,15.2857692 22.3335313,14.4230769 23.28125,14.4230769 C24.2289687,14.4230769 25,15.2857692 25,16.3461538 L25,24.4230769 C25,28.8769231 21.7615313,32.5 17.78125,32.5 L16.5196875,32.5 C14.5919375,32.5 12.7793437,31.6603846 11.416375,30.1353846 L3.50325,21.2819231 C3.17909375,20.9188462 3,20.4357692 3,19.9223077 C3,19.4088462 3.17909375,18.9257692 3.5039375,18.5619231 C3.82809375,18.1988462 4.2595,17.9988462 4.71875,17.9988462 C5.17765625,17.9988462 5.60940625,18.1988462 5.93390625,18.5623077 L8.5,21.4334615 L8.5,23.2692308 C8.5,23.9065385 8.96165625,24.4230769 9.53125,24.4230769 C10.1008437,24.4230769 10.5625,23.9065385 10.5625,23.2692308 L10.5625,4.42307692 C10.5625,3.36269231 11.3335313,2.5 12.28125,2.5 C13.2289687,2.5 14,3.36269231 14,4.42307692 L14,17.5 C14,18.1373077 14.4616563,18.6538462 15.03125,18.6538462 C15.6008437,18.6538462 16.0625,18.1373077 16.0625,17.5 L16.0625,14.8076923 C16.0625,13.7473077 16.8335313,12.8846154 17.78125,12.8846154 Z" id="Path" fill="#E0DCCC"></path>
        </g>
    </g>
</svg>