<?xml version="1.0" encoding="UTF-8"?>
<svg width="590px" height="240px" viewBox="0 0 590 240" version="1.1" xmlns="http://www.w3.org/2000/svg" xmlns:xlink="http://www.w3.org/1999/xlink">
    <!-- Generator: Sketch 63.1 (92452) - https://sketch.com -->
    <title>Tablet</title>
    <desc>Created with Sketch.</desc>
    <g id="Tablet" stroke="none" stroke-width="1" fill="none" fill-rule="evenodd">
        <g id="Asset-1" transform="translate(35.000000, 4.000000)" fill-rule="nonzero">
            <g id="Group" style="mix-blend-mode: multiply;" transform="translate(210.000000, 99.000000)" fill="#BE1E2D">
                <path d="M9.88555556,52.1701759 L34.6597222,48.4222008 L33.9514583,54.7741907 C37.702376,49.4960497 43.3596111,45.8800161 49.7291667,44.6892778 C60.2777778,43.0937543 70.5099306,50.2134017 72.7402083,64.9042599 C76.0253472,86.5491923 64.82875,106.041673 47.4084722,108.690844 C38.9093056,109.970274 32.7911111,107.005008 28.616875,102.293698 L25.6029861,128.333846 L0.889097222,132.081821 L9.88555556,52.1701759 Z M48.960625,74.0709941 C48.1920833,68.9532772 44.3041667,66.0933765 39.7230556,66.7857735 C32.9719444,67.8093169 29.0538889,74.9741207 30.10875,81.9281949 C30.8772917,87.0459119 34.7652083,89.9058126 39.3463194,89.2134156 C46.0974306,88.1898722 50.0154861,81.0250684 48.960625,74.0709941 Z" id="Shape"></path>
                <path d="M77.3966667,87.4523188 C75.4979167,74.9440164 84.0573611,65.3106668 100.829653,62.7668604 C105.403165,62.0814959 110.051156,62.0510856 114.633264,62.6765478 L114.73875,61.9841508 C114.868418,60.9848561 114.868418,59.9730237 114.73875,58.973729 C114.166111,55.2709103 110.926181,53.6603346 104.717569,54.5935654 C99.2123628,55.4449308 93.8769489,57.1620856 88.9097222,59.6811781 L83.1079861,43.4249007 C90.7654171,40.0573084 98.8467197,37.7481272 107.128681,36.5611391 C126.839514,33.5507173 137.116875,39.6919777 138.925208,51.5379873 C139.332842,54.3348092 139.388529,57.1715871 139.090972,59.9822203 L135.308542,93.8645172 L110.579583,97.6124923 L111.302917,91.3809192 C106.646458,96.6491573 102.607847,100.156299 95.75125,101.194894 C86.6040972,102.639897 78.9488194,97.6877528 77.3966667,87.4523188 Z M113.729097,74.3870884 L114.000347,71.7830736 C112.450851,71.5646123 110.878316,71.5646123 109.328819,71.7830736 C103.120208,72.7163043 100.09125,76.1782894 100.859792,81.2960064 C101.326944,84.3064281 103.316111,85.7062742 105.606667,85.3600757 C109.524722,84.8332519 113.156458,80.136994 113.729097,74.3870884 L113.729097,74.3870884 Z" id="Shape"></path>
                <path d="M144.515972,70.2778627 C141.230833,48.7081908 152.412361,29.1404494 169.847708,26.4912783 C178.331806,25.1967969 184.465069,28.1620624 188.639306,32.8733724 L191.849097,4.12384465 L216.562986,0.390921674 L207.385694,83.0119468 L182.671806,86.7448697 L183.380069,80.4079319 C179.60346,85.694226 173.919923,89.3098054 167.527014,90.4928448 C156.963333,92.0883683 146.74625,84.9536688 144.515972,70.2778627 Z M187.1625,53.2238235 C186.378889,48.1211586 182.490972,45.2462058 177.924931,45.9536549 C171.173819,46.9771983 167.240694,54.12695 168.295556,61.0960764 C169.079167,66.1987412 172.967083,69.0586419 177.548194,68.3662449 C184.284236,67.3577536 188.217361,60.208002 187.1625,53.2238235 Z" id="Shape"></path>
            </g>
            <g id="Group" style="mix-blend-mode: multiply;" fill="#B61D22">
                <polygon id="Path" points="5.28528902 68.8467532 20.3430925 66.5418182 18.4307514 83.1132468 32.253815 81.0192208 34.1661561 64.4477922 49.2239595 62.1579221 44.0290173 109.220779 28.9260405 111.480519 30.7932081 94.6077922 16.9701445 96.7018182 15.0578035 113.604675 0 115.894545"></polygon>
                <path d="M63.3180636,91.7454545 C63.5318574,93.0990835 64.3096702,94.2983959 65.4581497,95.0452612 C66.6066292,95.7921264 68.0179157,96.0164024 69.341185,95.6623377 C71.9416948,95.1442995 74.2917484,93.7643823 76.0117919,91.7454545 L83.9171387,98.132987 C80.3677495,102.533466 75.2721979,105.411175 69.6724566,106.177662 C58.9663584,107.804675 51.4223988,102.547013 50.0973121,93.3122078 C49.1443777,87.6097144 50.5408093,81.7642208 53.9680754,77.1091061 C57.3953416,72.4539914 62.5611422,69.3862749 68.2871387,68.6057143 C79.911763,66.8431169 84.971185,74.1345455 86.1005202,81.5615584 C86.4400406,83.7984333 86.4400406,86.0737745 86.1005202,88.3106494 L63.3180636,91.7454545 Z M63.3180636,85.147013 L73.2562139,83.6405195 C73.3537866,83.117765 73.3537866,82.5814557 73.2562139,82.0587013 C73.1211054,81.0449908 72.5749347,80.1315974 71.746034,79.5331383 C70.9171333,78.9346792 69.8785776,78.703914 68.8743931,78.8950649 C66.5705491,79.2264935 63.9956647,81.0041558 63.2427746,85.147013 L63.3180636,85.147013 Z" id="Shape"></path>
                <path d="M88.0128613,93.4779221 C86.8985838,86.0509091 91.9730636,80.3262338 101.911214,78.8197403 C104.62262,78.428092 107.376195,78.428092 110.087601,78.8197403 L110.087601,78.412987 C110.155513,77.8173426 110.155513,77.2159042 110.087601,76.6202597 C109.756329,74.4358442 107.813873,73.4716883 104.06448,74.0290909 C100.797238,74.5279908 97.6304507,75.5450974 94.6834682,77.0420779 L91.2352312,67.4005195 C95.8204656,65.3671224 100.664791,63.9780286 105.630491,63.2727273 C117.315347,61.48 123.473988,65.1257143 124.482861,72.161039 C124.726549,73.8175071 124.756912,75.4984017 124.573208,77.1625974 L122.344653,97.3345455 L107.69341,99.5490909 L108.130087,95.8581818 C105.359451,98.9766234 102.96526,101.055584 98.8996532,101.673247 C93.4788439,102.441558 88.9464451,99.5641558 88.0128613,93.4779221 Z M109.560578,85.7194805 L109.726214,84.212987 C108.807117,84.084735 107.874675,84.084735 106.955578,84.212987 C103.266416,84.7703896 101.474538,86.8342857 101.926272,89.8623377 C102.21237,91.6701299 103.432052,92.4836364 104.742081,92.2877922 C107.060983,91.8961039 109.229306,89.1392208 109.560578,85.7194805 Z" id="Shape"></path>
                <polygon id="Path" points="125.536908 60.7719481 140.594711 58.4820779 144.238699 76.0327273 152.008526 56.7496104 167.503006 54.3994805 149.072254 93.5231169 135.655751 95.5719481"></polygon>
                <path d="M163.587977,99.1272727 L167.623468,87.4820779 C169.513446,88.5098224 171.677303,88.9206759 173.812225,88.6571429 C174.60703,88.5441784 175.376293,88.2944316 176.085954,87.918961 L166.072514,54.6103896 L180.934566,52.3657143 L184.970058,70.7148052 L192.739884,50.572987 L207.91815,48.2077922 L191.354566,85.5537662 C187.07815,95.1802597 182.229538,98.9615584 174.489827,100.136623 C170.836138,100.887439 167.041899,100.536148 163.587977,99.1272727 L163.587977,99.1272727 Z" id="Path"></path>
                <path d="M227.704104,56.8249351 L223.578266,57.4425974 L224.903353,45.6919481 L229.029191,45.0592208 C230.053121,35.6587013 234.389769,31.6212987 242.972717,30.3257143 C245.966244,29.8594021 249.013872,29.8594021 252.007399,30.3257143 L250.938295,39.8015584 C249.581373,39.5574112 248.195159,39.5218504 246.827514,39.6961039 C244.433324,40.0576623 243.529855,41.0519481 243.303988,43.0706494 L243.303988,43.3418182 L250.727486,42.2119481 L249.477688,53.5709091 L242.310173,54.6555844 L239.539538,79.5880519 L224.888295,81.8176623 L227.704104,56.8249351 Z M255.244827,28.9246753 L269.911127,26.6950649 L264.399971,75.7766234 L249.748728,77.9911688 L255.244827,28.9246753 Z" id="Shape"></path>
                <path d="M270.30263,58.9490909 C269.549056,53.402923 271.029929,47.7845211 274.419093,43.3313114 C277.808256,38.8781017 282.827728,35.9553409 288.371994,35.2067532 C299.484653,33.5194805 307.103902,39.7262338 308.48922,48.9309091 C310.069773,60.4605623 302.017296,71.0921698 290.495145,72.6883117 C279.322254,74.3605195 271.703006,68.1236364 270.30263,58.9490909 Z M294.696272,51.6727273 C294.611185,50.3389779 293.967901,49.1029539 292.924513,48.2684217 C291.881124,47.4338895 290.534371,47.078223 289.215231,47.2888312 C285.526069,47.8462338 283.387861,52.0041558 284.020289,56.2072727 C284.104892,57.5441085 284.750273,58.7829068 285.797159,59.6179428 C286.844046,60.4529789 288.194916,60.8064668 289.516387,60.5911688 C293.190491,60.0337662 295.328699,55.8758442 294.696272,51.6727273 L294.696272,51.6727273 Z" id="Shape"></path>
                <polygon id="Path" points="309.091532 32.9018182 322.779075 30.8379221 324.73659 45.0742857 330.759711 29.4971429 342.444566 27.7194805 345.034509 42.1818182 350.410145 26.6950649 364.549422 24.5558442 349.672312 63.1522078 337.626069 64.9901299 334.689798 49.9251948 328.064364 66.3911688 315.671792 68.2742857"></polygon>
                <path d="M382.935,26.3033766 L395.719075,24.3750649 L395.312514,28.1262338 C397.14915,25.1104052 400.193483,23.0304976 403.669595,22.4166234 C407.107909,21.6333351 410.651104,23.2095155 412.373006,26.2883117 C414.760713,22.6294213 418.595092,20.1632959 422.913468,19.5090909 C429.102225,18.56 432.70104,21.7688312 433.559335,27.4031169 C433.793858,29.1982529 433.793858,31.0162925 433.559335,32.8114286 L431.616879,50.3922078 L418.832803,52.3355844 L420.624682,36.3968831 C420.723732,35.6115988 420.723732,34.8169726 420.624682,34.0316883 C420.626449,33.2864259 420.281394,32.5828008 419.691179,32.1281197 C419.100963,31.6734386 418.332841,31.5195111 417.613121,31.7116883 C415.309277,32.0732468 414.089595,33.9262338 413.698092,37.4363636 L411.921272,53.3901299 L399.031792,55.3335065 L400.823671,39.3797403 C400.92272,38.594456 400.92272,37.7998298 400.823671,37.0145455 C400.826898,36.2696993 400.481431,35.566288 399.890115,35.1137171 C399.298799,34.6611462 398.529823,34.5116045 397.81211,34.7096104 C395.508266,35.0561039 394.288584,36.9090909 393.912139,40.4342857 L392.12026,56.3880519 L379.456647,58.3163636 L382.935,26.3033766 Z" id="Path"></path>
                <path d="M447.668497,35.2820779 C447.858468,36.4575241 448.536147,37.4978912 449.534282,38.1464122 C450.532417,38.7949332 451.758022,38.9911928 452.908613,38.6867532 C455.175119,38.2327145 457.22266,37.0280204 458.720925,35.267013 L465.617399,40.8561039 C462.527906,44.6760225 458.103932,47.1798209 453.239884,47.8612987 C443.904046,49.2924675 437.323786,44.6976623 436.104104,36.6379221 C435.262335,31.668399 436.468556,26.5696743 439.447595,22.5049082 C442.426634,18.4401421 446.924389,15.7560455 451.914798,15.0649351 C462.048699,13.5584416 466.475694,19.8857143 467.454451,26.3636364 C467.763793,28.3149039 467.763793,30.3027584 467.454451,32.254026 L447.668497,35.2820779 Z M447.593208,29.5272727 L456.266503,28.2015584 C456.349174,27.743269 456.349174,27.2738739 456.266503,26.8155844 C456.134162,25.9469218 455.656307,25.1687286 454.941622,24.6579973 C454.226937,24.1472661 453.336177,23.9474142 452.471936,24.1038961 C450.499364,24.36 448.255751,25.9116883 447.593208,29.5272727 Z" id="Shape"></path>
                <path d="M472.182601,12.76 L484.966676,10.8316883 L481.413035,42.8296104 L468.62896,44.772987 L472.182601,12.76 Z M473.206532,2.00363636 L486.442341,0 L485.478642,8.49662338 L472.242832,10.5454545 L473.206532,2.00363636 Z" id="Shape"></path>
                <path d="M489.017225,10.214026 L501.801301,8.27064935 L501.424855,12.2628571 C503.219908,9.09782913 506.324344,6.8911465 509.902399,6.23688312 C515.534017,5.37818182 519.238237,8.57194805 520.11159,14.3116883 C520.347676,16.0714169 520.347676,17.8548169 520.11159,19.6145455 L518.169133,37.1953247 L505.400116,39.1688312 L507.191994,23.2150649 C507.290727,22.4297607 507.290727,21.6351744 507.191994,20.8498701 C507.163384,20.0969546 506.792934,19.3982521 506.185908,18.9523021 C505.578882,18.5063521 504.801636,18.3619027 504.075029,18.56 C501.545318,18.9516883 500.446098,20.8498701 500.054595,24.2997403 L498.262717,40.2535065 L485.463584,42.1818182 L489.017225,10.214026 Z" id="Path"></path>
            </g>
            <path d="M19.5285591,119.214789 L34.2260674,117 L32.2925822,133.835387 C34.3809804,130.261516 37.9490237,127.777278 42.0506401,127.041373 C48.5308364,126.068662 52.8056513,129.705106 53.8026045,136.244718 C54.0657985,138.231505 54.0657985,140.243847 53.8026045,142.230634 L51.5670123,162.253521 L36.8695041,164.46831 L38.9238321,146.301056 C39.0380479,145.406734 39.0380479,144.501717 38.9238321,143.607394 C38.8744396,142.770423 38.4488605,141.999485 37.7641938,141.506706 C37.0795272,141.013928 36.2079135,140.85123 35.3891795,141.06338 C32.4738464,141.497359 31.2201022,143.652289 30.7518362,147.602993 L28.6975082,165.755282 L14,168 L19.5285591,119.214789 Z" id="Path" fill="#002561"></path>
            <path d="M70.7440984,146.325065 C70.9600987,147.674039 71.7459388,148.869227 72.9062709,149.613525 C74.0666031,150.357822 75.4924544,150.581327 76.8293803,150.228479 C79.458018,149.71557 81.8333682,148.339794 83.56883,146.325065 L91.5557625,152.705646 C87.9677989,157.078555 82.8275745,159.939622 77.179284,160.707646 C66.3474822,162.329065 58.7408799,157.089481 57.2956254,147.88643 C56.3328565,142.203545 57.7436996,136.378152 61.2063362,131.739044 C64.6689728,127.099936 69.8880861,124.042768 75.6731767,123.264892 C87.4177708,121.508355 92.5294076,128.789725 93.7312507,136.176186 C94.0895831,138.404204 94.0895831,140.674053 93.7312507,142.90207 L70.7440984,146.325065 Z M70.7440984,139.764325 L80.7848135,138.263012 C80.8741565,137.766458 80.8741565,137.258253 80.7848135,136.761699 C80.6483106,135.751474 80.0965034,134.841221 79.2590481,134.24482 C78.4215929,133.648419 77.372319,133.418447 76.357771,133.608941 C74.0301506,133.849151 71.4286926,135.6207 70.6680324,139.764325 L70.7440984,139.764325 Z" id="Shape" fill="#002561"></path>
            <path d="M95.1559768,147.682307 C94.0210835,140.255414 99.1205373,134.515767 109.107598,133.009298 C111.837927,132.624791 114.609028,132.624791 117.339358,133.009298 L117.339358,132.602551 C117.415164,132.007368 117.415164,131.405036 117.339358,130.809853 C117.006455,128.625473 115.069571,127.661332 111.286593,128.218726 C108.003272,128.717618 104.820899,129.734708 101.859413,131.231664 L98.3942056,121.575197 C103.004562,119.548852 107.871739,118.160063 112.860312,117.447472 C124.587543,115.669838 130.715966,119.300429 131.790332,126.350704 C132.035219,128.007145 132.065732,129.688013 131.881123,131.352182 L129.656733,151.523803 L114.918252,153.738312 L115.357077,150.047463 C112.572806,153.165854 110.181964,155.259846 106.081216,155.862434 C100.633728,156.690992 96.0790233,153.753377 95.1559768,147.682307 Z M116.794609,139.908926 L116.96106,138.402457 C116.037439,138.274207 115.100408,138.274207 114.176788,138.402457 C110.484602,138.959851 108.668773,141.023713 109.137862,144.051716 C109.410236,145.859479 110.651053,146.688037 111.952397,146.477131 C114.282712,146.100514 116.461707,143.403934 116.794609,139.908926 Z" id="Shape" fill="#002561"></path>
            <polygon id="Path" fill="#002561" points="133 114.500549 148.064562 112.164654 151.710187 130.068057 159.498565 110.397366 175 108 156.606169 147.956092 143.228838 150"></polygon>
            <path d="M171,153.575509 L175.005435,141.995276 C176.881336,143.017287 179.029077,143.425848 181.148098,143.163785 C181.936982,143.051451 182.700516,142.803098 183.404891,142.429722 L173.466033,109.262015 L188.217391,107.074804 L192.222826,125.321537 L199.875,105.292077 L215,103 L198.559783,140.122663 C194.300272,149.710438 189.487772,153.470643 181.805707,154.639153 C178.178092,155.362892 174.41786,154.99276 171,153.575509 L171,153.575509 Z" id="Path" fill="#002561"></path>
            <polygon id="Path" fill="#002561" points="215.422446 111.221381 238 108 236.592686 119.778619 214 123"></polygon>
            <path d="M241.336866,120.746901 C239.398998,107.821272 246.008779,96.1685076 256.359096,94.5925811 C260.475772,93.7555931 264.720859,95.2138151 267.475547,98.4111724 L269.38337,81.2426647 L284,79 L278.561953,128.353777 L263.9303,130.581289 L264.350923,126.808157 C262.123368,129.977908 258.762468,132.151105 254.977051,132.869413 C248.697758,133.824061 242.658822,129.520569 241.336866,120.746901 Z M266.544168,110.579144 C266.456849,109.242887 265.811832,108.006669 264.769319,107.177525 C263.726806,106.34838 262.384606,106.0041 261.076076,106.230193 C257.095185,106.836318 254.76674,111.109504 255.397673,115.322077 C255.490055,116.653345 256.134166,117.883757 257.171978,118.711436 C258.20979,119.539115 259.545262,119.887468 260.850743,119.671028 C264.861678,119.00429 267.190124,114.731104 266.544168,110.579144 Z" id="Shape" fill="#002561"></path>
            <path d="M284.197043,117.372498 C283.934319,115.34134 283.934319,113.284091 284.197043,111.252933 L286.430113,90.7829887 L301.111037,88.5187498 L299.059027,107.091629 C298.944779,108.005909 298.944779,108.931153 299.059027,109.845433 C299.087554,110.722559 299.511539,111.537883 300.209219,112.057254 C300.906899,112.576624 301.801077,112.742574 302.634956,112.507444 C305.546999,112.063775 306.799329,109.860732 307.251978,105.821819 L309.303988,87.264239 L324,85 L319.911069,122.26815 L305.199968,124.501791 L305.697882,119.912117 C303.608564,123.569432 300.038309,126.109649 295.935747,126.857823 C289.462863,127.791057 285.192872,124.073421 284.197043,117.372498 Z" id="Path" fill="#002561"></path>
            <path d="M328.940299,112.075999 C328.737008,110.439572 328.737008,108.784595 328.940299,107.148168 L330.089552,96.7893657 L326,97.4108938 L327.313433,85.8534298 L331.402985,85.2319017 L332.447761,76.1901468 L346.970149,74 L345.925373,83.0565531 L354,81.8430934 L352.626866,93.326566 L344.567164,94.5400257 L343.716418,102.249934 C343.591375,103.158285 343.591375,104.079268 343.716418,104.987618 C343.940299,106.467447 344.955224,107.074177 347,106.763413 C348.428269,106.496944 349.810538,106.028482 351.104478,105.372374 L349.761194,117.580962 C347.461963,118.582095 345.045051,119.293041 342.567164,119.697118 C334.358209,120.925376 329.910448,118.424465 328.940299,112.075999 Z" id="Path" fill="#002561"></path>
            <path d="M352,125.586322 L356.02038,114.007042 C357.894152,115.034495 360.045264,115.438418 362.163043,115.160476 C362.946659,115.045897 363.704904,114.79764 364.404891,114.426473 L354.480978,81.3214178 L369.217391,79.0744683 L373.222826,97.3196979 L380.875,77.3068681 L396,75 L379.559783,112.134585 C375.300272,121.721569 370.502717,125.466485 362.805707,126.634898 C359.179515,127.362405 355.419592,126.997545 352,125.586322 L352,125.586322 Z" id="Path" fill="#002561"></path>
            <polygon id="Path" fill="#002561" points="518.619273 53.4004914 406 70 407.380727 62.6142506 520 46"></polygon>
            <polygon id="Path" fill="#002561" points="159.617244 161.451661 13 184 14.3977861 176.533466 161 154"></polygon>
        </g>
    </g>
</svg>