<?xml version="1.0" encoding="UTF-8"?>
<svg width="10px" height="15px" viewBox="0 0 10 15" version="1.1" xmlns="http://www.w3.org/2000/svg" xmlns:xlink="http://www.w3.org/1999/xlink">
    <!-- Generator: Sketch 62 (91390) - https://sketch.com -->
    <title>Path 4</title>
    <desc>Created with Sketch.</desc>
    <g id="Page-1" stroke="none" stroke-width="1" fill="none" fill-rule="evenodd">
        <g id="RIO-Homepage_Desktop_Option-1" transform="translate(-652.000000, -8073.000000)" stroke="#AF1E23" stroke-width="3">
            <g id="footer" transform="translate(119.000000, 7982.000000)">
                <g id="Group-7" transform="translate(271.000000, 74.000000)">
                    <polyline id="Path-4" transform="translate(266.000000, 24.500000) rotate(-180.000000) translate(-266.000000, -24.500000) " points="269 19 263 24.5 269 30"></polyline>
                </g>
            </g>
        </g>
    </g>
</svg>